time,open,close,high,low,volume
1558340940000,0.21,0.21,0.21,0.21,3500.0
1558342260000,0.17,0.17,0.17,0.17,19000.0
1558342320000,0.10001,0.10001,0.10001,0.10001,1.0
1558342380000,0.10001,0.10001,0.10001,0.10001,10.0
1558342980000,0.18,0.18,0.18,0.18,19000.0
1558406580000,0.17415,0.1742,0.1742,0.17415,367.0
1558467720000,0.17273,0.17248,0.17273,0.17248,65.04270978000001
1558556580000,0.19,0.19,0.19,0.19,19000.0
1558636380000,0.19277,0.19277,0.19277,0.19277,2.25353854
1558682160000,0.17979,0.1798,0.1798,0.17979,1666.25307007
1558703040000,0.19054000000000001,0.19054000000000001,0.19054000000000001,0.19054000000000001,100.0
1558802460000,0.2,0.2,0.2,0.2,62442.71314482
1558802640000,0.20331,0.20331,0.20331,0.20331,15299.74949214
1558802760000,0.2,0.2,0.2,0.2,249.99999079
1558803000000,0.20331,0.20331,0.20331,0.20331,195.64450652
1558803120000,0.20331,0.20331,0.20331,0.20331,194.25125126
1558803240000,0.20331,0.20331,0.20331,0.20331,194.25738839
1558803480000,0.20331,0.20331,0.20331,0.20331,3537.84857558
1558803600000,0.20331,0.20331,0.20331,0.20331,193.96322623
1558803720000,0.20331,0.20331,0.20331,0.20331,193.95098899
1558803840000,0.20331,0.20331,0.20331,0.20331,10102.00375505
1558803900000,0.20331,0.20331,0.20331,0.20331,11626.28323372
1558804620000,0.20825,0.20825,0.20825,0.20825,9.98066624
1558808940000,0.20826,0.20826,0.20826,0.20826,7342.60649668
1558809360000,0.20825,0.20825,0.20825,0.20825,361.29743589
1558809420000,0.20826,0.20826,0.20826,0.20826,15017.84200166
1558809480000,0.20826,0.20826,0.20826,0.20826,16850.57310199
1558809660000,0.21,0.21,0.21,0.21,1768.74058571
1558809780000,0.21,0.21,0.21,0.21,17231.259414289998
1558811520000,0.21405,0.21406,0.21406,0.21405,3149.7073226999996
1558815120000,0.19125,0.19125,0.19125,0.1876,15169.08405741
1558815600000,0.21405,0.21406,0.21406,0.21405,9444.96137062
1558827060000,0.21403000000000005,0.21406,0.21406,0.21403000000000005,2749.12165194
1558837380000,0.21406,0.21406,0.21406,0.21406,3319.59583939
1558837800000,0.21406,0.21406,0.21406,0.21406,1106.77323646
1558837980000,0.21406,0.21406,0.21406,0.21406,470.67816967
1558838040000,0.21406,0.21406,0.21406,0.21406,300.30030021
1558838160000,0.21406,0.21406,0.21406,0.21406,407.94035784
1558840680000,0.21791,0.21791,0.21791,0.21791,596.96459088
1558840740000,0.21791,0.21791,0.21791,0.21791,104.39906842
1558840920000,0.21791,0.21791,0.21791,0.21791,2040.14030563
1558840980000,0.21791,0.21791,0.21791,0.21791,2856.03789443
1558841040000,0.21791,0.21791,0.21791,0.21791,143.87668762
1558841100000,0.21791,0.21791,0.21791,0.21791,723.15967142
1558841460000,0.21791,0.21791,0.21791,0.21791,55.07644899
1558841580000,0.21791,0.21791,0.21791,0.21791,62.32144922
1558842300000,0.22,0.22,0.22,0.22,5.41036818
1558842360000,0.22,0.22,0.22,0.22,287.10770141
1558842480000,0.22,0.22,0.22,0.22,1345.08725664
1558842540000,0.22,0.22,0.22,0.22,787.7015460499997
1558843260000,0.22,0.22,0.22,0.22,475.21767551
1558843320000,0.22,0.22,0.22,0.22,350.31258435
1558844760000,0.22,0.22,0.22,0.22,50.38393181
1558844940000,0.22,0.22,0.22,0.22,200.27514999
1558845000000,0.22,0.22,0.22,0.22,1074.4109909
1558845120000,0.22,0.22,0.22,0.22,3557.16342284
1558845180000,0.22,0.22,0.22,0.22,5379.02681818
1558845300000,0.22,0.22,0.22,0.22,1849.56584442
1558845360000,0.22,0.22030999999999998,0.22030999999999998,0.22,3991.20897223
1558845420000,0.22030999999999998,0.22030999999999998,0.22030999999999998,0.22030999999999998,2590.17712988
1558845540000,0.22030999999999998,0.22030999999999998,0.22030999999999998,0.22030999999999998,136.90095774
1558845600000,0.22030999999999998,0.22030999999999998,0.22030999999999998,0.22030999999999998,36.02737052
1558845840000,0.22030999999999998,0.22030999999999998,0.22030999999999998,0.22030999999999998,3010.77490354
1558845900000,0.22030999999999998,0.22030999999999998,0.22030999999999998,0.22030999999999998,4830.65746446
1558846260000,0.22030999999999998,0.22030999999999998,0.22030999999999998,0.22030999999999998,1006.30575097
1558846320000,0.22030999999999998,0.22030999999999998,0.22030999999999998,0.22030999999999998,4111.43418297
1558846380000,0.22030999999999998,0.22030999999999998,0.22030999999999998,0.22030999999999998,5752.64110063
1558846440000,0.22030999999999998,0.22030999999999998,0.22030999999999998,0.22030999999999998,2726.14460303
1558846500000,0.22030999999999998,0.22030999999999998,0.22030999999999998,0.22030999999999998,5845.60429498
1558846560000,0.22030999999999998,0.22030999999999998,0.22030999999999998,0.22030999999999998,30.88656892
1558846620000,0.22030999999999998,0.22030999999999998,0.22030999999999998,0.22030999999999998,3967.6324526999997
1558846680000,0.22030999999999998,0.22030999999999998,0.22030999999999998,0.22030999999999998,422.14042543
1558846920000,0.22030999999999998,0.22030999999999998,0.22030999999999998,0.22030999999999998,5.03e-06
1558848720000,0.22505999999999998,0.22505999999999998,0.22505999999999998,0.22505999999999998,89.5818238
1558863180000,0.22507,0.22507,0.22507,0.22507,16129.15286348
1558863720000,0.22981,0.23,0.23,0.22981,41434.01573058
1558863780000,0.23,0.23,0.23,0.23,8372.10753476
1558863900000,0.23,0.23,0.23,0.23,4791.2496723
1558864020000,0.23,0.23,0.23,0.23,3350.95098459
1558864440000,0.23442,0.23442,0.23442,0.23442,168.46940441
1558864800000,0.23442,0.23442,0.23442,0.23442,168.35770371
1558864920000,0.23442,0.23442,0.23442,0.23442,168.53596397
1558864980000,0.23442,0.23442,0.23442,0.23442,19824.15696519
1558866060000,0.23875,0.23876,0.23876,0.23875,20121.93254972
1558870680000,0.23875,0.23876,0.23876,0.23875,1550.04388975
1558872000000,0.22801999999999997,0.22801999999999997,0.22801999999999997,0.22801999999999997,706.4652980000003
1558872540000,0.22665,0.22665,0.22665,0.22665,149.64549967
1558872720000,0.22780999999999998,0.22780999999999998,0.22780999999999998,0.22780999999999998,138.30029849
1558872960000,0.22575,0.22575,0.22575,0.22575,939.61197092
1558877220000,0.23091,0.23091,0.23091,0.23091,500.50049670000004
1558880580000,0.23071999999999998,0.23071999999999998,0.23071999999999998,0.23071999999999998,1674.33105072
1558881120000,0.23091,0.23091,0.23091,0.23091,460.04905279999997
1558882500000,0.23105,0.23105,0.23105,0.23105,60.06005663
1558884360000,0.23273000000000002,0.23273000000000002,0.23273000000000002,0.23273000000000002,1128.18686719
1558885200000,0.23171999999999998,0.23171999999999998,0.23171999999999998,0.23171999999999998,833.72699056
1558885380000,0.23156999999999997,0.23156999999999997,0.23156999999999997,0.23156999999999997,2647.47584567
1558899600000,0.22244,0.22244,0.22244,0.22244,1053.642978
1558901280000,0.21903000000000009,0.21903000000000009,0.21903000000000009,0.21903000000000009,1620.2397207499994
1559056980000,0.18692,0.18692,0.18692,0.18692,176.05219530000005
1559065020000,0.1801,0.1801,0.1801,0.1801,500.0
1559121900000,0.19158,0.19158,0.19158,0.19158,50.0
1559152380000,0.18541,0.18541,0.18541,0.18541,2169.7225154
1559160720000,0.18657,0.18657,0.18657,0.18657,1000.0
1559191500000,0.1871,0.1871,0.1871,0.1871,107.01021399999999
1559191560000,0.1871,0.1871,0.1871,0.1871,892.98
1559209980000,0.1875,0.1875,0.1875,0.1875,36.70090358
1559210760000,0.1875,0.1875,0.1875,0.1875,963.29909642
1559215200000,0.1871,0.18345,0.1871,0.18345,688.489786
1559222220000,0.18345,0.1831,0.18345,0.1831,2.0061161
1559232000000,0.17755,0.1771,0.17755,0.1771,638.99
1559232060000,0.1771,0.1771,0.1771,0.1771,1364.01
1559232960000,0.18905999999999998,0.18907000000000002,0.18907000000000002,0.18905999999999998,6640.868781800003
1559251500000,0.19921,0.19921,0.19921,0.19921,2578.64068447
1559251560000,0.19921,0.20156,0.20156,0.19921,8674.53840825
1559251620000,0.20546,0.20546,0.20546,0.20546,316.07943798
1559251680000,0.20546,0.20546,0.20546,0.20546,10938.11032475
1559251800000,0.20546999999999999,0.20546,0.20546999999999999,0.20546,21.58098399
1559251920000,0.20546999999999999,0.20546999999999999,0.20546999999999999,0.20546999999999999,2.0
1559252040000,0.20711999999999997,0.20711999999999997,0.20711999999999997,0.20711999999999997,3795.16801385
1559254080000,0.19519,0.19476,0.19519,0.19476,20081.68868463
1559254140000,0.19468,0.19468,0.19468,0.19468,743.12
1559257980000,0.19102,0.19102,0.19102,0.19102,520.0
1559322720000,0.18928,0.18928,0.18928,0.18928,50.0
1559382780000,0.17227,0.17227,0.17227,0.17227,335.50027785
1559400780000,0.18705,0.18705,0.18705,0.18705,836.89866569
1559403240000,0.1784,0.1784,0.1784,0.1784,331.0
1559426820000,0.17343,0.17292000000000002,0.17343,0.17292000000000002,4358.18634777
1559434380000,0.18467999999999998,0.18467999999999998,0.18467999999999998,0.18467999999999998,320.09092574
1559529480000,0.19233,0.19234,0.19234,0.19233,3379.43225538
1559604240000,0.21315,0.21315,0.21315,0.21315,1132.26433856
1559606820000,0.21648,0.21648,0.21648,0.21648,4008.81849163
1559606940000,0.21881,0.21881,0.21881,0.21881,65.03923824
1559608440000,0.20915,0.20915,0.20915,0.20915,399.2
1559660100000,0.22024000000000002,0.22024000000000002,0.22024000000000002,0.22024000000000002,3.0
1559660220000,0.22,0.22,0.22,0.22,2267.39996994
1559675280000,0.23876,0.23911,0.23911,0.23876,29502.91547061
1559675340000,0.23911,0.24131999999999998,0.24131999999999998,0.23911,29854.34350832
1559675460000,0.24131999999999998,0.24131999999999998,0.24131999999999998,0.24131999999999998,5.52e-06
1559675520000,0.24131999999999998,0.24131999999999998,0.24131999999999998,0.24131999999999998,82.87
1559675640000,0.24131999999999998,0.23911,0.24131999999999998,0.23911,323.78
1559683020000,0.235,0.235,0.235,0.235,496.4964965
1559683080000,0.235,0.235,0.235,0.235,796.5035035
1559736660000,0.235,0.235,0.235,0.235,6.397
1559738280000,0.23437,0.23437,0.23437,0.23437,9.63
1559752860000,0.2346,0.2346,0.2346,0.2346,3.63
1559772360000,0.23628000000000002,0.23697,0.23697,0.23628000000000002,20.0
1559829660000,0.24599000000000001,0.24599000000000001,0.24599000000000001,0.24599000000000001,15358.27559245
1559830320000,0.25068,0.25068,0.25068,0.25068,155.00426692
1559830380000,0.25068,0.25068,0.25068,0.25068,13846.91717191
1559830440000,0.25068,0.25068,0.25068,0.25068,700.00040027
1559830500000,0.25068,0.25068,0.25068,0.25068,2672.08904099
1559830620000,0.25068,0.25068,0.25068,0.25068,378.88539652
1559830680000,0.25068,0.25068,0.25068,0.25068,180.0
1559830740000,0.25068,0.25101999999999997,0.25101999999999997,0.25068,18604.45936481
1559830800000,0.25101999999999997,0.25101999999999997,0.25101999999999997,0.25101999999999997,2001.22906299
1559830860000,0.25101999999999997,0.25756999999999997,0.25756999999999997,0.25101999999999997,35240.34404088
1559831040000,0.25,0.25,0.25,0.25,1364.99999163
1559831220000,0.25784,0.25784,0.25784,0.25784,1000.0
1559831280000,0.25784,0.25784,0.25784,0.25784,1500.0
1559831700000,0.25784,0.25784,0.25784,0.25784,3105.532
1559831760000,0.25784,0.25784,0.25784,0.25784,6400.206357
1559831820000,0.25784,0.25784,0.25784,0.25784,13561.7680997
1559831880000,0.25784,0.25784,0.25784,0.25784,6540.61493623
1559831940000,0.25784,0.25784,0.25784,0.25784,801.6199999999999
1559832000000,0.25784,0.25784,0.25784,0.25784,3331.38466171
1559836440000,0.26206999999999997,0.26206999999999997,0.26206999999999997,0.26206999999999997,1712.67633592
1559836740000,0.26206999999999997,0.26206999999999997,0.26206999999999997,0.26206999999999997,154.74290766
1559836920000,0.26206999999999997,0.26206999999999997,0.26206999999999997,0.26206999999999997,5386.87770771
1559836980000,0.26206999999999997,0.26206999999999997,0.26206999999999997,0.26206999999999997,200.14543639
1559837040000,0.26206999999999997,0.26206999999999997,0.26206999999999997,0.26206999999999997,4916.85304355
1559837100000,0.26206999999999997,0.26206999999999997,0.26206999999999997,0.26206999999999997,8097.396746599998
1559837340000,0.26206999999999997,0.26206999999999997,0.26206999999999997,0.26206999999999997,129.70170771
1559837640000,0.26206999999999997,0.26206999999999997,0.26206999999999997,0.26206999999999997,785.42859015
1559838420000,0.26206999999999997,0.26206999999999997,0.26206999999999997,0.26206999999999997,759.01
1559838480000,0.26206999999999997,0.26206999999999997,0.26206999999999997,0.26206999999999997,1293.74949368
1559838540000,0.26206999999999997,0.26206999999999997,0.26206999999999997,0.26206999999999997,9.74086353
1559838600000,0.26206999999999997,0.26206999999999997,0.26206999999999997,0.26206999999999997,11041.94448092
1559838660000,0.26206999999999997,0.26206999999999997,0.26206999999999997,0.26206999999999997,223.61255771
1559839080000,0.26442,0.26442,0.26442,0.26442,163.65001494
1559839260000,0.26442,0.26442,0.26442,0.26442,32289.79759772
1559839320000,0.26442,0.26442,0.26442,0.26442,81.75097368
1559839680000,0.26442,0.26442,0.26442,0.26442,649.96569449
1559841720000,0.26442,0.26442,0.26442,0.26442,15.0
1559841780000,0.26442,0.26442,0.26442,0.26442,287.38296336
1559844480000,0.26442,0.26442,0.26442,0.26442,1340.53287571
1559844600000,0.26442,0.26442,0.26442,0.26442,93.82236389
1559844780000,0.26855,0.26855,0.26855,0.26855,639.1
1559845800000,0.26855,0.26855,0.26855,0.26855,11287.86297733
1559845920000,0.26855,0.26855,0.26855,0.26855,11181.01297996
1559845980000,0.26855,0.26855,0.26855,0.26855,3909.49187703
1559930640000,0.24609,0.24608000000000002,0.24609,0.24608000000000002,190.0
1560010920000,0.27295,0.27295,0.27295,0.27295,592.95
1560011340000,0.27295,0.27295,0.27295,0.27295,652.4121104
1560011400000,0.27295,0.27295,0.27295,0.27295,2521.05350756
1560011880000,0.27295,0.27295,0.27295,0.27295,432.83498718
1560012300000,0.27492,0.27492,0.27492,0.27492,12778.54322764
1560013260000,0.27492,0.27492,0.27492,0.27492,918.97099958
1560013440000,0.27492,0.27492,0.27492,0.27492,22318.81944797
1560022320000,0.27853,0.27853,0.27853,0.27853,80.0
1560022380000,0.27852,0.27852,0.27852,0.27852,20.0
1560056820000,0.27938,0.27938,0.27938,0.27938,1370.68665355
1560081780000,0.27996,0.27996,0.27996,0.27996,57.0
1560082020000,0.27996,0.27996,0.27996,0.27996,7545.4178273900025
1560082080000,0.27996,0.27996,0.27996,0.27996,1551.28564974
1560082260000,0.27996,0.27996,0.27996,0.27996,25.19744963
1560082320000,0.27996,0.27996,0.27996,0.27996,4926.08054601
1560083100000,0.27996,0.27996,0.27996,0.27996,2569.58982459
1560083580000,0.27996,0.27996,0.27996,0.27996,15690.26740358
1560087480000,0.27996,0.27996,0.27996,0.27996,253.35402703
1560089580000,0.28397,0.28397,0.28397,0.28397,90.91391392
1560095340000,0.28397,0.28397,0.28397,0.28397,5.34875515
1560095940000,0.28397,0.28397,0.28397,0.28397,1031.75623833
1560096120000,0.28397,0.28397,0.28397,0.28397,13.9574779
1560096240000,0.28397,0.28397,0.28397,0.28397,19926.82829301
1560096300000,0.28397,0.28397,0.28397,0.28397,9090.60048733
1560098520000,0.29028000000000004,0.29028000000000004,0.29028000000000004,0.29028000000000004,4.98709866
1560098820000,0.29028000000000004,0.29028000000000004,0.29028000000000004,0.29028000000000004,34.39369574
1560098940000,0.29028000000000004,0.29028000000000004,0.29028000000000004,0.29028000000000004,5803.4980791
1560124800000,0.28976999999999997,0.29,0.29,0.28976999999999997,7841.292385449998
1560164580000,0.29028000000000004,0.29028000000000004,0.29028000000000004,0.29028000000000004,70.98
1560180540000,0.29028000000000004,0.29028000000000004,0.29028000000000004,0.29028000000000004,458.36025561
1560180600000,0.29028000000000004,0.29028000000000004,0.29028000000000004,0.29028000000000004,4037.24151162
1560180660000,0.29028000000000004,0.29028000000000004,0.29028000000000004,0.29028000000000004,2876.07208416
1560180720000,0.29028000000000004,0.29028000000000004,0.29028000000000004,0.29028000000000004,508.21692788
1560180840000,0.29028000000000004,0.29028000000000004,0.29028000000000004,0.29028000000000004,4200.82372439
1560180900000,0.29028000000000004,0.29255,0.29255,0.29028000000000004,18648.47035961
1560181080000,0.29255,0.29255,0.29255,0.29255,692.0239577899997
1560181140000,0.29255,0.29255,0.29255,0.29255,2726.61704867
1560181200000,0.29255,0.29255,0.29255,0.29255,1006.57299264
1560181260000,0.29255,0.29255,0.29255,0.29255,1262.83562807
1560181320000,0.29255,0.29255,0.29255,0.29255,2436.67661591
1560181380000,0.29255,0.29255,0.29255,0.29255,28301.81683202
1560181980000,0.3001,0.3001,0.3001,0.3001,2604.60699769
1560182040000,0.3001,0.3001,0.3001,0.3001,5249.9291188
1560182100000,0.3001,0.3001,0.3001,0.3001,4597.64082343
1560182160000,0.3001,0.3001,0.3001,0.3001,1131.46463338
1560182220000,0.3001,0.3001,0.3001,0.3001,14860.50745779
1560182280000,0.3001,0.3001,0.3001,0.3001,1032.93501644
1560182340000,0.3001,0.3001,0.3001,0.3001,611.7299999999998
1560182520000,0.3001,0.3001,0.3001,0.3001,6361.82341265
1560182580000,0.30086999999999997,0.30086999999999997,0.30086999999999997,0.30086999999999997,1780.91967898
1560182820000,0.30086999999999997,0.30086999999999997,0.30086999999999997,0.30086999999999997,615.21
1560182880000,0.30086999999999997,0.30086999999999997,0.30086999999999997,0.30086999999999997,922.37937647
1560182940000,0.30086999999999997,0.30086999999999997,0.30086999999999997,0.30086999999999997,453.3467677
1560183000000,0.30086999999999997,0.30086999999999997,0.30086999999999997,0.30086999999999997,523.40889087
1560187140000,0.29596,0.29596,0.29596,0.29596,2145.97584175
1560187200000,0.29596,0.29448,0.29596,0.29448,1531.97942549
1560187260000,0.29448,0.29448,0.29448,0.29448,740.93
1560235920000,0.30689,0.30689,0.30689,0.30689,257.53279891
1560247920000,0.30695,0.30695,0.30695,0.30695,6445.314293330001
1560247980000,0.30695,0.30695,0.30695,0.30695,2074.05005804
1560248040000,0.30695,0.30695,0.30695,0.30695,10016.68014746
1560248100000,0.30695,0.30695,0.30695,0.30695,14079.18079186
1560248160000,0.30695,0.30695,0.30695,0.30695,2185.89841081
1560248220000,0.30695,0.30695,0.30695,0.30695,126.12074273
1560248280000,0.30695,0.30695,0.30695,0.30695,342.23151344
1560248340000,0.30695,0.30695,0.30695,0.30695,477.89556338
1560248520000,0.30695,0.30695,0.30695,0.30695,39.47865127
1560248640000,0.30695,0.30695,0.30695,0.30695,1634.83966571
1560250440000,0.31115,0.31115,0.31115,0.31115,7.70823507
1560251280000,0.30929,0.30929,0.30929,0.30929,154.60073105
1560251700000,0.30651999999999996,0.30651999999999996,0.30651999999999996,0.30651999999999996,66.99435626
1560254700000,0.30508,0.30508,0.30508,0.30508,169.49816702
1560260700000,0.30404000000000003,0.30404000000000003,0.30404000000000003,0.30404000000000003,2300.02627943
1560280500000,0.3017,0.3017,0.3017,0.3017,115.48592888
1560308700000,0.29919,0.29919,0.29919,0.29919,1573.1681829000001
1560310860000,0.30157,0.30153,0.30157,0.30153,4429.30108566
1560345420000,0.31184,0.31184,0.31184,0.31184,1311.98210499
1560346320000,0.31184,0.31184,0.31184,0.31184,1146.27547775
1560346740000,0.31184,0.31184,0.31184,0.31184,7626.05013143
1560346800000,0.31184,0.31184,0.31184,0.31184,591.88280528
1560346860000,0.31184,0.31184,0.31184,0.31184,40.09746989
1560348060000,0.31184,0.31184,0.31184,0.31184,5451.49801563
1560348120000,0.31184,0.31184,0.31184,0.31184,4481.04137292
1560348180000,0.31184,0.31184,0.31184,0.31184,784.41747691
1560348240000,0.31184,0.31184,0.31184,0.31184,410.05643918
1560348300000,0.31184,0.31184,0.31184,0.31184,14.93708955
1560348360000,0.31184,0.31184,0.31184,0.31184,1146.6622445
1560348420000,0.31184,0.31184,0.31184,0.31184,1495.84687252
1560348780000,0.31184,0.31184,0.31184,0.31184,942.66434389
1560348900000,0.31184,0.31184,0.31184,0.31184,10764.05804287
1560349140000,0.31166,0.31166,0.31166,0.31166,245.31980948
1560416100000,0.30045,0.30045,0.30045,0.30045,1896.78322629
1560421200000,0.2995,0.2995,0.2995,0.2995,33.0
1560422220000,0.28925,0.28907,0.28925,0.28907,84.52922698
1560422280000,0.28907,0.28907,0.28907,0.28907,31.29906718
1560427620000,0.29767,0.29769,0.29769,0.29767,1456.62964666
1560430020000,0.30369,0.30369,0.30369,0.30369,1249.79978
1560438420000,0.29372,0.29299000000000003,0.29372,0.29299000000000003,3138.75098015
1560438600000,0.29155,0.29155,0.29155,0.29155,2416.3725557400007
1560448320000,0.29832,0.29832,0.29832,0.29832,33.5
1560451200000,0.29727,0.29727,0.29727,0.29727,8330.10867241
1560451260000,0.29727,0.29727,0.29727,0.29727,1794.26412706
1560451320000,0.29727,0.29727,0.29727,0.29727,1112.36671613
1560451680000,0.29727,0.29727,0.29727,0.29727,2975.80763252
1560451860000,0.29727,0.29727,0.29727,0.29727,6492.193317920001
1560452160000,0.29727,0.29727,0.29727,0.29727,608.68885194
1560452220000,0.29727,0.29727,0.29727,0.29727,12321.57068202
1560452400000,0.29830999999999996,0.29830999999999996,0.29830999999999996,0.29830999999999996,4.0
1560485700000,0.30156,0.30156,0.30156,0.30156,260.492576
1560492240000,0.30186,0.30186,0.30186,0.30186,128.518976
1560492300000,0.30186,0.30186,0.30186,0.30186,1157.41142738
1560495240000,0.29725,0.29682,0.29725,0.29682,2558.88215065
1560495600000,0.29702,0.29702,0.29702,0.29702,602.35590515
1560497640000,0.29275999999999996,0.29275999999999996,0.29275999999999996,0.29275999999999996,1597.28
1560498360000,0.29361,0.29361,0.29361,0.29361,108.4581496
1560505440000,0.29394000000000003,0.29394000000000003,0.29394000000000003,0.29394000000000003,923.4123155999999
1560507120000,0.2903,0.2903,0.2903,0.2903,3027.40721185
1560509940000,0.28836,0.28809,0.28858,0.28809,4637.37282243
1560510120000,0.2891,0.2891,0.2891,0.2891,1176.99798277
1560510180000,0.2875,0.28733000000000003,0.2875,0.28733000000000003,156.26647163
1560510300000,0.29018,0.29023000000000004,0.29023000000000004,0.28996,4306.35977484
1560510360000,0.29077,0.29077,0.29077,0.29077,79.04998234
1560515460000,0.29169,0.29169,0.29169,0.29169,30.0
1560520020000,0.29146,0.29089,0.29147,0.29089,649.89373548
1560527460000,0.30018,0.30018,0.30018,0.30018,5.17581247
1560547560000,0.29706,0.29706,0.29706,0.29706,387.37016177
1560547620000,0.2948,0.2948,0.2948,0.2948,2924.17591949
1560548040000,0.2934,0.2934,0.2934,0.2934,1284.28593799
1560567600000,0.28585,0.28585,0.28585,0.28585,114.6721527
1560582120000,0.28936999999999996,0.28936999999999996,0.28936999999999996,0.28936999999999996,2154.92899641
1560588180000,0.28981999999999997,0.28981999999999997,0.28981999999999997,0.28981999999999997,466.82473932
1560588240000,0.28981999999999997,0.28981999999999997,0.28981999999999997,0.28981999999999997,734.17
1560588300000,0.28981999999999997,0.28981,0.28981999999999997,0.28981,261.75
1560588360000,0.28981999999999997,0.28981,0.28981999999999997,0.28981,133.11
1560588420000,0.28981999999999997,0.29097,0.29097,0.28981999999999997,9.54
1560610860000,0.29016,0.29016,0.29016,0.29016,51.34567008
1560615360000,0.28392,0.28392,0.28392,0.28392,145.40167025
1560622260000,0.27781999999999996,0.27781999999999996,0.27781999999999996,0.27781999999999996,361.6134965
1560665100000,0.26515,0.26515,0.26515,0.26515,2199.6312917
1560675600000,0.27151,0.27151,0.27151,0.27151,1943.94330837
1560698160000,0.26626,0.26626,0.26626,0.26626,2996.93894876
1560700020000,0.26831,0.26831,0.26831,0.26831,75.11454437
1560705780000,0.26721999999999996,0.26721999999999996,0.26721999999999996,0.26721999999999996,149.49454136
1560712860000,0.27028,0.27028,0.27028,0.27028,82.57978879999997
1560713220000,0.27116,0.27116,0.27116,0.27116,114.44476185
1560713700000,0.27245,0.27245,0.27245,0.27245,0.80008346
1560713940000,0.27107,0.27107,0.27107,0.27107,2227.360949
1560773340000,0.26879000000000003,0.26877,0.26879000000000003,0.26877,4154.6618694
1560781740000,0.26506,0.26506,0.26506,0.26506,334.05323758
1560785760000,0.26814,0.26814,0.26814,0.26814,2941.32906682
1560794640000,0.27297,0.27297,0.27297,0.27297,26.36
1560795360000,0.27189,0.27189,0.27189,0.27189,294.79595058
1560845160000,0.276,0.276,0.276,0.276,81.05706712
1560868860000,0.27325,0.27325,0.27325,0.27325,1888.27337007
1560870480000,0.27019,0.27019,0.27019,0.27019,166.10531476
1560872460000,0.27739,0.27739,0.27739,0.27739,2486.80947434
1560872520000,0.27739,0.27739,0.27739,0.27739,482.85280485
1560877680000,0.27912,0.2778,0.27912,0.2778,1789.87244964
1560877740000,0.2778,0.27702,0.2778,0.27702,2761.34052878
1560878160000,0.27578,0.27578,0.27578,0.27578,396.17
1560907260000,0.27234,0.2682,0.27234,0.2682,18471.76692578
1560922440000,0.27266,0.27266,0.27266,0.27266,1787.6998130999998
1560926940000,0.26469000000000004,0.26469000000000004,0.26469000000000004,0.26469000000000004,784.42
1560996180000,0.27132,0.271,0.27265,0.271,24000.0
1560996240000,0.271,0.271,0.271,0.271,8000.0
1560996300000,0.271,0.271,0.271,0.271,5527.007494899999
1560996780000,0.27176999999999996,0.272,0.272,0.27176999999999996,5309.74621354
1560996900000,0.271,0.271,0.271,0.271,12.59832676
1560997260000,0.272,0.272,0.272,0.272,2337.85935276
1560997320000,0.272,0.272,0.272,0.272,5662.14064724
1560997440000,0.272,0.272,0.272,0.272,1727.39934513
1560998400000,0.272,0.272,0.272,0.272,75.49
1560998820000,0.272,0.272,0.272,0.272,271.40595893
1560999540000,0.271,0.271,0.271,0.271,987.40167324
1561002360000,0.27,0.27,0.27,0.27,2000.0
1561004400000,0.26903,0.26903,0.26903,0.26903,13.67
1561004640000,0.26899999999999996,0.26899999999999996,0.26899999999999996,0.26899999999999996,2060.010771
1561005300000,0.26899999999999996,0.26899999999999996,0.26899999999999996,0.26899999999999996,62.18
1561007220000,0.26899999999999996,0.26899999999999996,0.26899999999999996,0.26899999999999996,485.04559054
1561039560000,0.27863000000000004,0.27863000000000004,0.27863000000000004,0.27863000000000004,1433.63074194
1561043100000,0.2761,0.27466999999999997,0.2761,0.27466999999999997,10000.0
1561046340000,0.276,0.276,0.276,0.276,1191.93784583
1561046700000,0.275,0.275,0.275,0.275,1518.84791021
1561053180000,0.27978000000000003,0.27979,0.27979,0.27978000000000003,855.35019996
1561054980000,0.281,0.28,0.281,0.28,3536.38678908
1561055040000,0.28,0.28,0.28,0.28,944.76530071
1561055100000,0.28144,0.28144,0.28144,0.28144,500.0
1561055220000,0.281,0.281,0.281,0.281,4000.0
1561055280000,0.281,0.281,0.281,0.281,3396.71018247
1561055340000,0.281,0.28163,0.28163,0.281,620.28981753
1561055400000,0.281,0.28,0.281,0.28,5164.94496997
1561055640000,0.281,0.281,0.281,0.281,8000.0
1561055700000,0.281,0.281,0.281,0.281,12000.0
1561055760000,0.28,0.28,0.28,0.28,132.16324804
1561056000000,0.28,0.28,0.28,0.28,132.09341646
1561056660000,0.28,0.28,0.28,0.28,132.09341646
1561056780000,0.28,0.28,0.28,0.28,2518.65532521
1561063080000,0.28,0.28,0.28,0.28,1.953e-05
1561063740000,0.27543,0.27543,0.27543,0.27543,40.0
1561063980000,0.27804,0.27804,0.27804,0.27804,2976.59178799
1561069200000,0.27826999999999996,0.27826999999999996,0.27826999999999996,0.27826999999999996,2639.19580798
1561076100000,0.27501,0.27501,0.27501,0.27501,826.90594044
1561079100000,0.27071,0.27071,0.27071,0.27071,1686.51586932
1561081080000,0.26747,0.26747,0.26747,0.26747,2355.02002469
1561081320000,0.26835,0.26835,0.26835,0.26835,2417.34033034
1561081740000,0.26755,0.26857,0.26857,0.26755,3010.93924526
1561083300000,0.26748,0.26748,0.26748,0.26748,2398.45527651
1561083540000,0.2687,0.2687,0.2687,0.2687,2619.19917608
1561084140000,0.27139,0.27139,0.27139,0.27139,2544.90404451
1561086360000,0.26825,0.26825,0.26825,0.26825,1500.0
1561089360000,0.26596,0.26596,0.26596,0.26596,2810.61903904
1561099800000,0.26216999999999996,0.26216999999999996,0.26216999999999996,0.26216999999999996,832.02295633
1561100880000,0.26596,0.26596,0.26596,0.26596,1478.68768854
1561109700000,0.26,0.26,0.26,0.26,8639.84747146
1561109760000,0.26,0.26,0.26,0.26,9860.15252846
1561110060000,0.25944,0.25944,0.25944,0.25944,77.08911502
1561110540000,0.25705,0.25705,0.25705,0.25705,54.83516484
1561110840000,0.25876,0.25876,0.25876,0.25876,77.29169887
1561110960000,0.25679,0.25679,0.25679,0.25679,57.984665
1561111200000,0.25833,0.26311,0.26311,0.25833,6052.92035916
1561111260000,0.26819,0.26853,0.26853,0.26819,1762.44784192
1561111320000,0.26549,0.26549,0.26549,0.26549,2997.7515996999996
1561111440000,0.26561,0.26561,0.26561,0.26561,1985.0
1561111620000,0.26297,0.26297,0.26297,0.26297,808.62533689
1561112040000,0.25945999999999997,0.25945999999999997,0.25945999999999997,0.25945999999999997,1817.9162982
1561112940000,0.26018,0.26334,0.26366999999999996,0.26018,6137.19508062
1561113060000,0.26256999999999997,0.26256999999999997,0.26256999999999997,0.26256999999999997,851.87820389
1561113180000,0.26031,0.25339,0.26031,0.25227,14561.39287887
1561113600000,0.25589,0.2619,0.2619,0.25589,4143.08577769
1561122420000,0.25913,0.25913,0.25913,0.25913,3091.29823309
1561122480000,0.26148000000000005,0.26148000000000005,0.26148000000000005,0.26148000000000005,238.37839791
1561123620000,0.26126,0.26126,0.26126,0.26126,3068.19534146
1561123680000,0.26476,0.26476,0.26476,0.26476,3042.30834658
1561123860000,0.26804,0.26804,0.26804,0.26804,2309.31221614
1561124160000,0.27151,0.27151,0.27151,0.27151,1307.30056187
1561133040000,0.26414,0.26414,0.26414,0.26414,2331.0
1561155900000,0.26634,0.26634,0.26634,0.26634,236.57045851
1561158720000,0.26213000000000003,0.26213000000000003,0.26213000000000003,0.26213000000000003,309.47644047
1561161900000,0.26056999999999997,0.26058000000000003,0.26058000000000003,0.26056999999999997,3017.37117818
1561163040000,0.2602,0.2602,0.2602,0.2602,153.7684514
1561164000000,0.25461999999999996,0.25461999999999996,0.25461999999999996,0.25461999999999996,1319.52930441
1561173300000,0.25071,0.25071,0.25071,0.25071,197.72131833
1561192560000,0.25245,0.25608000000000003,0.25608000000000003,0.25245,16750.0
1561193280000,0.25078,0.25078,0.25078,0.25078,45.69062225
1561201980000,0.2487800000000001,0.2487800000000001,0.2487800000000001,0.2487800000000001,25.0
1561202040000,0.25125,0.25125,0.25125,0.25125,984.33672426
1561202760000,0.25098000000000004,0.25098000000000004,0.25098000000000004,0.25098000000000004,981.66491045
1561203600000,0.25122,0.25122,0.25122,0.25122,414.30861249
1561206000000,0.2509,0.2509,0.2509,0.2509,156.90211325
1561207080000,0.25111,0.25111,0.25111,0.25111,904.77662088
1561207860000,0.2506,0.2506,0.2506,0.2506,1434.18627164
1561211640000,0.23938,0.23938,0.23938,0.23938,1093.6845057
1561212120000,0.24031999999999998,0.24031999999999998,0.24031999999999998,0.24031999999999998,3.51044149
1561213680000,0.2349,0.2349,0.2349,0.2349,827.17196976
1561214040000,0.24278000000000002,0.24278000000000002,0.24278000000000002,0.24278000000000002,3179.4933029
1561214340000,0.24386999999999998,0.24386999999999998,0.24386999999999998,0.24386999999999998,3247.68188442
1561215120000,0.24866999999999997,0.24866999999999997,0.24866999999999997,0.24866999999999997,3149.79224363
1561215960000,0.25061,0.25061,0.25061,0.25061,1215.04891016
1561222680000,0.24805,0.24805,0.24805,0.24805,212.0
1561223640000,0.24591,0.24695,0.24695,0.24591,5493.2322957
1561223700000,0.24848,0.24848,0.24848,0.24848,1174.98694869
1561225080000,0.24370999999999998,0.24370999999999998,0.24370999999999998,0.24370999999999998,3096.713636700001
1561226100000,0.24633000000000002,0.24633000000000002,0.24633000000000002,0.24633000000000002,1124.58097643
1561229760000,0.24886999999999998,0.24886999999999998,0.24886999999999998,0.24886999999999998,84.26605922
1561230360000,0.24881,0.24881,0.24881,0.24881,3093.01263365
1561237140000,0.24818,0.24818,0.24818,0.24818,34.03705209
1561237380000,0.24934,0.24934,0.24934,0.24934,3085.8074446
1561249020000,0.24233000000000002,0.24233000000000002,0.24233000000000002,0.24233000000000002,1003.37295041
1561271700000,0.24555,0.24555,0.24555,0.24555,1016.32964371
1561276080000,0.24677,0.24677,0.24677,0.24677,3114.76323103
1561279560000,0.24886999999999998,0.24886999999999998,0.24886999999999998,0.24886999999999998,1072.51516634
1561281180000,0.25601,0.25601,0.25601,0.25601,3056.38062649
1561281240000,0.26197,0.26197,0.26197,0.26197,1458.9777007
1561281600000,0.25975,0.25888,0.25975,0.2588,6420.236449890002
1561281780000,0.25876,0.25876,0.25876,0.25876,1151.73919863
1561282080000,0.25622,0.25622,0.25622,0.25622,1981.81356506
1561283460000,0.25361,0.25361,0.25361,0.25361,171.88669714
1561292640000,0.25471,0.25471,0.25471,0.25471,2098.28568756
1561302480000,0.25211999999999996,0.25261,0.25261,0.25144,1102.52907004
1561302540000,0.25315,0.25353000000000003,0.25353000000000003,0.25315,3901.47987763
1561306080000,0.25695,0.25695,0.25695,0.25695,3043.70613012
1561326060000,0.25106999999999996,0.25240999999999997,0.25240999999999997,0.25106999999999996,2081.86448048
1561326180000,0.25011,0.2499,0.25011,0.2499,1280.30874577
1561326300000,0.25096,0.25096,0.25096,0.25096,227.77893084
1561335060000,0.26200999999999997,0.26200999999999997,0.26200999999999997,0.26200999999999997,107.64845194
1561335480000,0.26625,0.26625,0.26625,0.26625,1037.46063267
1561348620000,0.26,0.26,0.26,0.26,74.74593612
1561351680000,0.26,0.26,0.26,0.26,94.16044557
1561353780000,0.25955,0.25955,0.25955,0.25955,2.0
1561362300000,0.25827,0.25827,0.25827,0.25827,104.36165832
1561364040000,0.25801,0.25801,0.25801,0.25801,96.05784676
1561364100000,0.25801,0.25801,0.25801,0.25801,63.871870200000004
1561364160000,0.25801,0.25801,0.25801,0.25801,38.61824768
1561381740000,0.25856999999999997,0.25856999999999997,0.25856999999999997,0.25856999999999997,2644.12623107
1561400460000,0.26200999999999997,0.26200999999999997,0.26200999999999997,0.26200999999999997,2694.75474974
1561403880000,0.26732,0.26732,0.26732,0.26732,406.49508947
1561434540000,0.2625,0.2625,0.2625,0.2625,4000.0
1561437180000,0.261,0.261,0.261,0.261,523.51322285
1561437240000,0.261,0.261,0.261,0.261,3476.48677715
1561444260000,0.2594,0.2594,0.2594,0.2594,84.45269171
1561444320000,0.2595,0.2595,0.2595,0.2595,173.71889581
1561444740000,0.2595,0.2595,0.2595,0.2595,3741.82839046
1561449240000,0.261,0.261,0.261,0.261,4000.0
1561450260000,0.261,0.261,0.261,0.261,3993.75094968
1561454280000,0.2628,0.2628,0.2628,0.2628,4000.0
1561454760000,0.2648,0.2648,0.2648,0.2648,1893.3366239999998
1561455180000,0.2648,0.2648,0.2648,0.2648,1397.70527046
1561455360000,0.2648,0.2648,0.2648,0.2648,257.97616897
1561455420000,0.2648,0.2645,0.2648,0.2645,4394.17276929
1561456140000,0.2645,0.2645,0.2645,0.2645,1622.5054630000006
1561456200000,0.2645,0.2645,0.2645,0.2645,1949.58728759
1561457640000,0.265,0.265,0.265,0.265,4000.0
1561458660000,0.265,0.265,0.265,0.265,5154.6096
1561458720000,0.265,0.265,0.265,0.265,1836.3495679999999
1561459380000,0.265,0.265,0.265,0.265,415.80303913
1561460460000,0.265,0.264,0.265,0.264,3448.71779103
1561461060000,0.264,0.264,0.264,0.264,3258.78918472
1561465380000,0.27239,0.27239,0.27239,0.27239,1200.67623391
1561465500000,0.27066,0.27066,0.27066,0.27066,885.26962226
1561517580000,0.27231,0.27252,0.27252,0.27231,4000.0
1561517640000,0.27021,0.27031,0.27031,0.27021,101.34361896
1561517700000,0.27041,0.2704,0.27041,0.2704,6522.04285666
1561518720000,0.27042,0.27042,0.27042,0.27042,134.31224682
1561518780000,0.2704,0.2704,0.2704,0.2704,578.4103417
1561520220000,0.2704,0.2704,0.2704,0.2704,812.90596974
1561562460000,0.26861999999999997,0.26861999999999997,0.26861999999999997,0.26861999999999997,942.50615119
1561566660000,0.27207,0.27207,0.27207,0.27207,2025.47225023
1561571340000,0.27448,0.27448,0.27448,0.27448,100.0
1561581240000,0.2694,0.2694,0.2694,0.2694,2920.91610485
1561581420000,0.27389,0.27389,0.27389,0.27389,310.75501424
1561581480000,0.27451,0.27451,0.27451,0.27451,3036.86697673
1561581660000,0.27812,0.28241,0.28241,0.27812,12389.81507471
1561581720000,0.28715999999999997,0.28779,0.28779,0.28715999999999997,6069.94754155
1561581780000,0.28879,0.28879,0.28879,0.28879,696.69969161
1561581900000,0.29839,0.29896,0.29896,0.29839,3470.48734288
1561581960000,0.29896,0.29896,0.29896,0.29896,2.001e-05
1561582020000,0.29198,0.29006,0.29198,0.29006,10510.96034706
1561582140000,0.29283000000000003,0.29283000000000003,0.29283000000000003,0.29283000000000003,3064.4176927400013
1561582380000,0.29191999999999996,0.29191999999999996,0.29191999999999996,0.29191999999999996,300.0
1561583700000,0.29858,0.29858,0.29858,0.29858,3046.17249311
1561583880000,0.31163,0.3108,0.31179,0.3108,6156.6749174999995
1561584240000,0.30589,0.30589,0.30589,0.30589,1170.88866634
1561585500000,0.2933,0.2933,0.2933,0.2933,378.14432999999997
1561586640000,0.28966,0.28966,0.28966,0.28966,133.01700753
1561586880000,0.28497,0.28497,0.28497,0.28497,287.28382733
1561589640000,0.28665999999999997,0.28665999999999997,0.28665999999999997,0.28665999999999997,133.40113723
1561590360000,0.28385,0.28385,0.28385,0.28385,49.27248546
1561591980000,0.27919,0.27919,0.27919,0.27919,134.32250459999997
1561592100000,0.27865999999999996,0.27865999999999996,0.27865999999999996,0.27865999999999996,133.91907235
1561616940000,0.2939,0.2939,0.2939,0.2939,3043.68352092
1561626780000,0.29969,0.29969,0.29969,0.29969,2581.58559064
1561627680000,0.29815,0.29815,0.29815,0.29815,41.04104105
1561628640000,0.29327,0.29327,0.29328000000000004,0.29327,2207.066074
1561628700000,0.29327,0.29327,0.29327,0.29327,1027.4066648
1561629780000,0.29123000000000004,0.29123000000000004,0.29123000000000004,0.29123000000000004,3154.69337657
1561639980000,0.28885,0.28885,0.28885,0.28885,1955.0
1561641060000,0.289,0.289,0.289,0.289,1510.982313564016
1561642740000,0.2885,0.2885,0.2885,0.2885,9.74003466
1561651860000,0.29721,0.29721,0.29721,0.29721,110.98217360000001
1561651920000,0.29846,0.29846,0.29846,0.29846,139.29429945
1561651980000,0.29846,0.29846,0.29846,0.29846,2983.44556157
1561652160000,0.29889,0.29889,0.29889,0.29889,956.28413855
1561652460000,0.3016,0.3016,0.3016,0.3016,2792.49686073
1561652520000,0.3016,0.3016,0.3016,0.3016,367.28393997
1561652580000,0.30523,0.30523,0.30523,0.30523,1735.93611493
1561652640000,0.30523,0.30523,0.30523,0.30523,1430.8030480999994
1561656360000,0.30945,0.30945,0.30945,0.30945,3293.71326306
1561656540000,0.30625,0.30625,0.30625,0.30625,2.0
1561667220000,0.303,0.303,0.303,0.303,3329.76361746
1561709760000,0.29885,0.29885,0.29885,0.29885,1209.6951573
1561711740000,0.29158,0.29158,0.29158,0.29158,777.0
1561712520000,0.29105,0.29105,0.29105,0.29105,777.0
1561713780000,0.29312,0.29312,0.29312,0.29312,2331.0
1561723320000,0.30859000000000003,0.30859000000000003,0.30859000000000003,0.30859000000000003,1382.27
1561723380000,0.30859000000000003,0.30859000000000003,0.30859000000000003,0.30859000000000003,1723.08774859
1561723500000,0.3108,0.3108,0.3108,0.3108,3085.53465674
1561723980000,0.31763,0.31761999999999996,0.31763,0.31761999999999996,776.96726753
1561726080000,0.32276,0.32276,0.32276,0.32276,300.0
1561739520000,0.31071,0.30804000000000004,0.31071,0.30804000000000004,2936.49830207
1561739820000,0.30317,0.30317,0.30317,0.30317,117.22001313
1561748700000,0.29741,0.29741,0.29741,0.29741,3060.98641499
1561748820000,0.29545,0.29545,0.29545,0.29545,33.88055512
1561748940000,0.2941,0.2941,0.2941,0.2941,3120.01721045
1561749060000,0.29225,0.29225,0.29225,0.29225,3137.52347936
1561749480000,0.28867,0.28867,0.28867,0.28867,3152.82221157
1561749540000,0.28572,0.28572,0.28572,0.28572,587.51028751
1561773660000,0.30091,0.30091,0.30091,0.30091,970.09754276
1561844340000,0.30299,0.30299,0.30299,0.30299,269.70445730000006
1561904280000,0.32034,0.32034,0.32034,0.32034,363.98099726
1561904340000,0.32034,0.32034,0.32034,0.32034,2716.95552626
1561934160000,0.30278,0.30278,0.30278,0.30278,3144.96733
1561980360000,0.30089,0.30089,0.30089,0.30089,3226.84503774
1561993320000,0.31239,0.31239,0.31239,0.31239,1381.85584979
1561993380000,0.31239,0.31239,0.31239,0.31239,125.99844689
1562011800000,0.31015,0.31015,0.31015,0.31015,246.25917403
1562035080000,0.29527,0.29527,0.29527,0.29527,1000.0
1562035260000,0.295,0.295,0.295,0.295,2.0
1562046000000,0.30501,0.30501,0.30501,0.30501,604.5
1562055960000,0.29757,0.29347,0.29757,0.29347,19710.35861058
1562056020000,0.29181,0.29181,0.29181,0.29181,3386.9814247
1562056320000,0.29003,0.29003,0.29003,0.29003,148.60605529
1562067900000,0.2901,0.2901,0.2901,0.2901,2647.20956529
1562068560000,0.29086,0.29086,0.29086,0.29086,777.0
1562083560000,0.29196,0.29196,0.29196,0.29196,41.14097641
1562085300000,0.29786999999999997,0.29786999999999997,0.29786999999999997,0.29786999999999997,20.0
1562128620000,0.2928,0.2928,0.2928,0.2928,3221.39686433
1562161200000,0.28581,0.28581,0.28581,0.28581,103.1
1562168880000,0.28888,0.28888,0.28888,0.28888,415.0
1562205120000,0.28568000000000005,0.28568000000000005,0.28568000000000005,0.28568000000000005,365.89011316
1562238060000,0.28859,0.28859,0.28859,0.28859,60.0
1562281860000,0.3124,0.3124,0.3124,0.3124,441.25454845
1562317080000,0.29652,0.29501,0.29652,0.29501,1207.57677977
1562317500000,0.29486,0.29486,0.29486,0.29486,3164.90763915
1562317980000,0.29424,0.29424,0.29424,0.29424,1068.60118684
1562318280000,0.29331,0.29331,0.29331,0.29331,285.39760123
1562318400000,0.29211,0.28981999999999997,0.29211,0.28981999999999997,103.88602544
1562358780000,0.30527,0.30527,0.30527,0.30527,63.91970003
1562378940000,0.29659,0.29598,0.29659,0.29598,1926.47179977
1562412180000,0.30078,0.30078,0.30078,0.30078,105.81589283
1562412660000,0.30041999999999996,0.30008,0.30041999999999996,0.30008,800.7908797299997
1562412840000,0.29972,0.29972,0.29972,0.29972,656.21103747
1562413140000,0.29783000000000004,0.29782,0.29783000000000004,0.29782,888.81054858
1562413320000,0.29780999999999996,0.29780999999999996,0.29780999999999996,0.29780999999999996,150.52620574
1562413440000,0.29739,0.29739,0.29739,0.29739,201.77113133
1562413500000,0.29706,0.29706,0.29706,0.29706,2599.94382175
1562416020000,0.29730999999999996,0.29730999999999996,0.29730999999999996,0.29730999999999996,35.0
1562421000000,0.30282,0.30282,0.30282,0.30282,68.0
1562425140000,0.29,0.29,0.29,0.29,270.850617
1562425200000,0.29,0.29,0.29,0.29,13585.12565038
1562425260000,0.29,0.29,0.29,0.29,1208.327297
1562426700000,0.29,0.29,0.29,0.29,820.29305452
1562426760000,0.29,0.29,0.29,0.29,1360.310715
1562561640000,0.27431,0.27429000000000003,0.27431,0.27429000000000003,1552.82320961
1562561700000,0.27429000000000003,0.27429000000000003,0.27429000000000003,0.27429000000000003,249.76373604
1562574420000,0.27675,0.27675,0.27675,0.27675,37.0
1562651520000,0.25288,0.25288,0.25288,0.25288,5.0
1562659440000,0.2632,0.2632,0.2632,0.2632,567.30241825
1562662980000,0.25911,0.2594,0.2594,0.25911,812.42250239
1562664540000,0.24958000000000002,0.24958000000000002,0.24958000000000002,0.24958000000000002,41.0
1562667480000,0.2584,0.25841,0.25841,0.2584,701.7029615600003
1562690040000,0.26634,0.26634,0.26634,0.26634,310.01563667
1562743980000,0.26808000000000004,0.26808000000000004,0.26808000000000004,0.26808000000000004,64.95902359
1562767680000,0.27128,0.27531,0.27531,0.27128,1205.20294523
1562770800000,0.28118000000000004,0.28118000000000004,0.28118000000000004,0.28118000000000004,3720.86395219
1562770860000,0.28118000000000004,0.28118000000000004,0.28118000000000004,0.28118000000000004,5.71e-06
1562772660000,0.28838,0.28838,0.28838,0.28838,71.12880857
1562818620000,0.30685,0.30993000000000004,0.30993000000000004,0.30685,1377.98390173
1562819040000,0.33313000000000004,0.33313000000000004,0.33313000000000004,0.33313000000000004,203.10097902
1562819100000,0.33739,0.33739,0.33739,0.33739,3758.09101473
1562819340000,0.33816999999999997,0.33601,0.33816999999999997,0.33601,2974.49083515
1562839620000,0.31651,0.31651,0.31651,0.31651,11814.5396984
1562839740000,0.32261999999999996,0.32261999999999996,0.32261999999999996,0.32261999999999996,16.0
1562845800000,0.31403000000000003,0.31533,0.31533,0.31403000000000003,3114.67231816
1562859060000,0.33,0.33,0.33,0.33,500.0
1562860440000,0.33674,0.3303,0.33674,0.3303,326.89382998
1562997900000,0.3189,0.3189,0.3189,0.3189,1989.50461717
1562997960000,0.3189,0.3189,0.3189,0.3189,5.83e-06
1563097920000,0.30941,0.30941,0.30941,0.30941,319.64908981
1563097980000,0.31384,0.31385,0.31385,0.31384,745.07252241
1563145200000,0.33896,0.33896,0.33896,0.33896,3754.56187437
1563155700000,0.33603,0.33603,0.33603,0.33603,128.96725874
1563190500000,0.32391,0.32391,0.32391,0.32391,82.99998001
1563198480000,0.33714,0.33309,0.33714,0.33309,4485.36951444
1563200820000,0.32391,0.32391,0.32391,0.32391,1.999e-05
1563281460000,0.33853,0.33853,0.33853,0.33853,76.08842
1563293700000,0.34552,0.34552,0.34552,0.34552,10.0
1563296460000,0.37332,0.3745,0.3745,0.37332,6809.91293926
1563296520000,0.3745,0.3745,0.3745,0.3745,3229.41169278
1563296580000,0.39214,0.39214,0.39214,0.39214,999.99999406
1563296640000,0.39214,0.39214,0.39214,0.39214,5.94e-06
1563297120000,0.39216,0.39214,0.39216,0.39214,24.98166408
1563299040000,0.3875,0.3875,0.3875,0.3875,52.99303199999999
1563299100000,0.37973,0.37973,0.37975,0.37973,3691.90826489
1563363600000,0.37109000000000003,0.37109000000000003,0.37109000000000003,0.37109000000000003,2.0
1563366360000,0.3686,0.3686,0.3686,0.3686,129.32013
1563379260000,0.34023000000000003,0.34023000000000003,0.34023000000000003,0.34023000000000003,863.8118117999999
1563398460000,0.33954,0.33954,0.33954,0.33954,1484.85121732
1563465780000,0.30569,0.30569,0.30569,0.30569,138.91071903
1563490500000,0.3221,0.3221,0.3221,0.3221,1438.72584368
1563506940000,0.32077,0.32077,0.32077,0.32077,9.98
1563523620000,0.31698000000000004,0.31698000000000004,0.31698000000000004,0.31698000000000004,140.01723468
1563541680000,0.33543,0.33543,0.33543,0.33543,333.64822212
1563541740000,0.33425,0.33425,0.33425,0.33425,258.08964605
1563547020000,0.32329,0.32272,0.32329,0.32272,3500.0
1563550620000,0.30956999999999996,0.30956999999999996,0.30956999999999996,0.30956999999999996,250.0
1563551160000,0.31334,0.31332,0.31334,0.31332,4702.804844980001
1563552960000,0.32011,0.31666,0.32011,0.31666,1439.78
1563615960000,0.29486999999999997,0.29486999999999997,0.29486999999999997,0.29486999999999997,856.31937194
1563644040000,0.28959,0.29166,0.29166,0.28959,1045.62108454
1563646680000,0.29896999999999996,0.29896999999999996,0.29896999999999996,0.29896999999999996,84.23857503
1563665160000,0.28661,0.2863,0.28661,0.28597,1800.0
1563665220000,0.2863,0.28586999999999996,0.2863,0.28586999999999996,2400.0
1563665400000,0.28569,0.28508,0.28569,0.28508,7200.0
1563665460000,0.28429,0.28429,0.28429,0.28429,200.0
1563665880000,0.28474,0.28471,0.28474,0.28471,2700.0
1563665940000,0.28474,0.28601,0.28604,0.28472,4500.0
1563666000000,0.28603,0.28601,0.28604,0.28601,10700.0
1563666060000,0.28601,0.2861,0.28615999999999997,0.28601,11900.0
1563666120000,0.28611,0.28612,0.28615,0.2861,5600.0
1563666420000,0.29088,0.29036999999999996,0.29088,0.29036,5160.0
1563666480000,0.29036999999999996,0.29038,0.29038,0.29036999999999996,2880.0
1563667140000,0.28920999999999997,0.28872,0.28924,0.28872,7000.0
1563667200000,0.28873000000000004,0.28836,0.28876,0.28836,11200.0
1563667860000,0.28708,0.28707,0.28708,0.28706,3996.0
1563667980000,0.28513,0.28367,0.28513,0.28365999999999997,3330.0
1563683460000,0.30186,0.30186,0.30186,0.30186,1436.23273266
1563690060000,0.31454,0.3148,0.3148,0.31454,791.15708194
1563720120000,0.31135,0.31135,0.31135,0.31135,798.0
1563726420000,0.29203,0.29218,0.29286,0.29203,5100.0
1563985200000,0.29691,0.29691,0.29691,0.29691,398.76126521
1563985260000,0.29691,0.29691,0.29691,0.29691,602.51900111
1564041300000,0.28668000000000005,0.28552,0.28668000000000005,0.28552,1247.28793506
1564059900000,0.28358,0.28358,0.28358,0.28358,77.01780259
1564186260000,0.27071999999999996,0.27071999999999996,0.27071999999999996,0.27071999999999996,159.46318333000005
1564214160000,0.27238,0.27238,0.27238,0.27238,343.11837944
1564352940000,0.30474,0.30474,0.30474,0.30474,587.87221526
1564353000000,0.30927,0.30927,0.30927,0.30927,4414.51729105
1564585140000,0.30305,0.30305,0.30305,0.30305,946.98152874
1564604760000,0.29805,0.298,0.29805,0.298,2495.0
1564637940000,0.30514,0.30514,0.30514,0.30514,904.69567319
1564702320000,0.30372,0.30372,0.30372,0.30372,1076.94400177
1564702440000,0.30372,0.30374,0.30374,0.30372,3021.6390726
1564702560000,0.30374,0.30374,0.30374,0.30374,4.82412589
1564702680000,0.30374,0.30374,0.30374,0.30374,12.06300453
1564702800000,0.30374,0.30374,0.30374,0.30374,702.03076766
1564705680000,0.30374,0.30653,0.30653,0.30374,1823.16597141
1564705800000,0.30651,0.30653,0.30653,0.30651,4584.84186742
1564707120000,0.30653,0.30653,0.30653,0.30653,790.53229975
1564710780000,0.30653,0.30653,0.30653,0.30653,1224.94533582
1564730700000,0.29829,0.29829,0.29829,0.29829,81.68707109999998
1564731420000,0.29829,0.29756,0.29829,0.29756,1339.54
1564732080000,0.29756,0.29756,0.29756,0.29756,97.90197511
1564764120000,0.31379,0.31379,0.31379,0.31379,69.91180145
1564803960000,0.30189,0.30189,0.30189,0.30189,83.87270217
1564853820000,0.30829,0.30829,0.30829,0.30829,2.0
1564910880000,0.31194,0.31198000000000004,0.31198000000000004,0.31194,811.4409054800003
1564911240000,0.30812,0.30812,0.30812,0.30812,215.75799287
1564912440000,0.30334,0.30334,0.30334,0.30334,39.31910417
1564912620000,0.30633,0.30633,0.30633,0.30633,103.45836539
1564912680000,0.30355,0.30355,0.30355,0.30355,757.9711691000001
1564932060000,0.30318,0.30318,0.30318,0.30318,596.5539656000002
1565013720000,0.29608,0.29607,0.29608,0.29607,2589.74230715
1565013780000,0.29618,0.29617,0.29618,0.29617,434.81163239
1565013840000,0.29611,0.29607,0.29611,0.29605,4039.74560873
1565014020000,0.29603,0.29601,0.29605,0.29601,2410.01263266
1565014080000,0.29604,0.29447,0.29605,0.29447,5293.75705642
1565060280000,0.30075,0.30075,0.30075,0.30075,92.38024408
1565060520000,0.30503,0.30503,0.30503,0.30503,172.94400062
1565066640000,0.29946999999999996,0.30109,0.30109,0.29946999999999996,677.63863707
1565087520000,0.28663,0.28912,0.28912,0.28663,4362.36244703
1565087580000,0.28912,0.29124,0.29124,0.28912,6136.37078293
1565271780000,0.29995,0.30005,0.30005,0.29995,1122.00045763
1565272680000,0.30136,0.30136,0.30136,0.30136,2824.9454775
1565272800000,0.30136,0.30136,0.30136,0.30136,1666.2727670999998
1565341920000,0.30366,0.30734,0.30734,0.30366,16108.26098456
1565341980000,0.31547,0.31547,0.31547,0.31547,1347.25851199
1565342040000,0.31547,0.31547,0.31547,0.31547,5.64e-06
1565365680000,0.31685,0.31685,0.31685,0.31685,4578.62030132
1565366520000,0.31685,0.31685,0.31685,0.31685,5.57e-06
1565396220000,0.31048000000000003,0.31044,0.31048000000000003,0.31044,8094.09030341
1565396700000,0.31044,0.30449,0.31044,0.30449,15633.30028945
1565396760000,0.30449,0.30449,0.30449,0.30449,2848.421338
1565461260000,0.3007,0.3004,0.3007,0.3004,20491.173634400002
1565461320000,0.30008,0.29969,0.30008,0.29969,2327.78587552
1565483460000,0.29603,0.29602,0.29603,0.29602,17776.96813925
1565483520000,0.2953,0.2953,0.2953,0.2953,2909.359214
1565530440000,0.30877,0.3088,0.3088,0.30877,710.03939066
1565772900000,0.30445,0.30445,0.30445,0.30445,853.2787235000003
1565772960000,0.3077,0.30773,0.30773,0.3077,773.74303684
1565773020000,0.31456999999999996,0.31465,0.31765,0.31456999999999996,1584.06648393
1565773140000,0.31737,0.31738,0.31738,0.31737,741.44593341
1565843280000,0.36516,0.36516,0.36516,0.36516,871.666743
1565880960000,0.35008,0.35035,0.35035,0.35008,2020.91132942
1565989920000,0.33341,0.33135,0.33419,0.33135,8184.61323586
1566033180000,0.33954,0.33954,0.33954,0.33954,2420.7371541
1566134160000,0.34718000000000004,0.34718000000000004,0.34718000000000004,0.34718000000000004,293.94450384
1566277920000,0.36103,0.36103,0.36103,0.36103,662.86076684
1566374640000,0.35902,0.35283000000000003,0.35902,0.35283000000000003,908.11996691
1566375720000,0.34726999999999997,0.34423000000000004,0.34726999999999997,0.34423000000000004,391.33055631
1566389400000,0.34589000000000003,0.34589000000000003,0.34589000000000003,0.34589000000000003,40.55060294
1566402240000,0.34619,0.345,0.34619,0.345,1226.50494594
1566475800000,0.33374000000000004,0.33314,0.33374000000000004,0.33314,830.9788931400003
1566669720000,0.32708000000000004,0.32677,0.32708000000000004,0.32677,1875.13944951
1566778560000,0.32518,0.32518,0.32518,0.32518,4.0
1566808260000,0.33578,0.33647,0.33652,0.33578,2048.37427761
1567015320000,0.36466,0.36466,0.36466,0.36466,777.0
1567015380000,0.36983,0.36983,0.36983,0.36983,788.20528095
1567152960000,0.35052,0.3505,0.35052,0.3505,1724.57665505
1567153020000,0.3505,0.3505,0.3505,0.3505,787.68999303
1567153080000,0.3505,0.3505,0.3505,0.3505,88.10313314
1567352400000,0.34481999999999996,0.34485,0.34485,0.34481999999999996,1964.4273607
1567360020000,0.35899000000000003,0.35899000000000003,0.359,0.35899000000000003,419.35560787
1567720560000,0.3309,0.3309,0.3309,0.3309,280.22110096
1567720740000,0.3309,0.3309,0.3309,0.3309,467.01162309
1567792080000,0.32514,0.32476,0.32514,0.32476,316.09243942
1567899120000,0.29369,0.29369,0.29369,0.29369,850.0
1567899240000,0.29358,0.29356,0.29358,0.29356,853.99
1567940700000,0.29748,0.29748,0.29748,0.29748,221.78795456
1567940760000,0.30143000000000003,0.30143000000000003,0.30143000000000003,0.30143000000000003,1269.06355352
1568288580000,0.28713,0.28713,0.28713,0.28713,1500.29321803
1568288640000,0.28713,0.28713,0.28713,0.28713,375.74583709
1568363820000,0.28443,0.28443,0.28443,0.28443,335.33102876
1568363880000,0.28443,0.28443,0.28443,0.28443,4822.21747201
1568364000000,0.28445,0.28178000000000003,0.28445,0.28178000000000003,1950.93151002
1568364180000,0.28178000000000003,0.28178000000000003,0.28178000000000003,0.28178000000000003,978.47358121
1568831400000,0.26853,0.26853,0.26853,0.26853,370.0
1568863560000,0.28426,0.28426,0.28426,0.28426,224.96458166
1568885580000,0.2812,0.2812,0.2812,0.2812,252.18
1568885640000,0.28126,0.28126,0.28126,0.28126,117.45
1569138060000,0.27656,0.27656,0.27656,0.27656,1840.51902637
1569248700000,0.28811,0.28813,0.28813,0.28811,1718.8055083999998
1569248760000,0.28579,0.28579,0.28579,0.28579,65.89896382
1569329160000,0.29678000000000004,0.29678000000000004,0.29678000000000004,0.29678000000000004,1832.86722772
1569337620000,0.31973,0.31973,0.31973,0.31973,5246.989129969998
1569350100000,0.32828,0.32828,0.32828,0.32828,91.85075734
1569350940000,0.32999,0.32999,0.32999,0.32999,5268.03956821
1569351420000,0.34844,0.34844,0.34844,0.34844,99.6034295
1569351600000,0.3552,0.3552,0.3552,0.3552,67.26094637
1569351780000,0.38423,0.38705,0.38705,0.38423,5755.25938556
1569351960000,0.39031,0.39031,0.39031,0.39031,115.55282411
1569352020000,0.38545,0.38545,0.38545,0.38545,107.90835998
1569352380000,0.39413000000000004,0.3936,0.39413000000000004,0.3936,194.02354882
1569352920000,0.37314,0.37314,0.37314,0.37314,5187.53773878
1569353040000,0.36356,0.37636,0.37636,0.36356,362.05493209
1569353340000,0.37525,0.37525,0.37525,0.37525,324.31337766
1569353400000,0.37525,0.37873,0.37873,0.37525,11523.93513336
1569353460000,0.37873,0.37873,0.37873,0.37873,24.92941692
1569353640000,0.37799,0.37799,0.37799,0.37799,107.13775512
1569354000000,0.3876,0.39713000000000004,0.39713000000000004,0.3876,18745.70641379
1569354060000,0.39713000000000004,0.39713000000000004,0.39713000000000004,0.39713000000000004,5.96e-06
1569354120000,0.40089,0.4074,0.4074,0.40089,7173.23087962
1569354180000,0.40899,0.41700000000000004,0.41700000000000004,0.40899,7615.20337063
1569354240000,0.42291999999999996,0.42463999999999996,0.4312,0.42291999999999996,13085.29174953
1569354300000,0.43146,0.42463999999999996,0.43146999999999996,0.42463999999999996,6995.38393809
1569354360000,0.42513,0.41839,0.42793000000000003,0.41839,38068.73110809
1569354420000,0.41839,0.41807,0.41839,0.4133600000000001,10926.9473343
1569354540000,0.41748,0.41748,0.41748,0.41748,1395.410125
1569354600000,0.41748,0.41748,0.41748,0.41748,3775.31714313
1569354780000,0.41235,0.40953,0.41235,0.40953,3896.84495097
1569354840000,0.40953,0.40953,0.40953,0.40953,175.53058171
1569354900000,0.40875,0.40875,0.40875,0.40875,5112.90151835
1569354960000,0.40635,0.40635,0.40635,0.40635,133.13603616
1569355020000,0.40635,0.40635,0.40635,0.40635,4998.80881295
1569355200000,0.3988,0.3921,0.3988,0.3921,5262.5152770999985
1569355320000,0.39566,0.39566,0.39566,0.39566,5120.52268108
1569355500000,0.39033,0.39034,0.39034,0.39033,1143.80650102
1569355560000,0.38766999999999996,0.38674000000000003,0.38766999999999996,0.38674000000000003,865.00397327
1569355680000,0.39108000000000004,0.38956999999999997,0.39108000000000004,0.38956999999999997,2775.13439637
1569355860000,0.39623,0.39623,0.39623,0.39623,4959.403298310001
1569355920000,0.3897,0.3897,0.3897,0.3897,195.72444767
1569356160000,0.39319,0.39066,0.39319,0.39066,1151.86348979
1569356280000,0.39303,0.39414,0.39441,0.39303,1638.21295452
1569356340000,0.39414,0.39414,0.39414,0.39414,506.24067997
1569356400000,0.39547,0.39547,0.39547,0.39547,187.4473892
1569356460000,0.39771999999999996,0.39736,0.39771999999999996,0.39736,1395.93151642
1569356520000,0.40007,0.40007,0.40007,0.40007,243.32860719999996
1569356640000,0.39753,0.39753,0.39753,0.39753,166.18698064
1569357060000,0.38594,0.38594,0.38594,0.38594,2243.48793403
1569357120000,0.38656999999999997,0.38656999999999997,0.38656999999999997,0.38656999999999997,1375.20798045
1569357900000,0.38977,0.38977,0.38977,0.38977,353.81003864
1569360360000,0.38098000000000004,0.38098000000000004,0.38098000000000004,0.38098000000000004,33.847403
1569513060000,0.38327,0.38327,0.38327,0.38327,764.15769508
1569514920000,0.39141,0.39141,0.39141,0.39141,1433.71666384
1569625080000,0.3652,0.3652,0.3652,0.3652,100.1594688
1569759540000,0.38031,0.38031,0.38031,0.38031,537.34835433
1569759600000,0.38394,0.38394,0.38394,0.38318,5729.66269149
1569797820000,0.36949,0.36949,0.36949,0.36949,99.8000007
1569805320000,0.37093000000000004,0.37093000000000004,0.37093000000000004,0.37093000000000004,4.105721
1569815520000,0.37335,0.37335,0.37335,0.37335,2.776552
1569816900000,0.37376,0.37376,0.37376,0.37376,4.190701
1569837060000,0.35591,0.35557,0.35591,0.35557,614.65754834
1569859260000,0.34535,0.34535,0.34535,0.34535,5248.30539971
1570454340000,0.30594,0.30571,0.30594,0.30571,3.0000000000000004e-08
1570454820000,0.30571,0.30571,0.30571,0.30571,87.23481224
1570482000000,0.30064,0.29829,0.30064,0.29829,289.83857820000014
1570629120000,0.30311,0.30311,0.30311,0.30311,1e-08
1570629240000,0.30243000000000003,0.30243000000000003,0.30243000000000003,0.30243000000000003,1e-08
1570655760000,0.30513,0.30513,0.30513,0.30513,2216.05197636
1570655820000,0.30096,0.30096,0.30096,0.30096,1619.7579864
1570655940000,0.29834,0.30421,0.30421,0.29834,10212.78710446
1570656060000,0.30375,0.30122,0.30375,0.30122,3803.29905366
1570656780000,0.29621,0.29621,0.29621,0.29621,1e-08
1570656840000,0.29953,0.30432,0.30432,0.29953,887.5831082799997
1571016420000,0.3183,0.3183,0.3183,0.3183,90.93320731
1571025420000,0.31201,0.31201,0.31201,0.31201,142.75249578
1571155980000,0.33737,0.33658000000000005,0.33737,0.33658000000000005,2156.60415856
1571156040000,0.34679,0.34989000000000003,0.34989000000000003,0.34679,3360.16616652
1571156280000,0.33794,0.33794,0.33794,0.33794,1e-08
1571228880000,0.34371999999999997,0.34371999999999997,0.34371999999999997,0.34371999999999997,803.37417152
1571356080000,0.3447,0.3447,0.3447,0.3447,933.37703239
1571379720000,0.34752,0.34752,0.34752,0.34752,4.445539
1571379900000,0.34793,0.34793,0.34793,0.34793,4.144787
1571382660000,0.34768000000000004,0.34768000000000004,0.34768000000000004,0.34768000000000004,4.030749
1571388600000,0.36622,0.36612,0.36622,0.36612,887.08292065
1571389200000,0.35859,0.35859,0.35859,0.35859,82.54959589
1571489760000,0.34757,0.34757,0.34757,0.34757,1953.0
1571495400000,0.34592,0.34592,0.34592,0.34592,2e-08
1571654820000,0.34363,0.34363,0.34363,0.34363,104.47345207
1571707260000,0.34219,0.34219,0.34219,0.34219,1e-08
1571716140000,0.33359,0.33359,0.33359,0.33359,1e-08
1571834520000,0.34156,0.34999,0.34999,0.34156,493.06354769
1571846460000,0.3667,0.36765,0.36765,0.3667,4528.73277753
1571846520000,0.37406,0.37406,0.37406,0.37406,313.30385887
1571847960000,0.36125999999999997,0.36125999999999997,0.36125999999999997,0.36125999999999997,5.078854
1571848680000,0.35909,0.35909,0.35909,0.35909,781.00593565
1571874900000,0.35533000000000003,0.35589,0.35589,0.35533000000000003,979.53506174
1572018480000,0.32043,0.32043,0.32043,0.32043,271.25893556
1572018660000,0.31058,0.30439,0.31058,0.30439,3.0000000000000004e-08
1572024240000,0.29668,0.29945,0.29945,0.29668,3193.48133407
1572192900000,0.2971,0.2971,0.2971,0.2971,2224.53368401
1572382920000,0.27326,0.27326,0.27326,0.27326,6.0554120000000005
1572383040000,0.27438,0.27438,0.27438,0.27438,4.376032
1572383160000,0.27473000000000003,0.27473000000000003,0.27473000000000003,0.27473000000000003,6.4972129999999995
1572390300000,0.27265,0.27265,0.27265,0.27265,4.401974
1573943760000,0.29074,0.29074,0.29074,0.29074,4.127657
1573977480000,0.29083000000000003,0.29083000000000003,0.29083000000000003,0.29083000000000003,343.49961462
1573977540000,0.29083000000000003,0.29083000000000003,0.29083000000000003,0.29083000000000003,317.52955404
1574621220000,0.38645999999999997,0.38645999999999997,0.38645999999999997,0.38645999999999997,1963.99998912
1575878400000,0.33814,0.33814,0.33814,0.33814,12.46969414
1576724340000,0.35178000000000004,0.35164,0.35178000000000004,0.35164,339.3786271200001
1577693400000,0.155,0.155,0.155,0.155,6.562207000000001
1578912840000,0.37,0.37,0.37,0.37,6.0
1578912900000,0.55,0.72,0.72,0.55,63.3
1578912960000,0.72,0.72,0.72,0.72,8.0
1581170940000,0.15500999999999998,0.15500999999999998,0.15500999999999998,0.15500999999999998,10.0
1581599340000,0.1563,0.15500999999999998,0.1563,0.15500999999999998,97.0
1582484580000,0.16,0.16,0.16,0.16,19.908382999999997
1582724940000,0.24191999999999997,0.24191999999999997,0.24191999999999997,0.24191999999999997,20.20112847
1582725000000,0.24191999999999997,0.24191999999999997,0.24191999999999997,0.24191999999999997,16.43619378
1582725360000,0.24429,0.24429,0.24429,0.24429,834.23794395
1582814340000,0.25761,0.25761,0.25761,0.25761,7.69
1583082240000,0.27536,0.27533,0.27536,0.27533,3006.4685209000004
1583681700000,0.30253,0.30253,0.30253,0.30253,64.61677053
1583684100000,0.31524,0.31524,0.31524,0.31524,152.63093338
1583684220000,0.32345,0.32345,0.32345,0.32345,100.10010011
1583997060000,0.35,0.35,0.35,0.35,9.874538000000001
1584009780000,0.41884,0.41884,0.41884,0.41884,194.65487228
1584009900000,0.44487,0.44969,0.44969,0.44487,34.93606088
1584009960000,0.45,0.45,0.45,0.45,15.0
1584010020000,0.48339,0.48339,0.48339,0.48339,12.93591303
1584010260000,0.44098000000000004,0.44098000000000004,0.44098000000000004,0.44098000000000004,225.51043331
1584010380000,0.44545,0.44545,0.44545,0.44545,15.42828824
1584010440000,0.44545,0.44545,0.44545,0.44545,5642.256397050001
1584010500000,0.44986000000000004,0.44986000000000004,0.44986000000000004,0.44986000000000004,13.42448094
1584010560000,0.44986000000000004,0.45421999999999996,0.45421999999999996,0.44986000000000004,3716.59070723
1584010620000,0.45421999999999996,0.47741999999999996,0.47741999999999996,0.45421999999999996,45711.24067835
1584010680000,0.47741999999999996,0.48666000000000004,0.48666000000000004,0.47741999999999996,7520.05194652
1584010800000,0.48666000000000004,0.48666000000000004,0.48666000000000004,0.48666000000000004,74.79707597000002
1584010860000,0.48666000000000004,0.49118,0.49118,0.48666000000000004,3811.2538763000002
1584010980000,0.49118,0.49118,0.49118,0.49055,94.39017598
1584011040000,0.46876999999999996,0.4633600000000001,0.46876999999999996,0.4633600000000001,5466.369602700001
1584011340000,0.45013000000000003,0.45013000000000003,0.45013000000000003,0.45013000000000003,14.09818052
1584011400000,0.45271999999999996,0.45271999999999996,0.45271999999999996,0.45271999999999996,15.74478927
1584011580000,0.45446000000000003,0.45446000000000003,0.45446000000000003,0.45446000000000003,29.64836289
1584011640000,0.43858,0.4496600000000001,0.4496600000000001,0.43858,33.14718998
1584011700000,0.4502600000000001,0.44866999999999996,0.4502600000000001,0.44866999999999996,55.88861537
1584011760000,0.44427,0.44855,0.44855,0.44427,88.07131119
1584011880000,0.44273,0.44223999999999997,0.44273,0.44223999999999997,133.060703
1584012180000,0.43305,0.43305,0.43305,0.43305,19.50866643
1584012240000,0.43346,0.43641,0.43641,0.43346,79.56277890000001
1584012420000,0.44106999999999996,0.45133999999999996,0.45133999999999996,0.44106999999999996,28.135278910000004
1584012480000,0.46161,0.46161,0.46161,0.45164,77.43693309999998
1584012540000,0.44363,0.44363,0.44363,0.44363,21.48374096
1584012600000,0.4435,0.4435,0.4435,0.4435,17.60700112
1584012660000,0.44472,0.44703999999999994,0.44703999999999994,0.43704,92.56223174
1584012720000,0.43705,0.44796,0.44798000000000004,0.43705,170.38304394
1584012780000,0.4548,0.44118,0.4548,0.44118,154.59837267
1584012840000,0.45358999999999994,0.45358999999999994,0.45358999999999994,0.45358999999999994,19.04944994
1584012900000,0.45193,0.45193,0.45193,0.45193,22.38221184
1584012960000,0.44828,0.44733,0.44828,0.44733,66.38777061
1584013080000,0.44823999999999997,0.4512600000000001,0.4512600000000001,0.44823999999999997,60.97543829999999
1584013140000,0.45152,0.44906,0.45152,0.44906,48.42225202
1584013260000,0.45343,0.45879,0.45879,0.45343,32.53618099
1584013320000,0.46137,0.46928000000000003,0.46928000000000003,0.46137,35.24901694
1584013380000,0.45335,0.45733999999999997,0.46831999999999996,0.45335,89.6437353
1584013500000,0.45747,0.45142,0.45747,0.45142,1740.18087528
1584014220000,0.47236999999999996,0.47236999999999996,0.47236999999999996,0.47236999999999996,85.3791999
1584016680000,0.44688999999999995,0.44688999999999995,0.44688999999999995,0.44688999999999995,80.79528526
1584021180000,0.45647,0.45647,0.45647,0.45647,60.600443999999996
1584021840000,0.45253999999999994,0.45253999999999994,0.45253999999999994,0.45253999999999994,48.07460776
1584055620000,0.5196,0.5196,0.5196,0.5196,1170.85994095
1584055680000,0.52686,0.52912,0.53133,0.52686,23877.10353125
1584055800000,0.46558,0.46313999999999994,0.46558,0.45758999999999994,2326.67504521
1584056040000,0.5080899999999999,0.5080899999999999,0.5080899999999999,0.5080899999999999,4987.31088752
1584057060000,0.54788,0.54788,0.54788,0.54788,74.95835614
1584057420000,0.56944,0.56804,0.56944,0.56804,240.20330744
1584058260000,0.53246,0.53246,0.53246,0.53246,147.040258
1584058980000,0.5243399999999999,0.5243399999999999,0.5243399999999999,0.5243399999999999,55.3506968
1584059040000,0.5251100000000001,0.52522,0.52522,0.5251100000000001,623.61419581
1584059220000,0.53957,0.53957,0.53957,0.53957,370.06918347
1584059280000,0.5352100000000001,0.5352100000000001,0.5352100000000001,0.5352100000000001,78.35144145
1584060060000,0.5131,0.5131,0.5131,0.5131,717.76830939
1584062040000,0.52161,0.52065,0.52161,0.52065,103.18169061
1584062100000,0.52182,0.52136,0.52182,0.52136,827.83930371
1584062880000,0.52855,0.52855,0.52855,0.52855,68.78591207
1584063360000,0.5190600000000001,0.51905,0.5190600000000001,0.51905,485.12435389999996
1584064020000,0.5278,0.5278,0.5278,0.5278,56.5099973
1584065640000,0.61141,0.61141,0.61141,0.61141,206.19305874
1584066000000,0.63117,0.63117,0.63117,0.63117,55.79600303
1584066180000,0.6573899999999999,0.6548,0.6574,0.6548,1333.97837843
1584066660000,0.5814,0.5814,0.5814,0.5814,258.95477900000003
1584066780000,0.5957399999999999,0.5957399999999999,0.5957399999999999,0.5957399999999999,151.91147576
1584066840000,0.59343,0.59343,0.59343,0.59343,1466.25478626
1584066960000,0.58334,0.58334,0.58334,0.58334,1991.0
1584067020000,0.5775,0.5775,0.5775,0.5775,248.28771601
1584067080000,0.56205,0.56204,0.56205,0.56204,1969.76474391
1584067260000,0.54545,0.54545,0.54545,0.54545,323.79854614
1584067320000,0.54082,0.54082,0.54082,0.54082,250.331187
1584067440000,0.54432,0.54432,0.54432,0.54432,691.4380631500003
1584067500000,0.53599,0.53599,0.53599,0.53599,1628.4851144099994
1584067800000,0.55828,0.55828,0.55828,0.55828,87.36628096
1584067860000,0.5636899999999999,0.5636899999999999,0.5636899999999999,0.5636899999999999,99.62823287
1584067920000,0.58117,0.55877,0.58117,0.55877,2468.33475483
1584067980000,0.55896,0.56034,0.56034,0.55896,299.89898382
1585414920000,0.54594,0.54594,0.54594,0.54594,4.0
1586032320000,0.44448000000000004,0.44448000000000004,0.44448000000000004,0.44448000000000004,158.96712902
1586216100000,0.37483,0.37483,0.37483,0.37483,60.39453829
1586218140000,0.37483,0.37483,0.37483,0.37483,167.13461778
1586218200000,0.37483,0.37479,0.37483,0.37479,479.60517683
1586289900000,0.38209,0.38209,0.38209,0.38209,433.68268883
1586491440000,0.39250999999999997,0.39868000000000003,0.39868000000000003,0.39250999999999997,2077.09008108
1586550180000,0.42505,0.42505,0.42505,0.42505,734.64940595
1586774040000,0.40693,0.40693,0.40693,0.40693,5.31
1588028760000,0.37959,0.37959,0.37959,0.37959,49.9
1588193100000,0.35135,0.35133000000000003,0.35135,0.35133000000000003,508.22922191
1588322820000,0.36595,0.36591999999999997,0.36595,0.36591999999999997,439.81
1588376100000,0.37151999999999996,0.37151999999999996,0.37151999999999996,0.37151999999999996,343.94370962
1588486260000,0.36815,0.36817,0.36817,0.36815,112.55441753
1588504920000,0.36573,0.36573,0.36573,0.36573,11.0
1588555920000,0.38811999999999997,0.38811999999999997,0.38811999999999997,0.38811999999999997,905.19734067
1588568940000,0.39753,0.39753,0.39753,0.39753,80.89459435
1588761360000,0.38226,0.38226,0.38226,0.38226,86.28009237
1588761540000,0.38176,0.38176,0.38176,0.38176,86.20845141
1588810440000,0.40805,0.40805,0.40805,0.40805,84.46189689
1589069820000,0.4293,0.4293,0.4293,0.4293,5.993995
1589069880000,0.4293,0.4293,0.4293,0.4293,5e-06
1590189300000,0.44093999999999994,0.44093999999999994,0.44093999999999994,0.44093999999999994,227.99068622
1591109460000,0.44376000000000004,0.44376000000000004,0.44376000000000004,0.44373,2020.81301295
1591109520000,0.44376000000000004,0.4438,0.4438,0.44376000000000004,1718.25278397
1591436100000,0.4432100000000001,0.4432100000000001,0.4432100000000001,0.4432100000000001,158.2206199
1591642920000,0.4531,0.4531,0.4531,0.4531,4.0
1591643640000,0.45146000000000003,0.45146000000000003,0.45146000000000003,0.45146000000000003,4.0
1591872360000,0.46063999999999994,0.46063999999999994,0.46063999999999994,0.46063999999999994,44.13699877
1592056020000,0.47839,0.47839,0.47839,0.47839,99.8
1592130060000,0.45356,0.45356,0.45356,0.45356,226.79395140000003
1592208720000,0.45674,0.45674,0.45674,0.45674,68.00223233
1592229780000,0.4582100000000001,0.4582100000000001,0.4582100000000001,0.4582100000000001,45.80270341
1592590260000,0.4624,0.4624,0.4624,0.4624,60.33200723
1592666640000,0.47162,0.47162,0.47162,0.47162,62.85022431
1592849040000,0.44832,0.44832,0.44832,0.44832,104.75282106
1593998460000,0.48705,0.48705,0.48705,0.48705,4.00066561
1594117140000,0.49731000000000003,0.49731000000000003,0.49731000000000003,0.49731000000000003,4.0
1594117200000,0.45698999999999995,0.45319,0.45698999999999995,0.45319,8.0
1594286340000,0.45387,0.45387,0.45387,0.45387,355.75497373
1594296720000,0.45188,0.45188,0.45188,0.45188,99.86698788
1594306680000,0.46006,0.46006,0.46006,0.46006,77.70505802
1594559220000,0.44298000000000004,0.44298000000000004,0.44298000000000004,0.44298000000000004,4.03065923
1594668660000,0.43768,0.43768,0.43768,0.43768,411.26069836
1594676280000,0.44048000000000004,0.44048000000000004,0.44048000000000004,0.44048000000000004,5486.66000043
1594752660000,0.44204,0.44204,0.44204,0.44204,492.17951927
1594754220000,0.43943999999999994,0.43943999999999994,0.43943999999999994,0.43943999999999994,241.65485269999996
1594756020000,0.44577,0.44577,0.44577,0.44577,1215.59979889
1594756080000,0.4348,0.43204,0.4348,0.43204,1861.7692141
1595156640000,0.46065,0.46065,0.46065,0.46065,122.08364465
1595382360000,0.4533100000000001,0.4533100000000001,0.4533100000000001,0.4533100000000001,87.21815981
1595458380000,0.44859,0.44859,0.44859,0.44859,83.69421464
1595473920000,0.42045,0.42045,0.42045,0.42045,4.397028
1595486640000,0.4497100000000001,0.4497100000000001,0.4497100000000001,0.4497100000000001,80.17661363
1595891940000,0.44701,0.45025,0.45025,0.44701,1801.03875584
1596073500000,0.39691,0.39691,0.39691,0.39691,41.0
1596211740000,0.4088,0.4088,0.4088,0.4088,359.60631187
1596211980000,0.4088,0.4088,0.4088,0.4088,451.04502926
1596212040000,0.4088,0.4088,0.4088,0.4088,1881.34471199
1596212100000,0.4088,0.4088,0.4088,0.4088,513.29685008
1596214500000,0.4088,0.4088,0.4088,0.4088,357.43388046
1596214680000,0.4088,0.40878000000000003,0.4088,0.40878000000000003,500.92814535
1596323460000,0.39061999999999997,0.39061999999999997,0.39061999999999997,0.39061999999999997,91.96302093
1596332820000,0.38603000000000004,0.38603000000000004,0.38603000000000004,0.38603000000000004,197.61744558
1596342600000,0.37644,0.37644,0.37644,0.37644,94.01984293
1596343080000,0.38404,0.38404,0.38404,0.38404,1537.40675669
1596343200000,0.41023000000000004,0.43216000000000004,0.43216000000000004,0.41023000000000004,6864.84785224
1596343260000,0.43216000000000004,0.45266999999999996,0.45266999999999996,0.43216000000000004,845.1482559200001
1596343560000,0.4633100000000001,0.4633100000000001,0.4633100000000001,0.4633100000000001,1171.16420566
1596343620000,0.4559,0.4559,0.4559,0.4559,3104.59601846
1596344040000,0.43931000000000003,0.43878,0.43931000000000003,0.43878,1451.88046277
1596344340000,0.44345,0.44345,0.44345,0.44345,10.40312337
1596346980000,0.4311100000000001,0.4311100000000001,0.4311100000000001,0.4311100000000001,99.76507589
1596353220000,0.4181,0.4181,0.4181,0.4181,400.05808594
1596759000000,0.41793,0.41793,0.41793,0.41793,4.65957341
1596759120000,0.41793,0.41793,0.41793,0.41793,4.66075807
1596759300000,0.41793,0.41793,0.41793,0.41793,4.65970559
1596759420000,0.41793,0.41793,0.41793,0.41793,4.66064591
1596821400000,0.43476000000000004,0.43477,0.43477,0.43476000000000004,2396.81288407
1596821460000,0.43528,0.43528,0.43528,0.43528,1947.99999437
1596821520000,0.44398999999999994,0.45203000000000004,0.45203999999999994,0.44398999999999994,6087.08005032
1597025520000,0.41775,0.41775,0.41775,0.41775,101.72637265
1597076580000,0.39439,0.39439,0.39439,0.39439,48.78213391
1597123080000,0.40010999999999997,0.40010999999999997,0.40010999999999997,0.40010999999999997,109.41092771
1597144500000,0.40264,0.40264,0.40264,0.40264,102.20917848
1597145700000,0.40348,0.40348,0.40348,0.40348,100.59444452
1597147800000,0.40792,0.40792,0.40792,0.40792,12.24560453
1597147980000,0.40675,0.40675,0.40675,0.40675,100.17914524
1597149660000,0.40733,0.40733,0.40733,0.40733,93.76115671
1597152120000,0.4129,0.4129,0.4129,0.4129,97.55705942
1597152300000,0.41573000000000004,0.41573000000000004,0.41573000000000004,0.41573000000000004,8.7307411
1597152480000,0.41663,0.41663,0.41663,0.41663,101.19332733
1597152900000,0.4160100000000001,0.4160100000000001,0.4160100000000001,0.4160100000000001,97.71777753
1597156020000,0.41441999999999996,0.41441999999999996,0.41441999999999996,0.41441999999999996,91.30605771
1597159500000,0.41781,0.41781,0.41781,0.41781,203.47239938
1597159620000,0.4177,0.4177,0.4177,0.4177,202.42048946
1597159860000,0.41795,0.41795,0.41795,0.41795,187.64818754
1597160460000,0.41808,0.41808,0.41808,0.41808,11.80261911
1597160940000,0.4184,0.4184,0.4184,0.4184,12.15226577
1597161060000,0.41828000000000004,0.41828000000000004,0.41828000000000004,0.41828000000000004,10.40376302
1597161120000,0.41828000000000004,0.41828000000000004,0.41828000000000004,0.41828000000000004,14.40065028
1597161660000,0.42023,0.42023,0.42023,0.42023,12.64120124
1597162260000,0.42044,0.42044,0.42044,0.42044,101.90687011
1597162380000,0.42044,0.42044,0.42044,0.42044,90.04691588
1597162440000,0.42044,0.42044,0.42044,0.42044,1496.7986615
1597162560000,0.42033999999999994,0.42033999999999994,0.42033999999999994,0.42033999999999994,9.83536184
1597162620000,0.41958999999999996,0.41958999999999996,0.41958999999999996,0.41958999999999996,13.67948711
1597162680000,0.41958999999999996,0.41958999999999996,0.41958999999999996,0.41958999999999996,10.41106079
1597162920000,0.41568999999999995,0.41568999999999995,0.41568999999999995,0.41568999999999995,98.33030517
1597163880000,0.41718999999999995,0.41718999999999995,0.41718999999999995,0.41718999999999995,93.85878974
1597164180000,0.418,0.418,0.418,0.418,95.89438583
1597164300000,0.4181,0.4181,0.4181,0.4181,113.50247762
1597165560000,0.4173,0.4173,0.4173,0.4173,23.49689671
1597165620000,0.4173,0.4173,0.4173,0.4173,14.5148622
1597165860000,0.4169600000000001,0.4169600000000001,0.4169600000000001,0.4169600000000001,50.34140203
1597165920000,0.41768,0.41768,0.41768,0.41768,24.30449386
1597165980000,0.41845,0.41845,0.41845,0.41845,14.60622535
1597166340000,0.41852,0.41852,0.41852,0.41852,12.67777167
1597166400000,0.41923999999999995,0.4198,0.4198,0.41923999999999995,38.77750811
1597166520000,0.41968999999999995,0.41968999999999995,0.41968999999999995,0.41968999999999995,14.81645023
1597166580000,0.42017,0.42017,0.42017,0.42017,26.04659066
1597166640000,0.41976,0.42012,0.42012,0.41976,24.775054100000002
1597167060000,0.41863,0.41863,0.41863,0.41863,15.26426438
1597167120000,0.41867,0.41867,0.41867,0.41867,9.93166216
1597167360000,0.41698999999999997,0.41698999999999997,0.41698999999999997,0.41698999999999997,14.74781169
1597167480000,0.41639,0.41639,0.41639,0.41639,15.61800235
1597167600000,0.41503,0.41503,0.41503,0.41503,8.36956846
1597167780000,0.41473000000000004,0.41473000000000004,0.41473000000000004,0.41473000000000004,9.76348226
1597176840000,0.42136,0.42136,0.42136,0.42136,9.02901556
1597176900000,0.4214100000000001,0.4214100000000001,0.4214100000000001,0.4214100000000001,12.58621532
1597176960000,0.4214100000000001,0.4214100000000001,0.4214100000000001,0.4214100000000001,331.07297033
1597177080000,0.4214100000000001,0.4214100000000001,0.4214100000000001,0.4214100000000001,357.37194439999996
1597177140000,0.4214100000000001,0.4214100000000001,0.4214100000000001,0.4214100000000001,1249.9688642
1597178040000,0.4214100000000001,0.42591,0.42591,0.4214100000000001,12.5207579
1597178100000,0.4269,0.4269,0.4269,0.4269,26.09207541
1597178160000,0.42678,0.4269,0.4269,0.42678,1960.16806462
1597178220000,0.4269,0.43605,0.43605,0.4269,15.74567366
1597178940000,0.4318,0.4318,0.4318,0.4318,15.79303612
1597179000000,0.4319,0.4319,0.4319,0.4319,15.78608705
1597189740000,0.42018,0.42018,0.42018,0.42018,91.10812359
1597190160000,0.42213,0.42213,0.42213,0.42213,8.5507474
1597190340000,0.42191999999999996,0.42191999999999996,0.42191999999999996,0.42191999999999996,13.97487912
1597190940000,0.4219,0.4219,0.4219,0.4219,10.52752073
1597191060000,0.42235,0.42235,0.42235,0.42235,12.90134485
1597191180000,0.42158999999999996,0.42158999999999996,0.42158999999999996,0.42158999999999996,13.96542612
1597193400000,0.42312,0.42312,0.42312,0.42312,16.01046038
1597195320000,0.42203,0.42203,0.42203,0.42203,99.24692304
1597196640000,0.42162,0.42236999999999997,0.42236999999999997,0.42162,306.84143676
1597196760000,0.42391,0.42391,0.42391,0.42391,187.73714514
1597196940000,0.42457,0.42457,0.42457,0.42457,100.15965864
1597197000000,0.42457,0.42457,0.42457,0.42457,191.70832018
1597198800000,0.42718999999999996,0.42718999999999996,0.42718999999999996,0.42718999999999996,10.65764179
1597201020000,0.42675,0.42675,0.42675,0.42675,10.47342237
1597201080000,0.42675,0.42675,0.42675,0.42675,356.96371672
1597207620000,0.42648,0.42648,0.42648,0.42648,63.94588732
1597217040000,0.42572,0.42572,0.42572,0.42572,8.59642488
1597218900000,0.42253999999999997,0.42253999999999997,0.42253999999999997,0.42253999999999997,15.258101000000002
1597224120000,0.42323,0.42323,0.42323,0.42323,10.02830375
1597228320000,0.41853999999999997,0.41853999999999997,0.41853999999999997,0.41853999999999997,8.65294595
1597228380000,0.41899,0.41899,0.41899,0.41899,12.69628153
1597228440000,0.41868999999999995,0.41868999999999995,0.41868999999999995,0.41868999999999995,11.65419761
1597228560000,0.41808,0.41808,0.41808,0.41808,10.17978377
1597228740000,0.4178,0.4178,0.4178,0.4178,9.34560076
1597230300000,0.41968999999999995,0.41968999999999995,0.41968999999999995,0.41968999999999995,10.505871
1597231980000,0.42075,0.42075,0.42075,0.42075,36.31646821
1597233540000,0.42125,0.42125,0.42125,0.42125,12.34162136
1597233600000,0.42056000000000004,0.42056000000000004,0.42056000000000004,0.42056000000000004,24.26723654
1597234320000,0.42285,0.42285,0.42285,0.42285,11.29720231
1597238940000,0.42136,0.42136,0.42136,0.42136,9.73139595
1597239060000,0.4212,0.4212,0.4212,0.4212,10.9375546
1597239420000,0.42073999999999995,0.42073999999999995,0.42073999999999995,0.42073999999999995,15.33737224
1597502820000,0.3885,0.38850999999999997,0.38850999999999997,0.3885,100.0
1597512060000,0.33826,0.33826,0.33826,0.33826,9.99
1598262720000,0.36141,0.36141,0.36141,0.36141,299.4
1599045060000,0.43437,0.43333,0.43437,0.43333,80.53961111999998
1599153960000,0.45913999999999994,0.46731999999999996,0.46731999999999996,0.45913999999999994,82.09008483
1599319260000,0.39737,0.39737,0.39737,0.39737,13.17801293
1599319320000,0.39435,0.39284,0.39435,0.39284,1289.40121423
1599321000000,0.39419,0.39419,0.39419,0.39419,12.62973692
1600124160000,0.44278999999999996,0.44278999999999996,0.44278999999999996,0.44278999999999996,4.06627871
1600168380000,0.43271000000000004,0.43273999999999996,0.43275,0.43271000000000004,4000.37545139
1600848420000,0.172,0.172,0.172,0.172,6.37
1601568240000,0.5019600000000001,0.50303,0.50303,0.5019600000000001,7999.00190846
1601862540000,0.4799100000000001,0.4799100000000001,0.4799100000000001,0.4799100000000001,89.52492502
1601948700000,0.48335,0.48335,0.48335,0.48335,258.8600494
1601997420000,0.44118999999999997,0.44448000000000004,0.44448000000000004,0.44118999999999997,1659.46073452
1602000780000,0.40655,0.40655,0.40655,0.40655,6.52617636
1602010800000,0.44566999999999996,0.44693999999999995,0.44693999999999995,0.44566999999999996,1474.77754532
1602121680000,0.46108999999999994,0.46108999999999994,0.46108999999999994,0.46108999999999994,91.82049931
1602141060000,0.46323000000000003,0.46793999999999997,0.46793999999999997,0.46323000000000003,1836.50221365
1602141120000,0.46793999999999997,0.4738600000000001,0.4738600000000001,0.46793999999999997,845.5468871799999
1602551760000,0.44609,0.44609,0.44609,0.44609,3387.41282322
1602555000000,0.4528100000000001,0.4528100000000001,0.4528100000000001,0.4528100000000001,208.09918515
1602555120000,0.4542600000000001,0.4542600000000001,0.4542600000000001,0.4542600000000001,207.52097173
1602560460000,0.45601,0.45601,0.45601,0.45601,206.52280213
1602602340000,0.4476100000000001,0.4476100000000001,0.4476100000000001,0.4476100000000001,9.93212394
1602602700000,0.4476,0.4476,0.4476,0.4476,9.92323503
1602632100000,0.44902,0.44902,0.44902,0.44902,17.16567721
1602679080000,0.45043999999999995,0.45043999999999995,0.45043999999999995,0.45043999999999995,8.06718617
1604486280000,0.56263,0.5626399999999999,0.5626399999999999,0.56263,58.34641652
1605478440000,0.51932,0.51932,0.51932,0.51932,9.20319071
1605479880000,0.51607,0.51607,0.51607,0.51607,9.20443932
1605483720000,0.51113,0.51113,0.51113,0.51113,195.56967307
1605484500000,0.5102899999999999,0.5102899999999999,0.5102899999999999,0.5102899999999999,196.28891297
1605484860000,0.51085,0.51085,0.51085,0.51085,196.30182284
1605485880000,0.51213,0.51213,0.51213,0.51213,196.08648475
1605491460000,0.51417,0.51417,0.51417,0.51417,256.29519687000004
1605492900000,0.5159699999999999,0.5159699999999999,0.5159699999999999,0.5159699999999999,9.18623369
1605493380000,0.5148199999999999,0.5148199999999999,0.5148199999999999,0.5148199999999999,9.18744609
1605494880000,0.51503,0.51503,0.51503,0.51503,71.95177368
1605498060000,0.51013,0.51013,0.51013,0.51013,9.19810244
1605499380000,0.5110100000000001,0.5110100000000001,0.5110100000000001,0.5110100000000001,18.37252891
1605499620000,0.51207,0.51207,0.51207,0.51207,193.6108696
1605677700000,0.49298000000000003,0.49298000000000003,0.49298000000000003,0.49298000000000003,353.62462748
1605678300000,0.5048199999999999,0.5048199999999999,0.5048199999999999,0.5048199999999999,249.72822017
1605750360000,0.49446999999999997,0.49446999999999997,0.49446999999999997,0.49446999999999997,420.27173083
1605786300000,0.49494,0.49494,0.49494,0.49494,141.21750667
1605786300000,0.49494,0.49494,0.49494,0.49494,141.21750667
1605786300000,0.49494,0.49494,0.49494,0.49494,141.21750667
1605786300000,0.49494,0.49494,0.49494,0.49494,141.21750667
1605786300000,0.49494,0.49494,0.49494,0.49494,141.21750667
1605786300000,0.49494,0.49494,0.49494,0.49494,141.21750667
