time,open,close,high,low,volume
1602276480000,25.865,25.865,25.865,25.865,0.0012
1605963960000,23.495,23.495,23.495,23.495,0.021282
1605965880000,23.495,23.495,23.495,23.495,0.1064
1605965880000,23.495,23.495,23.495,23.495,0.1064
1607534160000,23.414,20.0,23.414,20.0,536.82817778
1607534160000,23.414,20.0,23.414,20.0,536.82817778
1607534160000,23.414,20.0,23.414,20.0,536.82817778
1607534160000,23.414,20.0,23.414,20.0,536.82817778
