time,open,close,high,low,volume
1541492280000,4.42,4.42,4.42,4.42,9.58281806
1541543580000,4.42,4.42,4.42,4.42,4.59847499
1541555340000,4.8,4.8,4.8,4.8,20.0
1541567100000,5.0858,5.0863,5.0863,5.0858,31.75524271
1541578200000,5.2355,5.2355,5.2355,5.2355,7.45931652
1541599200000,5.0863,5.0863,5.0863,5.0863,11.1
1541601300000,5.3,5.3,5.3,5.3,20.0
1541642100000,5.0,5.0,5.0,5.0,20.25693263
1541653380000,5.1999,5.2002,5.2002,5.1999,21.73999819
1541747640000,5.0,5.0,5.0,5.0,2.48502
1541846760000,5.7,5.7,5.7,5.7,70.0
1541937240000,5.2501,5.2501,5.2501,5.2501,5.73156693
1541939160000,5.2501,5.5,5.5,5.2501,13.81860958
1541972700000,4.6,4.6,4.6,4.6,17.852500669999994
1542092160000,4.6048,4.6048,4.6048,4.6048,14.0
1542101100000,5.4998,5.4998,5.4998,5.4998,3.82072077
1542147780000,5.497000000000001,5.497000000000001,5.497000000000001,5.497000000000001,2.73229815
1542200820000,5.0,5.0,5.0,5.0,12.99999998
1542209880000,4.6783,4.5,4.6783,4.5,8.0
1542211500000,4.3711,4.3395,4.3711,4.3395,46.40164192
1542211680000,4.3,4.1110000000000015,4.3,4.1110000000000015,33.86692168
1542214200000,4.1110000000000015,4.1110000000000015,4.1110000000000015,4.1110000000000015,6.0
1542214320000,4.1110000000000015,4.1110000000000015,4.1110000000000015,4.1110000000000015,2.74
1542214620000,4.1110000000000015,4.1110000000000015,4.1110000000000015,4.1110000000000015,2.0
1542227520000,4.1110000000000015,4.0121,4.1110000000000015,4.0121,44.33298113
1542278340000,4.0121,4.0121,4.0121,4.0121,3.37795522
1542307200000,4.2001,4.2001,4.2001,4.2001,25.74847112
1542315420000,5.885,5.885,5.885,5.885,9.406
1542327660000,4.2,4.0,4.2,4.0,33.0
1542493560000,4.9959,4.9959,4.9959,4.9959,3.44251762
1542514560000,5.2569,5.2569,5.2569,5.2569,3.4700905
1542556320000,5.3,5.3,5.3,5.3,17.13556765
1542557040000,5.3,5.3,5.3,5.3,8.84055174
1542558720000,5.3,5.3,5.3,5.3,9.98
1542559440000,5.3,5.3,5.3,5.3,3.47704111
1542564240000,5.395,5.395,5.395,5.395,3.525
1542655140000,3.1226,3.1226,3.1226,3.1226,50.0
1542994920000,3.5462,3.5462,3.5462,3.5462,21.1721662
1542994980000,3.14,3.14,3.14,3.14,6.79967954
1543001220000,3.14,3.0119,3.14,3.0119,59.22787769
1543001280000,2.888,2.8879,2.888,2.8879,15.74991185
1543001400000,4.0,3.5,4.0,3.5,4.0
1543098060000,3.0,3.0,3.0,3.0,6.5
1543120080000,2.266,2.266,2.266,2.266,4.0
1543140240000,2.0139,2.0139,2.0139,2.0139,7.05020444
1543355160000,4.9385,4.98,4.98,4.9385,6.65572102
1543460940000,4.4074,5.299,5.299,4.4074,36.41906658
1543488120000,3.2,3.2,3.2,3.2,4.0
1543488180000,2.5,2.5,2.5,2.5,4.0
1543488240000,2.3,2.3,2.3,2.3,4.0
1543492860000,2.31,2.31,2.31,2.31,4.0
1543518000000,2.32,2.32,2.32,2.32,4.98002
1543619820000,2.71,2.71,2.71,2.71,5.84137037
1543619940000,2.71,2.71,2.71,2.71,12.79639544
1543621080000,2.71,2.71,2.71,2.71,4.0
1543622460000,2.71,2.71,2.71,2.71,12.66635433
1543622700000,2.71,2.71,2.71,2.71,4.0
1543650480000,2.71,2.71,2.71,2.71,4.0
1543675680000,2.71,2.71,2.71,2.71,4.0
1543735800000,2.71,2.71,2.71,2.71,4.0
1543737600000,2.71,2.71,2.71,2.71,4.0
1543799100000,4.1,4.1,4.1,4.1,4.0
1543825020000,3.0031,3.0031,3.0031,3.0031,4.0
1543825080000,3.0031,3.0031,3.0031,3.0031,4.0
1543825140000,3.0031,3.0031,3.0031,3.0031,4.0
1544143980000,2.3175,2.3175,2.3175,2.3175,23.62175654
1544152380000,2.3174,2.3174,2.3174,2.3174,5.98822583
1544204940000,2.3174,2.3158,2.3174,2.3158,17.6808689
1544205000000,2.0546,2.0,2.0546,2.0,54.98454651
1544205120000,2.0,2.0,2.0,2.0,0.01545349
1544205360000,1.4999,1.4999,1.4999,1.4999,18.76308873
1544205660000,2.0001,2.0001,2.0001,2.0001,15.73368131
1544433060000,2.02,2.02,2.02,2.02,4.0
1544529000000,2.02,2.01,2.02,2.01,5.29021824
1545824760000,3.5115,3.5115,3.5115,3.5115,4.33316637
1545941940000,2.5,2.5,2.5,2.5,11.8603817
1546522740000,2.5,2.5,2.5,2.5,17.23339063
1546605480000,3.4625,3.4625,3.4625,3.4625,8.460989999999999
1546672320000,3.2966,3.2966,3.2966,3.2966,5.2390373
1546694700000,2.6,2.6,2.6,2.6,4.0
1546793280000,2.6,2.5101,2.6,2.5101,102.41711426
1546795140000,2.5102,2.5,2.5102,2.5,69.68764601
1546908720000,2.2,2.2,2.2,2.2,21.55308249
1547079420000,2.2,2.2,2.2,2.2,103.26
1547141460000,2.2001,2.2,2.2001,2.2,16.43705233
1547159280000,2.2,2.2,2.2,2.2,36.36548953
1547176620000,2.2,2.2,2.2,2.2,4.0
1547176740000,2.2,2.2,2.2,2.2,8.28413319
1547176800000,2.2,2.2,2.2,2.2,4.0
1547176860000,2.2,2.2,2.2,2.2,4.0
1547177040000,2.2,2.2,2.2,2.2,4.0
1547177100000,2.55,2.55,2.55,2.55,8.09713575
1547177220000,2.2,2.2,2.2,2.2,8.32336984
1547177280000,2.55,2.55,2.55,2.55,8.101034460000001
1547177340000,2.3,2.55,2.55,2.3,23.95408122
1547177460000,2.3,2.3,2.3,2.3,10.0419308
1547177520000,2.2976,2.2976,2.2976,2.2976,17.039437030000002
1547177580000,2.25,2.25,2.25,2.25,4.0
1547181660000,2.25,2.25,2.25,2.25,8.0
1547183280000,2.25,2.25,2.25,2.25,4.0
1547183340000,2.25,2.2,2.25,2.2,13.50414533
1547276340000,2.54,2.54,2.54,2.54,9.23076923
1547323140000,2.51,2.51,2.51,2.51,14.26719625
1547400900000,2.51,2.52,2.52,2.51,32.99550515
1547401320000,2.2,1.78,2.2,1.78,141.76132575
1547658780000,1.8045,1.8045,1.8045,1.8045,5.22855923
1547849400000,2.42,2.42,2.42,2.42,4.03350619
1547849700000,2.3741,2.3741,2.3741,2.3741,4.32153553
1547864700000,2.42,2.42,2.42,2.42,7.02291008
1547909820000,2.0,2.0,2.0,2.0,4.0
1547950380000,2.42,2.43,2.43,2.42,40.69573427
1547991780000,2.0,2.0,2.0,2.0,4.0
1547991840000,2.0,2.0,2.0,2.0,4.0
1548459600000,2.39,2.39,2.39,2.39,4.0
1548584100000,2.05,2.05,2.05,2.05,8.66042563
1549327500000,2.15,2.15,2.15,2.15,5.0
1549430340000,2.05,2.03,2.05,2.03,17.225962550000002
1549554240000,1.86,1.86,1.86,1.86,30.53358559
1549558380000,1.86,1.86,1.86,1.86,15.936053
1549558680000,1.86,1.86,1.86,1.86,3.53036141
1549908780000,2.1499,2.15,2.15,2.1499,20.0
1549909980000,2.15,2.15,2.15,2.15,10.0
1550323980000,2.15,2.15,2.15,2.15,21.18262712
1550824500000,2.39,2.41,2.41,2.39,166.53
1551019320000,2.0,1.41,2.0,1.41,113.9689323
1551092580000,2.03,2.03,2.03,2.03,9.0
1551123600000,2.03,2.03,2.03,2.03,6.0
1551214440000,2.03,2.03,2.03,2.03,7.0
1551305220000,2.03,2.03,2.03,2.03,22.95
1551496260000,2.04,2.04,2.04,2.04,21.0
1551496320000,2.04,2.04,2.04,2.04,21.0
1551496380000,2.04,2.0899,2.0899,2.04,21.0
1551496440000,2.0899,2.09,2.09,2.0899,16.10817942
1551703500000,2.05,2.05,2.05,2.05,6.0
1551703560000,2.05,1.44,2.05,1.44,19.7
1551711420000,2.3571,2.3571,2.3571,2.3571,15.39024008
1551712200000,2.0,1.57,2.0,1.57,22.3594596
1551744120000,2.1999,4.8616,4.8616,2.1999,157.97441493
1551750060000,2.4896,1.5741,2.4896,1.5741,168.36095577999995
1551750300000,1.5701,1.5701,1.5701,1.5701,17.77263318
1551901140000,2.172,2.18,2.18,2.172,19.12178679
1551911580000,2.1,2.1,2.1,2.1,13.69545337
1551911820000,2.0,2.0,2.0,2.0,19.0
1551911880000,1.9,1.9,1.9,1.9,6.30450969
1551912840000,2.1,2.1,2.1,2.1,39.25414742
1551913080000,2.1,2.1,2.1,2.1,0.74585258
1551996780000,2.1,2.01,2.1,2.01,9.99
1552053180000,2.6229,2.6256,2.6256,2.6229,43.89421963
1552055460000,4.1698,4.1698,4.1698,4.1698,12.09754322
1552060860000,4.1024,4.16,4.16,4.1024,70.27896359
1552065720000,2.3524,2.35,2.3524,2.35,12.07334813
1552223040000,2.4,2.3837,2.4,2.3837,55.51588
1552314180000,2.5726,2.5726,2.5726,2.5726,16.40924662
1552315380000,2.7958,2.7958,2.7958,2.7958,15.68996627
1552339500000,2.8,2.8,2.8,2.8,14.26811673
1552445700000,2.5439,2.5439,2.5439,2.5439,23.82404625
1552532160000,3.3999,4.0,4.0,3.3999,47.44501319
1552651980000,3.3,3.3,3.3,3.3,58.75652151
1552674120000,2.5,2.5,2.5,2.5,15.0
1552734600000,3.98,3.98,3.98,3.98,9.80157979
1552760160000,2.9001,2.9,2.9001,2.9,31.34810066
1552916400000,2.9,2.8,2.9,2.8,10.0
1552944720000,3.1,3.1,3.1,3.1,11.952048
1552944780000,3.12,3.12,3.12,3.12,34.77966025
1552944960000,3.12,3.12,3.12,3.12,11.60921504
1552946280000,3.12,3.12,3.12,3.12,0.04658984
1553358060000,3.1,3.1,3.1,3.1,10.5310653
1553785380000,3.1998,3.1998,3.1998,3.1998,7.0
1553785500000,2.7001,2.7001,2.7001,2.7001,6.9944
1553785800000,3.1998,3.1998,3.1998,3.1998,10.0
1553785860000,2.7825,2.7825,2.7825,2.7825,9.992
1553807640000,3.1961,3.1962,3.1962,3.1961,16.17604558
1553807700000,2.8,2.8,2.8,2.8,16.15590474
1553807820000,3.5,3.5,3.5,3.5,16.14298002
1553807940000,2.8001,2.8,2.8001,2.8,16.11069406
1553827020000,3.4695,3.4695,3.4695,3.4695,10.0
1553986200000,3.44,3.44,3.44,3.44,6.0
1553986260000,3.687,3.95,3.95,3.687,126.00710186
1553986320000,4.4,2.8,4.4,2.8,1024.55500035
1553986380000,2.6027,2.6,2.6027,2.6,1106.50029964
1553986440000,4.4,4.4,4.4,4.4,1075.0
1553986500000,2.64,2.6,2.64,2.6,1072.0
1553986680000,4.32,4.2,4.32,4.17,350.0
1553986800000,2.8,2.8,2.8,2.8,350.0
1553986860000,4.1433,4.1433,4.1433,4.1433,350.0
1553986980000,3.2,3.2,3.2,3.2,340.0
1553987160000,2.75,2.75,2.75,2.75,685.0
1553987280000,3.99,3.99,3.99,3.99,470.0
1553987400000,3.9,3.9315,3.9315,3.9,236.0
1553987460000,3.7,3.7,3.7,3.7,236.0
1553987520000,2.801,2.769,2.801,2.769,470.0
1553987580000,2.91,2.91,2.91,2.91,470.0
1553987640000,3.57,3.65,3.65,3.57,454.72598386
1553987820000,3.5,3.5,3.5,3.5,410.0
1553987880000,3.4608,3.4216,3.4608,3.4,130.0
1553988060000,3.0562,3.0562,3.0562,2.92,608.1362447299998
1553988120000,3.0562,2.85,3.0562,2.85,76.73296442
1553988180000,2.85,2.81,2.85,2.81,175.76792018
1553988240000,2.82,2.82,2.82,2.82,130.0
1553988300000,3.3941,2.82,3.3941,2.82,100.0
1553988360000,3.3,3.3,3.3,3.3,180.0
1553988420000,2.769,2.35,2.769,2.35,183.10598
1553991120000,2.9,2.9,2.9,2.9,100.0
1554080700000,3.05,3.05,3.05,3.05,7.215777
1554151200000,3.051,3.05,3.051,3.05,128.17659489
1554151680000,2.91,2.91,2.91,2.91,11.74902897
1554151740000,2.91,2.91,2.91,2.91,11.75234769
1554153180000,2.91,2.91,2.91,2.91,6.32422122
1554153480000,2.91,2.91,2.91,2.91,15.74817295
1554153540000,2.91,2.91,2.91,2.91,14.42492292
1554156660000,2.91,2.91,2.91,2.91,0.00130625
1554231660000,3.2999,3.3,3.3,3.2999,21.7564
1554232260000,3.3,3.3,3.3,3.3,2.91490344
1554241500000,2.95,2.5026,2.95,2.5026,59.94
1554256560000,3.3655,3.369,3.369,3.3655,22.96633462
1554275040000,3.33,3.33,3.33,3.33,9.98
1554347040000,3.0001,3.0001,3.0001,3.0001,9.80142996
1554387120000,3.0,3.0,3.0,3.0,10.0
1554412620000,3.2931,3.2965,3.2965,3.2931,22.77117232
1554412680000,3.3,3.3,3.3,3.3,15.99994848
1554542640000,3.25,3.25,3.25,3.25,58.32912561
1554542700000,3.0001,3.0,3.0001,3.0,18.05981003
1554567840000,3.4999,3.5,3.5,3.4999,22.29750297
1554923280000,3.07,3.07,3.07,3.07,6.0
1555007940000,3.5,3.5,3.5,3.5,6.0
1555109340000,3.5,3.5,3.5,3.5,5.73436561
1555195260000,3.95,3.95,3.95,3.95,12.0
1555533300000,3.95,3.0078,3.95,3.0078,14.0
1555802100000,3.95,3.95,3.95,3.95,12.9891916
1556342220000,2.8501,2.8501,2.8501,2.8501,2.994
1556375520000,2.575,2.57,2.575,2.57,12.97620241
1556498160000,3.65,3.6667,3.6667,3.65,5.5771080400000015
1556505900000,3.6667,3.761,3.761,3.6667,2.65886732
1556508900000,3.702,3.702,3.702,3.702,3.02759724
1556816040000,3.6,3.6935,3.6935,3.6,220.93021581
1556816100000,3.9899,3.99,3.99,3.9899,129.26297952
1556816160000,3.99,3.99,3.99,3.99,17.13837901
1556905380000,2.77,2.77,2.77,2.77,4.7266129
1556925660000,3.8103,2.9,3.8103,2.8,19.99
1556925720000,3.7,2.92,3.7,2.92,15.85
1556968500000,2.9201,2.9201,2.9201,2.9201,9.25944669
1557055620000,2.9201,2.92,2.9201,2.92,38.69776499
1557086100000,3.8,3.98,3.98,3.8,155.73704633
1557086160000,4.3,4.4562,4.4562,4.3,86.94944788000002
1557092280000,4.4562,4.4562,4.4562,4.4562,0.17186954
1557092340000,4.9998,4.9998,4.9998,4.9998,9.80955186
1557110580000,4.9999,5.0,5.0,4.9999,4.23817849
1557135300000,3.0,3.0,3.0,3.0,48.20978046000001
1557135360000,3.0,2.9369,3.0,2.9369,48.20978046000001
1557135420000,2.9369,2.9369,2.9369,2.9369,14.26532948
1557135480000,2.95,2.95,2.95,2.95,2.0
1557135720000,2.95,2.95,2.95,2.95,4.66831848
1557135780000,2.951,2.95,2.951,2.95,46.57898184
1557135840000,2.95,2.95,2.95,2.95,133.57553561999998
1557139560000,2.935,2.9,2.935,2.9,90.29690914
1557139980000,2.52,2.5,2.52,2.5,72.24788226999998
1557141600000,2.38,2.38,2.38,2.38,6.17503287
1557326520000,2.42,2.42,2.42,2.42,4.0
1557579600000,2.42,2.42,2.42,2.42,25.0
1557579660000,2.42,2.42,2.42,2.42,74.07700004
1557590400000,2.4021,2.4001,2.4021,2.4001,20.0
1557825300000,3.5,3.5,3.5,3.5,10.08
1557825360000,3.5,3.652,3.652,3.5,5.1
1557842160000,2.401,2.401,2.401,2.401,31.76527114
1557895800000,3.4771,3.4771,3.4771,3.4771,10.56696587
1557928500000,3.37,3.37,3.37,3.37,4.0
1557936000000,2.4601,2.4601,2.4601,2.4601,2.27730481
1557940740000,3.37,3.37,3.37,3.37,9.98374436
1557947220000,2.4602,2.4602,2.4602,2.4602,10.0
1558010940000,2.5201,2.5201,2.5201,2.5201,3.62531488
1558060200000,3.1029,3.1064,3.1064,3.1029,9.0
1558061520000,3.1063,3.39,3.39,3.1063,44.46044011
1558062060000,3.39,3.6831,3.6831,3.39,106.43855367
1558062120000,3.68,3.68,3.68,3.68,18.38829546
1558062180000,3.68,3.68,3.68,3.68,10.40625
1558196460000,2.572,2.48,2.572,2.48,150.03370074
1558209240000,2.41,2.4001,2.41,2.4001,38.31124597
1558331220000,2.9935,2.9935,2.9935,2.9935,2.0
1558331700000,2.9935,2.9935,2.9935,2.9935,2.0
1558337700000,2.5326,2.42,2.5326,2.42,42.49676321
1558353600000,2.42,2.4101,2.42,2.4101,3.4965
1558445340000,3.27,3.397,3.397,3.27,7.59871132
1558447560000,2.77,2.77,2.77,2.77,19.4
1558448700000,2.77,2.77,2.77,2.77,15.31044
1558467720000,3.3428,3.3428,3.3428,3.3428,10.0
1558468380000,2.77,2.77,2.77,2.77,8.985
1558492920000,2.78,2.78,2.78,2.78,2.0
1558505700000,2.78,2.4,2.78,2.4,194.37608436
1558505760000,2.3801,2.3,2.3801,2.3,36.68345217
1558509600000,2.7698,2.7698,2.7698,2.7698,2.0
1558516980000,2.75,2.75,2.75,2.75,2.0
1558536180000,2.4501,2.45,2.4501,2.45,16.994999999999994
1558536420000,2.4,2.4,2.4,2.4,10.0
1558539960000,2.3024,2.3,2.3024,2.3,32.65
1558544400000,2.4,2.4,2.4,2.4,30.999556400000003
1558545120000,2.4,2.4,2.4,2.4,15.00978241
1558552440000,2.35,2.3,2.35,2.3,24.55129648
1558553820000,2.2001,2.2,2.2001,2.2,6.38626081
1558554720000,2.4,2.4,2.4,2.4,2.0
1558559340000,2.4,2.4,2.4,2.4,20.0
1558559400000,2.4,2.4,2.4,2.4,8.0
1558563540000,2.4,2.4,2.4,2.4,2.0
1558613460000,2.4,2.4,2.4,2.4,55.0
1558689120000,2.4,2.4,2.4,2.4,20.98887143
1558689180000,2.97,3.0998,3.0998,2.97,36.11833516
1558689240000,3.0998,3.1,3.1,3.0998,69.92999999999999
1558689300000,3.1,3.24,3.24,3.1,74.13472988
1558734840000,2.4501,2.4501,2.4501,2.4501,2.0
1558736700000,2.4503,2.4501,2.4503,2.4501,28.84555393
1558746660000,2.55,2.455,2.55,2.455,82.0
1558777200000,2.97,2.97,2.97,2.97,2.22789366
1558783920000,2.47,2.47,2.47,2.47,2.22343787
1559005020000,2.9,2.9,2.9,2.9,2.0
1559165520000,2.5001,2.5001,2.5001,2.5001,14.531
1559209380000,2.86,2.9,2.9,2.86,47.89109733
1559209800000,3.0999,3.0999,3.0999,3.0999,6.45
1559209980000,3.0968,3.1,3.1,3.0968,4.37553393
1559214480000,3.0999,3.1,3.1,3.0999,4.07231613
1559214540000,3.0999,3.22,3.22,3.0999,38.03307887
1559214720000,3.22,3.24,3.24,3.22,38.03
1559214840000,3.2399,3.2399,3.24,3.2399,14.85
1559216640000,3.24,3.24,3.24,3.24,1.99625001
1559216700000,3.42,3.45,3.45,3.42,19.99
1559217540000,2.8001,2.8001,2.8001,2.8001,2.0
1559218800000,2.8001,2.8,2.8001,2.8,5.41847578
1559223600000,2.605,2.605,2.605,2.605,9.98
1559231340000,2.6102,2.5,2.6102,2.5,385.1016973
1559231400000,2.455,2.45,2.455,2.45,35.99703272
1559232540000,2.4501,2.45,2.4501,2.45,15.896952300000002
1559254560000,2.81,2.81,2.81,2.81,10.0
1559257800000,2.7960000000000003,2.7960000000000003,2.7960000000000003,2.7960000000000003,13.07829181
1559288760000,2.7910000000000004,2.7910000000000004,2.7910000000000004,2.7910000000000004,4.88122309
1559319180000,2.5001,2.45,2.5001,2.45,23.15856915
1559332860000,2.659,2.659,2.659,2.659,2.0
1559342220000,2.4501,2.45,2.4501,2.45,8.65192742
1559410560000,2.6999,2.6999,2.6999,2.6999,5.99399998
1559410620000,2.7,2.7,2.7,2.7,33.00609123
1559410800000,3.1966,3.1966,3.1966,3.1966,22.0
1559493660000,2.3203,2.3203,2.3203,2.3203,50.0
1559505120000,2.335,2.3301,2.335,2.3301,29.914
1559505420000,2.3324,2.3204,2.3324,2.3204,37.9709
1559505720000,2.3205,2.3205,2.3205,2.3205,2.0
1559518500000,2.89,2.89,2.89,2.89,2.0
1559567580000,2.035,2.035,2.035,2.035,20.0
1559731500000,2.7430000000000003,2.7998,2.7998,2.7430000000000003,37.22513249
1559765820000,2.1201,2.09,2.1201,2.09,112.0
1559765880000,2.0001,1.7159,2.0001,1.7159,369.43759685
1559765940000,1.7152,1.55,1.7159,1.55,285.34167007
1559808780000,1.7251,1.725,1.7251,1.725,34.49009993
1559826060000,2.3,2.3,2.3,2.3,100.0
1559826120000,2.2,2.2,2.2,2.2,34.12380714
1559826420000,2.2,2.2,2.2,2.2,2.0
1559931960000,2.21,2.21,2.21,2.21,9.98
1559956800000,2.21,2.21,2.21,2.21,0.02
1560026400000,2.01,2.01,2.01,2.01,20.0
1560088800000,1.81,1.81,1.81,1.81,4.99
1560128340000,1.81,1.81,1.81,1.81,8.86136145
1560147420000,1.81,1.81,1.81,1.81,8.12825911
1560147480000,1.81,1.81,1.81,1.81,6.7133645600000005
1560147540000,1.81,1.81,1.81,1.81,2.0
1560147600000,1.81,1.81,1.81,1.81,4.6257158700000005
1560147660000,1.81,1.81,1.81,1.81,2.0
1560147780000,1.81,1.81,1.81,1.81,2.68129901
1560173220000,1.751,1.751,1.751,1.751,15.43314917
1560185760000,1.751,1.751,1.751,1.751,3.99
1560248400000,1.751,1.751,1.751,1.751,2.2
1560248460000,1.751,1.751,1.751,1.751,2.2
1560327060000,1.751,1.751,1.751,1.751,26.70315206
1560331080000,1.751,1.751,1.751,1.751,17.742
1560335940000,2.45,1.751,2.45,1.751,5.0771
1560401280000,2.45,2.45,2.45,1.751,13.0
1560414060000,2.447,1.751,2.447,1.751,10.0
1560414120000,2.447,3.1965,3.1965,2.447,420.64347681
1560414180000,1.77,3.2,3.3,1.77,848.0
1560414240000,1.833,3.0,3.1,1.833,805.0
1560414300000,1.91,1.91,1.91,1.91,5.0
1560414360000,1.955,1.955,1.955,1.955,5.0
1560423780000,2.21,2.21,2.21,2.21,2.9760000000000004
1560423960000,2.5,2.5,2.5,2.5,9.19822264
1560424020000,2.1001,2.1001,2.1001,2.1001,3.11362539
1560424140000,2.81,2.9,2.9,2.81,300.0
1560424200000,2.2023,2.2023,2.2023,2.2023,2.970048
1560424380000,2.2123,2.21,2.2123,2.21,69.753
1560424440000,2.21,2.21,2.21,2.21,22.66917619
1560438120000,2.622,2.622,2.622,2.622,2.66694561
1560457800000,2.2347,2.2347,2.2347,2.2347,20.81068166
1560457860000,2.2347,2.2347,2.2347,2.2347,10.40534083
1560457920000,2.2347,2.2347,2.2347,2.2347,11.40534083
1560457980000,2.2347,2.21,2.2347,2.21,61.31672413
1560458640000,2.3251,2.3251,2.3251,2.3251,3.55066747
1560594540000,2.1101,2.1,2.1101,2.1,33.05147412
1560634800000,2.0001,2.0001,2.0001,2.0001,4.21063069
1560634860000,2.0021,2.0,2.0021,2.0,24.0
1560634920000,1.97,1.97,1.97,1.97,2.0
1560635580000,1.97,1.97,1.97,1.97,14.97
1560635640000,1.97,1.97,1.97,1.97,14.97
1560635700000,1.97,1.97,1.97,1.97,14.97
1560643440000,2.0916,2.0916,2.0916,2.0916,2.02586306
1560646920000,2.0916,2.0916,2.0916,2.0916,7.6372315
1560652440000,2.0916,2.0916,2.0916,2.0916,15.61415035
1560703140000,2.0916,2.0916,2.0916,2.0916,4.68319841
1560745140000,2.0916,2.0916,2.0916,2.0916,23.62379128
1560745560000,2.0916,2.0916,2.0916,2.0916,2.76711585
1560745680000,2.0916,2.0916,2.0916,2.0916,18.44392291
1560745800000,2.22,2.22,2.22,2.22,16.12979817
1560760620000,2.22,2.499,2.499,2.22,19.82412897
1560760680000,2.5921,2.66,2.66,2.5921,19.99214601
1560798180000,2.4999,2.5,2.5,2.4999,23.61023006
1560810600000,2.4999,2.5,2.5,2.4999,9.6
1560811620000,2.4999,2.5,2.5,2.4999,3.07304498
1560813300000,2.4999,2.5,2.5,2.4999,2.4179544
1560945360000,2.111,2.1,2.111,2.1,33.9
1561067280000,2.1001,2.1,2.1001,2.1,23.5822713
1561101000000,2.1001,2.1,2.1001,2.1,2.39812229
1561140480000,1.975,1.975,1.975,1.975,2.1956
1561292460000,2.0001,2.0,2.0001,2.0,10.9
1561294980000,2.3999,2.4,2.4,2.3999,50.5222723
1561295040000,2.5999,2.6,2.6,2.5999,52.09197215
1561296480000,2.111,2.111,2.111,2.111,4.15694443
1561313040000,2.88,2.88,2.88,2.88,8.0115868
1561313160000,2.88,2.88,2.88,2.88,12.48324017
1561317540000,2.12,2.12,2.12,2.12,7.5750649
1561329540000,2.878,2.88,2.88,2.878,26.16887614
1561397520000,1.99,1.95,1.99,1.95,18.93230027
1561403760000,2.7,2.7,2.7,2.7,6.0
1561473960000,2.3554,2.35,2.3554,2.35,58.0
1561474020000,2.35,2.35,2.35,2.35,22.02643171
1561475400000,2.001,2.001,2.001,2.001,3.59907848
1561479060000,2.6946,2.7,2.7,2.6946,53.55956261
1561534800000,2.112,2.05,2.112,2.05,34.78978507
1561565700000,2.6898,2.6898,2.6898,2.6898,3.0120879
1561567560000,2.112,2.112,2.112,2.112,3.828461279324
1561567620000,2.0501,2.0501,2.0501,2.0501,40.0
1561568820000,2.0501,2.0501,2.0501,2.0501,2.29299025
1561571460000,2.0501,2.0501,2.0501,2.0501,20.45383732
1561593660000,2.0501,2.0501,2.0501,2.0501,101.8453667
1561632960000,2.05,2.05,2.05,2.05,3.9
1561665180000,2.06,2.06,2.06,2.06,17.9915868
1561674180000,2.06,2.06,2.06,2.06,8.98783708
1561674240000,2.0001,2.0001,2.0001,2.0001,6.51054462
1561730160000,2.4499,2.45,2.45,2.4499,4.79
1561734000000,2.4499,2.4499,2.4499,2.4499,2.0
1561937340000,2.4498,2.4499,2.4499,2.4498,12.42702104
1561948440000,2.25,2.25,2.25,2.25,62.26
1561972260000,2.007,2.007,2.007,2.007,7.02496434
1562006700000,2.4130000000000003,2.423,2.423,2.4130000000000003,73.43925383
1562196540000,2.423,2.423,2.423,2.423,0.60391923
1562242740000,2.008,2.008,2.008,2.008,9.98
1562276460000,2.0001,2.0,2.0001,2.0,60.53725
1562590500000,2.417,2.43,2.43,2.417,33.61103370000001
1562612700000,2.678,2.7,2.7,2.678,11.40928211
1562613540000,2.89,2.89,2.89,2.89,50.0
1562613600000,2.89,2.9999,2.9999,2.89,74.69781333
1562615700000,2.13,2.13,2.13,2.13,2.0
1562686800000,2.18,2.13,2.18,2.13,9.346
1562687940000,2.13,1.77,2.13,1.77,363.03171327
1562688000000,1.7252,1.7251,1.7252,1.7251,46.0
1562695680000,2.9,2.9,2.9,2.9,9.625
1562773020000,2.003,2.003,2.003,2.003,10.0
1562773080000,1.78,1.78,1.78,1.78,12.941904699999998
1562838180000,2.498,2.498,2.498,2.498,5.0
1562864520000,1.82,1.82,1.82,1.82,9.625
1563097680000,2.0,2.0,2.0,2.0,2.0
1563119280000,1.9003,1.9,1.9003,1.9,126.47823600000001
1563150360000,1.82,1.8,1.82,1.8,4.513118
1563150480000,1.8,1.8,1.8,1.8,1.861882
1563150540000,1.7251,1.7251,1.7251,1.7251,1.55451025
1563221340000,1.9,1.85,1.9,1.85,20.0
1563221400000,1.85,1.85,1.85,1.85,20.0
1563221460000,1.849,1.85,1.85,1.849,120.0
1563222360000,1.85,1.85,1.85,1.85,50.0
1563278940000,1.55,1.55,1.55,1.55,2.0
1563932820000,2.14,2.14,2.14,2.14,10.978
1563932880000,2.45,2.4566,2.4566,2.45,74.0
1564080840000,1.6,1.6,1.6,1.6,2.0
1564191180000,2.4234,2.4234,2.4234,2.4234,40.0
1564219860000,1.9,1.9,1.9,1.9,106.34456745
1564220040000,1.85,1.85,1.85,1.85,76.19206276
1564220100000,1.85,1.85,1.85,1.85,15.16596108
1564621200000,1.63,1.58,1.63,1.58,99.63077158
1565113620000,1.676,1.676,1.676,1.676,2.5
1565113680000,1.8859,1.6703,1.9358,1.6703,10.0
1565113740000,1.6703,1.6703,1.6703,1.6703,2.5
1565163780000,2.19,2.254,2.254,2.19,31.45048288
1565163840000,2.254,2.2999,2.2999,2.254,11.31736544
1565164620000,2.2976,2.4,2.4,2.2976,83.72259199999998
1565164680000,2.351,2.351,2.351,2.351,3.928231
1565213460000,2.3053,2.3476,2.35,2.3053,121.63829731
1565213520000,2.3476,2.35,2.35,2.3476,6.0
1565419500000,1.7444,1.7444,1.7444,1.7444,53.506003
1565520180000,2.2,1.751,2.2,1.751,5.178065
1565638260000,2.1731,2.1709,2.1731,2.1709,13.39320998
1565677980000,2.19,2.19,2.19,2.19,20.0
1565726400000,2.19,2.19,2.19,2.19,2.291986
1565883060000,1.7621,1.76,1.7621,1.76,12.38425141
1565886480000,1.761,1.761,1.761,1.761,10.9813
1567023480000,1.682,1.033,1.682,1.033,100.614733
1567056420000,1.59,1.59,1.59,1.59,72.0
1567075200000,1.59,1.59,1.59,1.59,7.48156144
1567104720000,1.02,1.02,1.02,1.02,25.068324
1567498860000,1.58,1.58,1.58,1.58,29.17327764
1567519140000,1.58,1.58,1.58,1.58,2.30585236
1567551300000,1.0931,1.0931,1.0931,1.0931,2.0
1567793700000,1.58,1.58,1.58,1.58,137.24878
1568132520000,1.1703,1.1703,1.1703,1.1703,35.0
1568132640000,1.1703,1.1703,1.1703,1.1703,35.980722
1568132760000,1.1703,1.1703,1.1703,1.1703,65.0
1568688300000,1.75,1.75,1.75,1.75,3.11663
1568857320000,1.6789,1.6789,1.6789,1.6789,2.20254617
1568857380000,1.75,1.75,1.75,1.75,2.11371802
1568857620000,1.6922,1.6922,1.6922,1.6922,4.44778406
1568882820000,1.19,1.19,1.19,1.19,50.0
1569303900000,1.93,1.93,1.93,1.93,2.0
1569305280000,1.93,1.93,1.93,1.93,9.0
1569305520000,1.4415,1.4415,1.4415,1.4415,2.0
1569305580000,1.93,1.93,1.93,1.93,3.23
1569348540000,1.5,1.5,1.5,1.5,121.47876
1569356880000,1.5,1.5,1.5,1.5,49.52124
1569899100000,1.5,1.5,1.5,1.5,13.545428
1570134720000,1.2356,1.2356,1.2356,1.2356,4.1916
1570153800000,1.2331,1.2331,1.2331,1.2331,18.0
1570158780000,1.7733,1.7733,1.7733,1.7733,27.0
1570189620000,1.75,1.75,1.75,1.75,20.89276898
1570199760000,1.3091,1.25,1.3091,1.25,43.51053014
1570199820000,1.2077,1.2077,1.2077,1.2077,16.81742588
1570216260000,1.3,1.3,1.3,1.3,6.0
1570299840000,1.4485,1.45,1.45,1.4485,27.28039804
1570300020000,1.5,1.5,1.5,1.5,16.5
1570379880000,1.5,1.5,1.5,1.5,23.50772761
1570435740000,1.7672,1.7672,1.7672,1.7672,4.456213
1570463460000,1.75,1.75,1.75,1.75,29.0
1570464720000,1.75,1.75,1.75,1.75,2.3
1570467780000,1.75,1.75,1.75,1.75,3.0732
1570771620000,1.76,2.0096,2.0096,1.76,228.51613390000003
1570771680000,2.1,2.188,2.188,2.1,6.68061211
1570771860000,1.5612,1.2002,1.5612,1.2002,234.72635169
1570789200000,1.4778,1.4778,1.4778,1.4778,12.0
1570807320000,1.4909,1.4909,1.4909,1.4909,5.82659632
1570807980000,1.4909,1.4909,1.4909,1.4909,0.16740368
1571065320000,1.7257,1.2494,1.7257,1.2494,13.56976971
1571381880000,1.97,2.0,2.0,1.97,25.0
1571382180000,1.5,1.5,1.5,1.5,2.0
1571382240000,1.2,1.16,1.2,1.16,89.81985433
1571382360000,1.8,1.8,1.8,1.8,60.0
1571448900000,1.2,1.2,1.2,1.2,5.65394046
1571517180000,1.91,1.91,1.91,1.91,2.0
1571537040000,1.9,1.9,1.9,1.9,4.0
1571606820000,1.21,1.207,1.21,1.207,31.35537176
1571606880000,1.1171,1.1171,1.1171,1.1171,28.422785
1571668020000,1.14,1.14,1.14,1.14,5.0
1571668080000,1.18,1.18,1.18,1.18,2.0
1571668140000,1.2,1.2,1.2,1.2,4.0
1571671560000,1.14,1.14,1.14,1.14,2.2726815
1572026280000,1.14,1.14,1.14,1.14,3.99247639
1572031080000,1.82,1.112,1.83,1.112,5.9
1572031140000,1.83,1.9,1.9,1.83,33.20389238
1572031680000,1.14,1.14,1.14,1.14,10.0
1572031740000,1.15,1.81,1.8131,1.15,68.8
1572031800000,1.17,1.8131,1.8131,1.17,43.67352674
1572031860000,1.18,1.795,1.8,1.18,142.5
1572031920000,1.2,1.2,1.2,1.2,35.5
1572031980000,1.77,1.21,1.79,1.21,35.33801638
1572032040000,1.7,1.69,1.7,1.69,23.2
1572032220000,1.21,1.21,1.21,1.21,23.281758
1572032640000,1.2101,1.21,1.2101,1.21,5.2035636200000015
1572169800000,1.6899,1.6899,1.6899,1.6899,11.48329049
1572172920000,1.3001,1.3001,1.3001,1.3001,2.0
1572180180000,1.3002,1.3,1.3002,1.3,30.95
1572185400000,1.3,1.3,1.3,1.3,11.460323
1572187080000,1.3,1.3,1.3,1.3,2.35576923
1572199380000,1.3,1.3,1.3,1.3,15.865876
1572434460000,1.6433,1.72,1.72,1.6433,182.54348382
1572461520000,1.78,1.78,1.78,1.78,13.972060999999998
1572478260000,1.86,1.86,1.86,1.86,2.89
1572478380000,1.86,1.86,1.86,1.86,5.0
1572478440000,1.86,1.86,1.86,1.86,60.0
1572478500000,1.86,1.88,1.88,1.86,10.0
1572478860000,1.88,1.89,1.89,1.88,44.17647
1572478920000,2.1,2.188,2.188,2.1,55.0
1572478980000,2.188,2.199,2.199,2.188,149.99255651
1572479040000,2.199,2.2,2.2,2.199,124.18524411
1572479100000,2.2,2.2,2.2,2.2,0.82219938
1572488280000,1.89,1.89,1.89,1.89,5.82353
1572514320000,1.81,1.8,1.81,1.8,47.79768036
1572740940000,2.2401,2.35,2.35,2.2401,63.02895923
1572741000000,2.9,4.5,4.5,2.9,327.03063311
1572741060000,4.9,5.0,5.0,4.9,49.14075949
1572741120000,5.1506,5.0,5.1506,5.0,33.50717324
1572741420000,5.7154,6.0,7.0898,5.7154,56.92452666
1572741480000,6.0,7.0898,7.0898,6.0,18.72446624
1572745080000,6.3328,6.3328,6.3328,6.3328,2.0
1572745200000,6.3,5.5539999999999985,6.3,5.5539999999999985,360.539892
1572745320000,6.0201,6.1,6.1,6.0201,170.19243115999996
1572745740000,4.5,4.5,4.5,4.5,461.68217731
1572745800000,4.5,4.5,4.5,4.5,578.800968
1572745860000,4.5,4.5,4.5,4.5,526.6388489
1572745920000,4.5,4.5,4.5,4.5,2.0
1572746040000,4.4,4.4,4.4,4.4,11.36363636
1572746100000,4.4,4.4,4.4,4.4,50.23471969
1572746160000,4.4,4.4,4.4,4.4,13.25612571
1572746220000,3.1224,3.1224,3.1224,3.1224,15.0
1572746280000,3.6653,3.6653,3.6653,3.6653,19.93300609
1572746340000,3.5010000000000003,3.5010000000000003,3.5010000000000003,3.5010000000000003,9.99984061
1572746400000,3.5010000000000003,3.5010000000000003,3.5010000000000003,3.5010000000000003,9.560738
1572746520000,4.4,4.4,4.4,4.4,190.99977427
1572746580000,4.39,4.2134,4.4,4.2134,121.37362517
1572746640000,4.4,4.4,4.4,4.4,231.50248398
1572746700000,4.4,4.4,4.4,4.4,323.08482179
1572746760000,4.4,4.4,4.4,4.4,107.69494306
1572746820000,4.4,4.4,4.4,4.4,208.3215505
1572746880000,4.4,4.399,4.4,3.5010000000000003,433.70818321
1572746940000,3.502,3.5001,3.502,3.5001,17.0
1572747600000,3.5001,3.5001,3.5001,3.5001,2.962837
1572748020000,3.5001,3.5001,3.5001,3.5001,37.801427
1572748260000,4.37,4.37,4.37,4.37,2.0
1572749100000,3.5,3.5,3.5,3.5,8.4898
1572749280000,3.5,3.5,3.5,3.5,2.5102
1572753600000,3.5001,3.5001,3.5001,3.5001,42.8571
1572757200000,2.9,2.9,2.9,2.9,2.0
1572757260000,2.9,2.9,2.9,2.9,14.05424185
1572757740000,2.6104,2.6104,2.6104,2.6104,21.671582
1572758220000,2.5,2.5,2.5,2.5,2.006168
1572790860000,2.7684,2.6,2.7684,2.6,39.99494376
1572790920000,2.591,2.4,2.591,2.4,23.18115359
1572791040000,2.3,2.3,2.3,2.3,2.0
1572791100000,2.0208,2.0208,2.0208,2.0208,48.4939
1572796620000,4.37,7.5,7.5,4.3699,59.23485952
1572796680000,7.5,8.5505,8.5505,7.5,27.905
1572796920000,7.1001,7.1001,7.1001,7.1001,232.40900198
1572796980000,7.1001,7.1001,7.1001,7.1001,215.12293305
1572797040000,7.11,7.11,7.11,7.11,4.0
1572797100000,7.1001,7.1001,7.1001,7.1001,39.10036977
1572797160000,7.1001,7.1001,7.1001,7.1001,193.02917212
1572797220000,7.1001,7.1001,7.1001,7.1001,27.42622971
1572797280000,7.1001,7.1001,7.1001,7.1001,46.34617257
1572797400000,6.9,6.9,6.9,6.9,343.97845375
1572797460000,6.9,6.1504,6.9,6.1504,56.1424547
1572797520000,6.1504,6.1504,6.1504,6.1504,6.8571
1572797580000,6.4412,6.2001,6.4412,6.2001,249.53097437
1572797640000,6.1,6.1,6.1,6.1,11.1429
1572797760000,6.1,6.1,6.1,6.1,36.0
1572797880000,6.1,6.1,6.1,6.1,18.0
1572798060000,5.5004,5.4,5.5004,5.4,10.45309069
1572798120000,4.0443,3.7001,4.0443,3.7001,172.30303019
1572798840000,3.7,2.21,3.7,2.21,24.285332
1572798900000,2.22,2.28,2.28,2.22,18.213999
1572798960000,2.32,2.32,2.32,2.32,2.071333
1572799020000,2.32,2.32,2.32,2.32,2.0
1572799080000,2.3399,2.36,2.36,2.3399,31.142666
1572799140000,2.3999,2.3999,2.3999,2.3999,6.071333
1572799200000,2.4,2.4,2.4,2.4,34.09882458
1572799260000,2.4,2.4,2.4,2.4,48.2493054
1572799320000,2.4,2.4,2.4,2.4,12.495797
1572799380000,3.5,3.5,3.5,3.5,6.4957970000000005
1572800400000,2.7809,2.7809,2.7809,2.7809,6.4957970000000005
1572802440000,2.9134,2.9134,2.9134,2.9134,19.98
1572813480000,2.9999,2.9999,2.9999,2.9999,2.2
1572818940000,2.6416,2.6416,2.6416,2.6416,20.0
1572819060000,2.543,2.543,2.543,2.543,2.011679
1572820260000,2.543,2.543,2.543,2.543,6.05919
1572820320000,2.543,2.543,2.543,2.543,13.72833897
1572823680000,2.49,2.49,2.49,2.49,2.0
1572829200000,2.5,2.5,2.5,2.5,11.486255
1572870060000,2.4281,2.4281,2.4281,2.4281,20.0
1572871080000,2.2339,2.1,2.2339,2.1,36.666574
1572912960000,2.6001,2.6001,2.6001,2.6001,7.563736
1572913440000,2.6001,2.6001,2.6001,2.6001,4.710309
1572923880000,2.6001,2.7057,2.7057,2.6001,115.71528955
1572924060000,2.7925,2.89,2.89,2.7925,115.53849156
1572924120000,2.89,2.89,2.89,2.89,100.0
1572924360000,2.89,2.89,2.89,2.89,100.0
1572943080000,2.88,2.88,2.88,2.88,47.0
1572949860000,2.87,2.3144,2.88,2.3144,67.17468869
1573020960000,2.3222,2.3222,2.3222,2.3222,23.06501296
1573021020000,2.3222,2.3222,2.3222,2.3222,12.38400237
1573144140000,2.3222,2.3222,2.3222,2.3222,27.548608
1573144200000,2.3222,2.3222,2.3222,2.3222,13.43050426
1573152300000,2.7551,2.7997,2.7997,2.7551,50.0
1573152360000,2.7997,2.83,2.83,2.7997,98.561688
1573294860000,2.3342,2.3342,2.3342,2.3342,2.0
1573465020000,2.52,2.55,2.55,2.52,41.434768
1573467420000,2.6339,2.6339,2.6339,2.6339,13.641581
1573469820000,2.7,2.7,2.7,2.7,2.358826
1573471200000,2.7,2.7,2.7,2.7,7.924305
1573473360000,2.7,2.7,2.7,2.7,5.516813
1573474320000,2.7,2.89,2.89,2.7,6.16969
1573479060000,2.89,2.89,2.89,2.89,17.301199
1573487280000,2.9,2.9,2.9,2.9,9.0
1573500840000,2.5,2.5,2.5,2.5,4.0
1573501920000,2.9126,2.9126,2.9126,2.9126,8.981842
1573522080000,2.9,2.9,2.9,2.9,16.26792796
1573548480000,3.5,3.5,3.5,3.5,5.64237527
1573548600000,3.5,3.5,3.5,3.5,2.0
1573549020000,3.5,3.5,3.5,3.5,2.0
1573550880000,3.5,3.5,3.5,3.5,7.63083573
1573551060000,4.0,4.0,4.0,4.0,2.0
1573551180000,4.399,4.399,4.399,4.399,2.0
1573553880000,4.11,3.9856,4.11,3.9856,10.499932800000002
1573553940000,3.9856,3.99,4.11,3.7,57.16358244
1573554000000,3.99,3.99,3.99,3.99,22.0998064
1573554060000,4.18,4.18,4.18,4.18,22.0
1573554360000,4.18,4.18,4.18,4.18,21.999824
1573554540000,4.3175,4.3175,4.3175,4.3175,2.0
1573554720000,4.3175,4.3175,4.3175,4.3175,2.0
1573554780000,4.3175,4.3180000000000005,4.3180000000000005,4.3175,9.996
1573554840000,4.399,4.399,4.399,4.399,1.0
1573554900000,4.6001,4.6001,4.6001,4.6001,2.0
1573554960000,4.6001,4.6001,4.6001,4.6001,35.087465
1573555200000,4.6,4.6,4.6,4.6,5.34782609
1573555320000,4.58,4.58,4.58,4.58,2.0
1573555440000,4.5801,4.5801,4.5801,4.5801,35.052378000000004
1573555920000,4.58,4.38,4.58,4.38,2.1
1573555980000,4.5618,4.38,4.5618,4.38,2.01
1573556040000,4.56,4.56,4.56,4.56,0.1
1573556100000,4.38,4.38,4.38,4.38,2.0
1573556160000,4.39,4.5543,4.5543,4.39,6.029999999999999
1573557300000,4.5301,4.38,4.5301,4.38,5.997000000000001
1573557360000,4.3,4.3,4.3,4.3,2.0
1573557660000,4.53,4.53,4.53,4.53,0.1
1573557720000,4.11,4.11,4.11,4.11,2.0
1573558800000,4.5,4.5,4.5,4.5,0.01
1573559400000,4.48,4.48,4.48,4.48,2.01
1573559520000,3.93,3.93,3.93,3.93,4.0
1573559580000,3.95,3.95,3.95,3.95,2.0
1573560180000,4.42,4.42,4.42,4.42,0.01
1573560300000,3.93,3.93,3.93,3.93,102.376677
1573560360000,4.2,3.93,4.2,3.93,38.90125544
1573561620000,4.11,4.11,4.11,4.11,2.0
1573561800000,3.4394,3.4394,3.4394,3.4394,2.0
1573567380000,3.4403,3.4403,3.4403,3.4403,4.0149968000000005
1573576620000,3.4088,3.4088,3.4088,3.4088,4.78461
1573589460000,3.5,3.5,3.5,3.5,10.0
1573608360000,4.0,4.0,4.0,4.0,16.59400537
1573608420000,4.1,4.1,4.1,4.1,2.0
1573608480000,4.1,4.1,4.1,4.1,10.0
1573608540000,4.0,4.0,4.0,4.0,1.40599463
1573608840000,4.1,4.1,4.1,4.1,2.0
1573609020000,4.1,4.1,4.1,4.1,9.99
1573609140000,4.1,4.1,4.1,4.1,2.0
1573609320000,4.1,4.05,4.1,4.05,23.99570104
1573609380000,4.1,4.0999,4.1241,4.0999,5.77046492
1573609440000,4.0998,4.0998,4.0998,4.0998,2.0
1573610400000,4.0,4.0,4.0,4.0,6.99398212
1573612800000,3.9,3.9,3.9,3.9,3.0
1573612860000,4.0998,4.0998,4.0998,4.0998,0.58683439
1573612920000,4.4,4.4,4.4,4.4,2.0
1573627380000,4.0,4.0,4.0,4.0,2.0
1573627680000,3.8,3.8,3.8,3.8,10.0
1573632900000,4.4,4.4901,4.4901,4.4,50.0
1573632960000,4.49,4.4901,4.4901,4.49,15.0
1573633020000,4.4999,4.5,4.5,4.4999,50.0
1573633080000,4.499,4.5,4.5,4.499,36.0
1573633140000,4.49,4.6,4.6,4.49,80.0
1573633200000,4.61,4.61,4.61,4.61,10.0
1573633320000,4.61,4.61,4.61,4.61,30.0
1573633500000,4.9999,4.9999,4.9999,4.9999,2.0
1573637820000,3.9516,3.6094,3.9516,3.6094,15.0
1573641180000,3.8,3.8,3.8,3.8,4.705598
1573661640000,4.9568,4.9568,4.9568,4.9568,11.956
1573661700000,6.2311,6.2311,6.2311,6.2311,9.05
1573677420000,5.5,5.5,5.5,5.5,2.0
1573827480000,4.2275,4.2275,4.2275,4.2275,8.795691999999999
1573829460000,5.5,5.5,5.5,5.5,2.0
1574107440000,4.2513,4.2513,4.2513,4.2513,8.0
1574339340000,4.1878,4.1878,4.1878,4.1878,11.43629822
1574357460000,4.05,4.05,4.05,4.05,8.0
1574357820000,4.05,4.05,4.05,4.05,6.9
1574462820000,3.7,3.7,3.7,3.7,7.5375973
1574511120000,3.697,3.7,3.7,3.697,29.814226
1574662320000,3.0,3.0,3.0,3.0,8.107522099999999
1574770740000,3.037,3.037,3.037,3.037,3.0
1575071160000,3.9366,3.9366,3.9366,3.9366,2.0
1575118200000,3.1046,3.1046,3.1046,3.1046,2.343478
1575493740000,3.1652,3.05,3.1652,3.05,28.0
1575654300000,3.05,3.05,3.05,3.05,9.939062300000002
1575733200000,3.05,3.05,3.05,3.05,5.98867893
1575852960000,3.08,3.08,3.08,3.08,6.65
1575901140000,3.8,3.8,3.8,3.8,4.0
1575932160000,3.103,3.05,3.103,3.05,28.71377768
1575997080000,3.05,3.05,3.05,3.05,12.17105263
1576039200000,3.05,3.05,3.05,3.05,10.0
1576059780000,3.05,3.05,3.05,3.05,50.03
1576150620000,3.01,3.01,3.01,3.01,2.0
1576215180000,3.01,3.0,3.01,3.0,5.996
1576261920000,3.0,3.0,3.0,3.0,1.1909438
1576264440000,2.7797,2.52,2.7797,2.52,161.19377647
1576629000000,2.333,2.33,2.333,2.33,34.53305254
1576674300000,2.33,2.33,2.33,2.33,26.81888315
1576884900000,2.0649,2.0,2.0649,2.0,117.62246038
1576887840000,2.0,2.0,2.0,2.0,94.7
1576893960000,2.0,2.0,2.0,2.0,58.80607751
1576894080000,1.6879,1.6879,1.6879,1.6879,50.0
1576947900000,1.52,1.5,1.5629,1.5,277.53814983
1576947960000,1.4751,1.4751,1.4751,1.4751,6.77892568
1576948020000,1.2794,1.2794,1.2794,1.2794,45.142764
1577008860000,1.6549,1.6549,1.6549,1.6549,12.695406
1577047500000,1.6414,1.6414,1.6414,1.6414,5.16996919
1577048400000,1.649,1.649,1.649,1.649,7.0
1577070180000,1.668,1.668,1.668,1.668,33.790556
1577092740000,1.6980000000000002,1.6980000000000002,1.6980000000000002,1.6980000000000002,5.8
1577145540000,1.6980000000000002,1.6980000000000002,1.6980000000000002,1.6980000000000002,0.97214675
1577145600000,2.0,2.0,2.0,2.0,7.683333
1577308980000,1.7,1.7,1.7,1.7,8.638169
1577487360000,1.3433,1.3,1.3433,1.3,87.0
1577487480000,1.3,1.29,1.3,1.29,32.0
1577509740000,1.3030000000000002,1.2,1.3030000000000002,1.2,130.61971368
1577527980000,1.0738,1.0306,1.0738,1.0306,198.0513766
1577528040000,1.0244,1.0,1.0244,1.0,559.64166697
1577544240000,1.0,1.0,1.0,1.0,30.0
1577548320000,1.0,1.0,1.0,1.0,109.295245
1577549460000,1.0,1.0,1.0,1.0,15.194582999999998
1577549820000,1.0,1.0,1.0,1.0,184.674902
1577550240000,1.0,1.0,1.0,1.0,82.91748503
1577550300000,1.1514,1.1514,1.1514,1.1514,5.442228
1577550360000,1.1514,1.1514,1.1514,1.1514,4.544348
1577788920000,1.1415,1.1415,1.1415,1.1415,23.849452
1578149580000,0.5888800000000001,0.5727899999999999,0.5888800000000001,0.5727899999999999,804.27995549
1578149880000,0.57419,0.551,0.57419,0.551,419.0
1578248520000,0.99,0.99,0.99,0.99,84.0
1578415620000,1.19,1.19,1.19,1.19,6.0
1578420240000,0.95,0.95,0.95,0.95,177.757566
1578523440000,0.94,0.94,0.94,0.94,21.00298619
1578809460000,0.90002,0.90002,0.90002,0.90002,10.800617
1578809880000,0.78275,0.75,0.78275,0.75,133.0
1578873660000,1.27,1.27,1.27,1.27,22.40067
1578873720000,1.27,1.29,1.29,1.27,21.678635999999997
1578877440000,1.1397,1.1397,1.1397,1.1397,34.00967
1578900960000,1.0462,1.0462,1.0462,1.0462,57.0014931
1578901020000,1.0462,1.0462,1.0462,1.0462,75.232814
1578939060000,0.93505,0.93505,0.93505,0.93505,16.9675
1578941340000,1.0999,1.33,1.33,1.0999,210.0
1578966120000,0.93094,0.93094,0.93094,0.93094,50.0
1579035180000,0.946,0.946,0.946,0.946,104.91048884
1579035240000,0.946,0.93,0.946,0.93,360.85497416
1579035960000,0.61,0.5626800000000001,0.61,0.5626800000000001,152.4905881
1579050000000,1.0,1.0,1.0,1.0,13.41386126
1579099020000,1.0,1.0,1.0,1.0,28.50074655
1579099140000,1.0,1.0051,1.0051,1.0,166.0029862
1579099200000,1.0051,1.05,1.05,1.0051,109.0014931
1579099320000,1.2636,1.2636,1.2636,1.2636,6.0
1579107960000,1.0404,1.05,1.05,1.0404,71.25186635
1579108080000,1.26,1.26,1.26,1.26,6.24390231
1579201920000,1.36,1.36,1.36,1.36,30.6326
1579277640000,1.2431,1.2431,1.2431,1.2431,16.330192
1579278000000,1.2463,1.2463,1.2463,1.2463,52.021203
1579280400000,1.2355,1.2355,1.2355,1.2355,22.746237
1579289280000,1.21,1.21,1.21,1.21,11.913181
1579313640000,1.21,1.21,1.21,1.21,6.0
1579382340000,0.93,0.93,0.93,0.93,50.0
1579382940000,0.71,0.71,0.71,0.71,10.0
1579390380000,1.194,1.194,1.194,1.194,6.0
1579584000000,1.189,1.189,1.189,1.189,6.0
1579633980000,0.8,0.8,0.8,0.8,6.0
1579634520000,0.8,0.8,0.8,0.8,5.437829
1579634760000,0.64,0.64,0.64,0.64,6.00539565
1579638240000,0.64,0.64,0.64,0.64,1.12349769
1579661100000,1.17,1.17,1.17,1.17,6.0
1579707540000,0.6585,0.6585,0.6585,0.6585,5.9
1579709640000,0.85513,0.85513,0.85513,0.85513,80.0
1579709760000,0.85475,0.85475,0.85475,0.85475,360.0
1579710240000,0.85475,0.85475,0.85475,0.85475,100.0
1579710300000,0.85475,0.85475,0.85475,0.85475,100.0
1579775400000,1.16,1.16,1.16,1.16,29.852097
1580139660000,0.6703,0.6703,0.6703,0.6703,14.910984
1580177580000,1.08,1.08,1.08,1.08,6.0
1580178720000,1.08,1.08,1.08,1.08,8.881162
1580178840000,1.08,1.08,1.08,1.08,6.73864858
1580180820000,1.08,1.08,1.08,1.08,6.0
1580181060000,1.08,1.08,1.08,1.08,77.26135142
1580181120000,1.1408,1.1408,1.1408,1.1408,6.0
1580186220000,1.1413,1.1413,1.1413,1.1413,10.0
1580208780000,0.88,0.88,0.88,0.88,100.0
1580210940000,1.13,1.13,1.13,1.13,6.0
1580243460000,1.13,1.13,1.13,1.13,50.0
1580294520000,1.0,1.0,1.0,1.0,6.556723
1580296200000,1.1,1.1,1.1,1.1,6.0
1580296380000,0.8185899999999999,0.8185899999999999,0.8185899999999999,0.8185899999999999,6.0
1580296620000,0.8185899999999999,0.8185899999999999,0.8185899999999999,0.8185899999999999,25.443277
1580304660000,0.8187,0.81305,0.8187,0.81305,39.45003684
1580307420000,1.08,1.08,1.08,1.08,6.0
1580319300000,1.08,1.08,1.08,1.08,0.986
1580319360000,1.1406,1.1406,1.1406,1.1406,10.96884
1580428740000,1.0749,1.0954,1.13,1.0749,505.0
1580542740000,1.119,1.119,1.119,1.119,6.0
1580542800000,1.119,1.16,1.16,1.119,26.0
1580646360000,0.8665700000000001,0.83,0.8665700000000001,0.83,100.0
1580647320000,0.84606,0.78,0.84606,0.78,400.0
1580665800000,0.81211,0.81211,0.81211,0.81211,45.95399999999999
1580698980000,1.07,1.07,1.07,1.07,6.0
1580870760000,1.0084,1.05,1.05,1.0084,176.99451519999997
1580870820000,1.06,1.09,1.09,1.06,48.533311
1581038940000,1.13,1.1348,1.1348,1.13,19.66695515
1581039060000,1.1348,1.1348,1.1348,1.1348,10.914698
1581043920000,1.1348,1.1348,1.1348,1.1348,17.0
1581093240000,1.1348,1.1348,1.1348,1.1348,10.0
1581175920000,1.165,0.8851899999999999,1.1756,0.8851899999999999,61.930930000000004
1581176220000,1.1756,1.2,1.2,1.1756,50.0
1581176280000,1.2,1.25,1.25,1.2,22.94261198
1581177060000,1.25,1.25,1.25,1.25,4.0
1581177120000,1.3896,1.3896,1.3896,1.3896,6.0
1581187440000,1.3892,1.3892,1.3892,1.3892,50.0
1581221340000,0.92,0.92,0.92,0.92,18.44019512
1581222120000,1.3499,1.3499,1.3499,1.3499,6.0
1581255120000,0.96727,0.96727,0.96727,0.96727,9.98
1581270000000,1.3377,1.3377,1.3377,1.3377,6.0
1581292140000,1.3296,1.3422,1.3422,1.3296,60.14390229999999
1581441540000,1.3,1.3,1.3,1.3,9.0
1581441660000,1.3,1.3,1.3,1.3,34.0
1581580740000,1.1,1.1,1.1,1.1,90.70545432
1581582900000,1.1,1.3479,1.3479,1.1,55.38668599
1581583380000,1.3304,1.3304,1.3304,1.3304,6.0
1581764340000,1.3499,1.35,1.35,1.3499,82.58655178
1581834780000,1.3030000000000002,1.35,1.35,1.3030000000000002,76.434177
1581838740000,1.35,1.35,1.35,1.35,38.3202
1582033080000,1.0097,1.0097,1.0097,1.0097,21.006
1582034460000,1.3785,1.3785,1.3785,1.3785,6.0
1582045440000,1.3862,1.3862,1.3862,1.3862,10.0
1582046040000,1.1,1.3862,1.3862,1.1,86.27
1582049460000,1.1084,1.1084,1.1084,1.1084,51.536189
1582059000000,1.3484,1.3484,1.3484,1.3484,50.0
1582123980000,1.1127,1.1127,1.1127,1.1127,49.9
1582140420000,1.2717,1.33,1.33,1.2717,74.67278300000002
1582140600000,1.319,1.35,1.35,1.319,257.63973767
1582140840000,1.4,1.4,1.4,1.4,40.0
1582176780000,1.1211,1.12,1.1211,1.12,126.777
1582177500000,1.3894,1.3894,1.3894,1.3894,6.0
1582220940000,1.3854,1.3854,1.3854,1.3854,6.0
1582287780000,1.3818,1.4,1.4,1.3818,700.0
1582288020000,1.4,1.4,1.4,1.4,200.0
1582288140000,1.4,1.4,1.4,1.4,200.0
1582288800000,1.4,1.4,1.4,1.4,12.0
1582289880000,1.4,1.4,1.4,1.4,6.0
1582289940000,1.4,1.4,1.4,1.4,6.0
1582290000000,1.4,1.4,1.4,1.4,600.0
1582290060000,1.4,1.5,1.5,1.4,129.70220032999998
1582290120000,1.45,1.45,1.45,1.45,25.39541967
1582290180000,1.45,1.41,1.45,1.41,135.29042472
1582295280000,1.5,1.5,1.5,1.5,14.036552
1582295400000,1.5,1.5,1.5,1.5,122.54881
1582296180000,1.6711,1.6711,1.6711,1.6711,6.0
1582324380000,1.331,1.33,1.331,1.33,51.0
1582356960000,1.668,1.668,1.668,1.668,6.0
1582378080000,1.6701,1.74,1.74,1.6701,71.07829099
1582378800000,1.6939,1.74,1.74,1.6939,39.2665366
1582402140000,1.386,1.33,1.386,1.33,216.9404226
1582427340000,1.65,1.65,1.65,1.65,7.0
1582438860000,1.65,1.65,1.65,1.65,22.54881
1582458720000,1.65,1.65,1.65,1.65,22.54881
1582458780000,1.65,1.7380000000000002,1.7380000000000002,1.65,202.93929
1582458840000,1.7380000000000002,1.7380000000000002,1.7380000000000002,1.7380000000000002,67.64643000000001
1582458900000,1.7380000000000002,1.842,1.842,1.7380000000000002,73.2765554
1582461900000,1.8926,1.9314,1.9314,1.8926,73.685781
1582471140000,1.96,1.96,1.96,1.96,20.0
1582497420000,1.75,1.75,1.75,1.75,12.3208609
1582497480000,1.75,1.75,1.75,1.75,7.12608558
1582515840000,1.8826,1.8826,1.8826,1.8826,6.0
1582538040000,1.436,1.4,1.436,1.4,73.61209500000002
1582539300000,1.4015,1.4,1.4015,1.4,19.86572949
1582541400000,1.4,1.4,1.4,1.4,9.9
1582561500000,1.402,1.402,1.402,1.402,42.9
1582652100000,1.8216,1.8216,1.8216,1.8216,6.0
1582652220000,1.8216,1.8216,1.8216,1.8216,6.0
1582656420000,1.41,1.41,1.41,1.41,39.92
1582674720000,1.7904,1.7904,1.7904,1.7904,6.0
1582694160000,1.423,1.41,1.423,1.41,104.0
1582705920000,1.41,1.41,1.41,1.41,65.419569
1582830900000,1.402,1.402,1.402,1.402,63.82638299999999
1582887120000,1.402,1.402,1.402,1.402,11.925901
1582888620000,1.33,1.33,1.33,1.33,200.907748
1582891320000,1.751,1.8857,1.8857,1.751,210.0
1582969020000,1.8857,1.96,1.96,1.8857,631.285181
1582997520000,1.8,1.8,1.8,1.8,4.122375
1583040960000,1.8,1.8,1.8,1.8,6.0
1583041320000,1.4165,1.4165,1.4165,1.4165,50.0
1583089140000,1.4266,1.4266,1.4266,1.4266,18.491131
1583090220000,1.4267,1.4565,1.4565,1.4267,59.62588188
1583091720000,1.4211,1.4211,1.4211,1.4211,5.31999411
1583249520000,1.785,1.8226,1.8226,1.785,10.0
1583261940000,1.5033,1.5033,1.5033,1.5033,10.0
1583262000000,1.5033,1.5033,1.5033,1.5033,30.0
1583262060000,1.5033,1.5033,1.5033,1.5033,20.0
1583271660000,1.4211,1.4211,1.4211,1.4211,4.10384487
1583410260000,1.7813,1.7813,1.7813,1.7813,6.0
1583489820000,1.4211,1.4211,1.4211,1.4211,26.25492773
1583526480000,1.4211,1.4211,1.4211,1.4211,6.0
1583539620000,1.4211,1.4211,1.4211,1.4211,20.0
1583611080000,1.35,1.35,1.35,1.35,30.0
1583614200000,1.35,1.35,1.35,1.35,550.02261
1583637180000,1.62,1.62,1.62,1.62,6.0
1583639280000,1.62,1.62,1.62,1.62,10.73207042
1583640180000,1.62,1.62,1.62,1.62,6.0
1583674860000,1.62,1.62,1.62,1.62,3.24192958
1583674920000,1.7711,1.7711,1.7711,1.7711,22.0
1583717760000,1.7629,1.85,1.85,1.7629,953.45870921
1583747700000,1.7919,1.7919,1.7919,1.7919,5.3437915
1583771220000,1.7037,1.7037,1.7037,1.7037,8.53064399
1583775060000,1.7054,1.779,1.779,1.7054,32.62551201
1583921460000,1.7031,1.7789,1.7789,1.7031,80.0
1583943960000,1.7345,1.779,1.779,1.7345,34.77920279
1583948460000,1.779,1.779,1.779,1.779,5.75067444
1584008100000,1.3548,1.33,1.3548,1.33,100.0
1584009720000,1.33,1.33,1.33,1.33,54.75190262
1584009900000,1.33,1.33,1.33,1.33,80.48711576
1584010020000,1.33,1.33,1.33,1.33,87.42194993
1584010080000,1.33,1.25,1.33,1.25,454.17888914
1584016320000,1.123,1.123,1.123,1.123,29.792392
1584021240000,1.123,1.123,1.123,1.123,4.99
1584055560000,1.023,1.023,1.023,1.023,141.88220509
1584055620000,1.023,1.023,1.023,1.023,14.71710839
1584056040000,1.1017,1.1017,1.1017,1.1017,11.67265435
1584059340000,1.023,1.023,1.023,1.023,40.0
1584064260000,1.023,1.023,1.023,1.023,29.51992783
1584065280000,1.023,1.023,1.023,1.023,20.88
1584065700000,1.023,1.023,1.023,1.023,15.0
1584075120000,1.5041,1.5041,1.5041,1.5041,10.0
1584085560000,1.0556,1.0556,1.0556,1.0556,20.19940771
1584105060000,1.0305,1.023,1.0305,1.023,48.0
1584106200000,1.023,1.023,1.023,1.023,111.6603573
1584114120000,1.023,1.023,1.023,1.023,79.31330944
1584114180000,1.01,1.01,1.01,1.01,16.33953605
1584220380000,1.0,1.0,1.0,1.0,10.4
1584243240000,1.454,1.454,1.454,1.454,4.0
1584356340000,0.903,0.903,0.903,0.903,6.014533
1584358440000,0.92,0.92,0.92,0.92,4.0
1584361320000,0.94366,0.94366,0.94366,0.94366,8.50782851
1584361380000,0.94366,0.94366,0.94366,0.94366,69.13687354
1584361440000,0.94366,0.94366,0.94366,0.94366,7.20444287
1584382620000,0.94366,0.94366,0.94366,0.94366,23.825603
1584638520000,0.94366,0.94366,0.94366,0.94366,15.0
1584639060000,0.94366,0.94366,0.94366,0.94366,4.0
1584639480000,0.94366,0.94366,0.94366,0.94366,56.26
1584641580000,1.237,0.94366,1.237,0.94366,10.07
1584644400000,0.94366,0.94366,0.94366,0.94366,6.00018786
1584737040000,1.1489,1.1489,1.1489,1.1489,6.0
1584745080000,1.14,1.14,1.14,1.14,26.39497284
1584816720000,1.0,1.0,1.0,1.0,26.79261676
1584820440000,1.0,1.0,1.0,1.0,8.59733379
1584824760000,1.084,1.084,1.084,1.084,37.99856842
1584825540000,1.0907,1.14,1.14,1.0907,190.353163
1584997500000,1.015,1.015,1.015,1.015,30.55
1585004400000,1.015,1.015,1.015,1.015,19.89375046
1585039980000,1.0848,1.139,1.139,1.0848,62.07425065
1585371420000,1.0155,1.015,1.0155,1.015,127.30523565
1585371480000,0.8837700000000001,0.8837700000000001,0.8837700000000001,0.8837700000000001,9.5
1585414740000,1.0811,1.0811,1.0811,1.0811,6.0
1585419060000,1.0684,1.0684,1.0684,1.0684,6.54134018
1585421460000,1.0684,1.0684,1.0684,1.0684,2.11108249
1585426560000,1.0684,1.0684,1.0684,1.0684,2.13208464
1585653600000,1.0684,1.0684,1.0684,1.0684,2.0
1585882860000,1.0684,1.0843,1.0843,1.0684,50.39330671000001
1585882920000,1.0843,1.1362,1.1362,1.0843,50.39330671000001
1586023380000,1.0,1.0,1.0,1.0,6.8697
1586023680000,0.95146,0.92,0.95146,0.92,137.14209253
1586024160000,0.99898,0.99898,0.99898,0.99898,5.54842267
1586025840000,1.0823,1.0823,1.0823,1.0823,23.21170622
1586141760000,1.0753,1.0753,1.0753,1.0753,5.72
1586141940000,1.0753,1.0753,1.0753,1.0753,15.0
1586256540000,0.92,0.92,0.92,0.92,9.4905
1586256660000,0.92,0.92,0.92,0.92,13.64121805
1586261100000,0.92,0.92,0.92,0.92,266.208034
1586343120000,1.0753,1.0753,1.0753,1.0753,6.0
1586349300000,0.92,0.92,0.92,0.92,7.4280089999999985
1586350680000,1.0753,1.0753,1.0753,1.0753,6.0
1586665560000,1.0753,1.0753,1.0753,1.0753,14.806599
1586665620000,1.13,1.13,1.13,1.13,43.721697
1586665680000,1.1362,1.139,1.139,1.1362,59.54763287
1586696340000,1.1774,1.2915,1.2915,1.1774,30.70068276
1586702520000,1.2568,1.2972,1.2972,1.2568,134.45070746
1586746980000,1.2806,1.2806,1.2806,1.2806,4.403472
1586846820000,1.0178,1.0178,1.0178,1.0178,4.394665
1586855280000,1.0012,1.0012,1.0012,1.0012,3.83836194
1586882460000,1.2806,1.2806,1.2806,1.2806,6.0
1587010380000,1.2806,1.2806,1.2806,1.2806,6.0
1587476460000,1.2806,1.2901,1.2901,1.2806,32.659506199999996
1587476520000,1.2901,1.35,1.35,1.2901,103.8370218
1587581040000,1.58,1.58,1.58,1.58,3.167511
1587659760000,1.58,1.58,1.58,1.58,5.0
1587842340000,1.58,1.58,1.58,1.58,3.639677
1587850260000,1.58,1.58,1.58,1.58,9.682857
1587875820000,1.58,1.58,1.58,1.58,3.96272855
1587918900000,1.58,1.58,1.58,1.58,3.632397
1587937500000,1.58,1.58,1.58,1.58,9.9
1588077180000,1.58,1.58,1.58,1.58,11.5
1588147080000,1.58,1.58,1.58,1.58,0.28778845
1588175520000,1.689,1.689,1.689,1.689,2.0
1588187640000,1.6801,1.689,1.689,1.6801,21.31438721
1588196340000,1.689,1.689,1.689,1.689,0.1231097
1588196400000,1.75,1.7981,1.7981,1.75,31.31349841
1588196460000,1.85,1.85,1.85,1.85,68.56339189
1588450920000,1.4964,1.4964,1.4964,1.4964,3.679711
1588712880000,1.6,1.6,1.6,1.6,24.05773857
1588861800000,1.6,1.6,1.6,1.6,32.334335
1589027760000,1.4556,1.4459,1.4556,1.4459,14.0
1589040720000,1.4459,1.4459,1.4459,1.4459,11.085754
1589131020000,1.4459,1.4459,1.4459,1.4459,23.908
1589166480000,1.8148,1.8148,1.8148,1.8148,2.0
1589182440000,1.4459,1.4259,1.4459,1.4259,47.096546720000006
1589194620000,1.8066,1.8066,1.8066,1.8066,2.0
1589302740000,1.85,1.85,1.85,1.85,3.0
1589465340000,1.3405,1.3405,1.3405,1.3405,10.0
1589725020000,1.8325,1.8325,1.8325,1.8325,2.0
1590106680000,1.382,1.382,1.382,1.382,3.0
1590119640000,1.382,1.382,1.382,1.382,7.25802142
1590162480000,1.6155,1.693,1.693,1.6155,27.85459598
1590162540000,1.7108,1.7108,1.7108,1.7108,9.83573401
1590162660000,1.7775,1.8,1.8,1.7775,12.364161
1590329100000,1.4778,1.42,1.4778,1.42,24.366999
1590343800000,1.4447,1.42,1.4447,1.42,6.27382239
1590354240000,1.464,1.42,1.464,1.42,49.425885
1590446460000,1.452,1.452,1.452,1.452,28.262266
1590454260000,1.452,1.452,1.452,1.452,2.10522624
1590454560000,1.452,1.452,1.452,1.452,5.02851821
1590465600000,1.452,1.452,1.452,1.452,2.0
1590878100000,1.7981,1.7981,1.7981,1.7981,2.0
1590879060000,1.8,1.461,1.85,1.461,7.0
1590880500000,1.8496,1.87,1.87,1.8496,740.0
1590880560000,1.471,1.471,1.471,1.471,2.0
1590880620000,1.548,1.551,1.551,1.548,200.0
1590880680000,1.5511,1.5511,1.5511,1.5511,9.87323713
1590880740000,1.869,1.5019,1.869,1.5019,229.45349065
1590880800000,1.521,1.864,1.869,1.521,498.99
1590880860000,1.54,1.5608,1.5609,1.54,50.24950726
1590880920000,1.5608,1.571,1.571,1.5608,310.0
1590880980000,1.581,1.869,1.87,1.581,834.0
1590881040000,1.4956,1.8639,1.8639,1.4956,1189.0
1590881100000,1.8639,1.823,1.8639,1.521,1327.0
1590881160000,1.8161,1.5887,1.87,1.5887,550.0
1590881220000,1.61,1.6537,1.6537,1.61,154.0
1590881280000,1.6671,1.669,1.82,1.6671,237.578572
1590881340000,1.8141,1.8141,1.8141,1.8141,50.0
1590881460000,1.7,1.6,1.7,1.6,112.599214
1590881700000,1.794,1.864,1.864,1.794,156.86110548000005
1590881760000,1.8067,1.9,1.9,1.8067,99.14881651
1590881940000,1.6272,1.5426,1.6272,1.5426,320.87084528
1590882120000,1.58,1.8466,1.8466,1.58,6.0
1590882180000,1.58,1.581,1.581,1.56,1100.0
1590882240000,1.8337,1.591,1.839,1.591,1910.263939
1590882300000,1.79,1.7783,1.79,1.7783,4.0
1590882360000,1.749,1.749,1.749,1.749,4.0
1590882420000,1.742,1.6111,1.742,1.611,921.0
1590883020000,1.6267,1.452,1.7079,1.452,112.00824674
1590883080000,1.51,1.699,1.699,1.51,816.0
1590883140000,1.64,1.619,1.64,1.5349,405.412521
1590883200000,1.452,1.5978,1.5978,1.4,642.0
1590883260000,1.4301,1.461,1.9,1.421,599.0
1590883320000,1.7990000000000002,1.481,1.7990000000000002,1.481,520.0
1590883380000,1.739,1.501,1.739,1.501,499.0
1590883440000,1.649,1.649,1.649,1.649,249.0
1590883500000,1.5134,1.589,1.589,1.511,596.8000000000002
1590883560000,1.4445,1.7682,1.86,1.43,650.6420380000002
1590883620000,1.51,1.5402,1.699,1.51,445.0
1590883680000,1.649,1.649,1.649,1.649,119.204376
1590883740000,1.649,1.5559,1.649,1.5559,61.755543
1590883920000,1.556,1.43,1.556,1.43,8.610000000000001
1590896400000,1.7681,1.7681,1.7681,1.7681,2.0
1590906720000,1.768,1.7921,1.7921,1.768,54.92927272
1591096140000,1.7292,1.7292,1.7292,1.7292,18.872298
1591098240000,1.5958,1.5958,1.5958,1.5958,4.057315
1591110900000,1.571,1.5532,1.571,1.5532,48.60497127
1591147860000,1.6991,1.5078,1.6991,1.5078,4.891242
1591193220000,1.5293,1.5079,1.5293,1.5079,10.0
1591195020000,1.5079,1.4555,1.5079,1.4555,10.0
1591279320000,1.6568,1.6568,1.6568,1.6568,2.0
1591283760000,1.5055,1.5055,1.5055,1.5055,5.0
1591283820000,1.5005,1.5005,1.5005,1.5005,5.0
1591288920000,1.4533,1.45,1.4533,1.45,7.417657979999999
1591293840000,1.5637,1.5637,1.5637,1.5637,2.0
1591379700000,1.4762,1.45,1.4762,1.45,211.15461102
1591503300000,1.45,1.45,1.45,1.45,22.983003
1591527300000,1.46,1.46,1.46,1.46,12.974
1591531980000,1.4601,1.46,1.4601,1.46,38.984427
1591610700000,1.6568,1.6568,1.6568,1.6568,2.0
1591650000000,1.45,1.45,1.45,1.45,58.682112
1591819380000,1.4604,1.4,1.4604,1.4,323.23696781
1591819440000,1.3817,1.3574,1.3817,1.3574,112.93548729
1591831980000,1.3204,1.3,1.3204,1.3,86.8690907
1591854780000,1.6565,1.6565,1.6565,1.6565,2.0
1591985940000,1.3504,1.3504,1.3504,1.3504,3.9
1592080440000,1.6564,1.6568,1.6568,1.6564,52.0
1592080500000,1.6325,1.6325,1.6325,1.6325,7.0
1592080560000,1.628,1.6568,1.6568,1.628,3.06064841
1592088360000,1.6568,1.8001,1.8001,1.6568,43.05739855
1592088420000,1.8001,1.87,1.87,1.8001,19.71352231
1592088480000,1.9,1.9,1.9,1.9,50.0
1592088840000,1.8999,1.9,1.9,1.8999,20.0
1592088900000,1.9,1.9,1.9,1.9,9.0
1592089020000,1.9,1.9,1.9,1.9,18.0
1592127360000,1.8856,1.85,1.8871,1.85,30.66896537
1592127420000,1.8871,1.887,1.8871,1.887,22.0
1592236740000,1.63,1.6232,1.6301,1.6232,45.99619662
1592238720000,1.64,1.64,1.64,1.64,6.94458449
1592239320000,1.64,1.64,1.64,1.64,2.08259424
1592243520000,1.6401,1.6401,1.6401,1.6401,2.6642521
1592276520000,1.6096,1.6096,1.6096,1.6096,2.01338407
1592286300000,1.7499,1.7499,1.7499,1.7499,4.15924064
1592287380000,1.6097,1.6027,1.6097,1.6027,17.932010199999993
1592344920000,1.8499,1.9,1.9,1.8499,149.87
1592358720000,1.9117,1.998,1.998,1.9117,199.04009431
1592360280000,1.998,1.998,1.998,1.998,32.0
1592441100000,1.912,1.912,1.912,1.912,0.95990569
1592600040000,1.9,1.9,1.9,1.9,3.0
1592732460000,1.6127,1.6127,1.6127,1.6127,11.0
1592976180000,1.8831,1.9,1.9,1.8831,29.392629
1592976360000,1.9759,1.998,1.998,1.9759,127.6833
1592980380000,1.998,1.998,1.998,1.998,110.0
1593033960000,1.6701,1.3262,1.6701,1.3262,189.07659432
1593034020000,1.9657,1.9979,1.9979,1.9657,138.24774200000002
1593073680000,1.336,1.32,1.336,1.32,156.761777
1593074760000,1.9889,1.9889,1.9889,1.9889,2.0
1593178800000,1.4161,1.3788,1.4161,1.3788,148.07137041
1593183000000,1.4119,1.3507,1.4119,1.3507,148.07137041
1593245700000,1.42,1.42,1.42,1.42,2.795664
1593256800000,1.4009,1.4009,1.4009,1.4009,142.76536513
1593257700000,1.4073,1.4073,1.4073,1.4073,36.70798967
1593422640000,1.45,1.45,1.45,1.45,8.899650999999997
1593431520000,1.45,1.45,1.45,1.45,30.0
1593714960000,1.8454,1.8454,1.8454,1.8454,2.0
1593738720000,1.8444,1.8444,1.8444,1.8444,13.46911415
1593741120000,1.8444,1.88,1.88,1.8444,60.41013363
1593801480000,1.859,1.859,1.859,1.859,2.0
1593803640000,1.58,1.5552,1.58,1.5552,38.6255751
1593912900000,1.5565,1.5565,1.5565,1.5565,31.05754596
1593963720000,1.5565,1.556,1.5565,1.556,15.87638704
1593965760000,1.5844,1.5844,1.5844,1.5844,10.0
1593965820000,1.5844,1.5829,1.5844,1.5298,140.0
1593965880000,1.5829,1.5969,1.5969,1.5829,120.0
1593967320000,1.6113,1.6113,1.6113,1.6113,2.0
1594019460000,1.45,1.45,1.45,1.45,11.646284
1594023000000,1.6327,1.6327,1.6327,1.6327,2.0
1594038480000,1.654,1.6967,1.6967,1.654,5.5
1594071120000,1.6,1.5779,1.6,1.5779,20.0
1594195320000,1.5433,1.5433,1.5433,1.5433,19.43886477
1594204080000,1.8063,1.8063,1.8063,1.8063,2.0
1594299840000,1.72,1.7981,1.7981,1.72,81.99260600000002
1594336440000,1.55,1.55,1.55,1.55,12.29343938
1594403220000,1.79,1.7981,1.7981,1.79,30.0
1594405200000,1.5553,1.55,1.5553,1.55,29.94
1594406160000,1.7945,1.7981,1.7981,1.7945,30.0
1594408500000,1.5665,1.56,1.5665,1.56,29.94
1594408740000,1.7894,1.7894,1.7894,1.7894,30.0
1594408860000,1.5713,1.5713,1.5713,1.5713,29.94
1594417800000,1.5713,1.5713,1.5713,1.5713,2.80378341
1594428000000,1.7894,1.7894,1.7894,1.7894,20.0
1594428060000,1.7894,1.996,1.996,1.7894,322.09161271
1594428120000,1.9253,1.996,1.996,1.9253,12.0
1594429500000,1.85,1.85,1.85,1.85,45.79061895
1594432860000,1.9921,1.996,1.996,1.9921,11.26455138
1594434480000,1.85,1.85,1.85,1.85,3.42558447
1594515600000,1.85,1.85,1.85,1.85,26.82855962
1594515660000,1.85,1.85,1.85,1.85,47.18453676
1594653660000,1.6082,1.4545,1.6082,1.4545,515.3786150000002
1594864200000,1.76,1.76,1.76,1.76,7.0
1594864260000,1.76,1.8233,1.8233,1.76,57.0
1594892760000,1.8064,1.8064,1.8064,1.8064,2.8496
1595068740000,1.57,1.5332,1.57,1.5279,106.41229631
1595069100000,1.5226,1.5174,1.5226,1.5174,15.64310158
1595100960000,1.5205,1.5121,1.5205,1.5121,31.936259999999997
1595211960000,1.5121,1.5068,1.5121,1.5068,26.90290181
1595212200000,1.5016,1.4963,1.5016,1.4963,37.3424576
1595212320000,1.4963,1.4963,1.4963,1.4963,3.55746134
1595212500000,1.4911,1.4858,1.4911,1.4858,45.28205312
1595212560000,1.4826,1.4753,1.4826,1.4753,55.63926833
1595212620000,1.47,1.47,1.47,1.47,72.76859617
1595367960000,1.6,1.6,1.6,1.6,2.0
1595384580000,1.5016,1.47,1.5016,1.47,19.89795918
1595440800000,1.5901,1.6214,1.6214,1.5901,7.0
1595503800000,1.7699,1.77,1.77,1.7699,120.0
1595504280000,1.77,1.77,1.77,1.77,90.0
1595509920000,1.77,1.77,1.77,1.77,77.0
1595618940000,1.66,1.66,1.66,1.66,2.0
1595638140000,1.6774,1.7468,1.7468,1.6774,12.47695125
1595731200000,1.7642,1.7642,1.7642,1.7642,4.0
1595736600000,1.4911,1.4911,1.4911,1.4911,3.73542013
1595745660000,1.7372,1.7816,1.7816,1.7372,62.0
1595885760000,1.66,1.66,1.66,1.66,100.0
1595886420000,1.66,1.66,1.66,1.66,12.58301261
1595886900000,1.66,1.66,1.66,1.66,31.98645509
1595887620000,1.66,1.66,1.66,1.66,2.00718806
1595900640000,1.594,1.594,1.594,1.594,11.79073499
1595903280000,1.66,1.66,1.66,1.66,21.7884292
1595919540000,1.5593,1.5593,1.5593,1.5593,6.494614
1596095820000,1.9252,1.9252,1.9252,1.9252,2.0
1596256980000,1.9795,1.9795,1.9795,1.9795,2.0
1596703260000,1.67,1.67,1.67,1.67,71.85600000000002
1596708960000,1.6156,1.5924,1.6156,1.5924,15.30396527
1596719820000,1.7,1.7,1.7,1.7,2.994066
1596720420000,1.5926,1.5926,1.5926,1.5926,6.7982224
1596733260000,1.941,1.941,1.941,1.941,2.0
1596772920000,1.9664,1.9664,1.9664,1.9664,2.18
1596793740000,1.9828,1.996,1.996,1.9828,15.71695
1596807900000,1.8,1.8,1.8,1.8,36.0
1596813060000,1.9,1.9,1.9,1.9,16.92432872
1596817320000,1.9,1.9516,1.9516,1.9,3.0
1596823620000,1.781,1.781,1.781,1.781,14.08966077
1596830340000,1.88,1.88,1.88,1.88,17.66960328
1596864480000,1.88,1.88,1.88,1.88,2.0
1596865080000,1.88,1.88,1.88,1.88,9.828772
1596865140000,1.88,1.88,1.88,1.88,6.46562472
1596940080000,1.82,1.781,1.82,1.781,10.64427109
1597029900000,1.7825,1.7825,1.7825,1.7825,3.91501608
1597040160000,1.7819999999999998,1.7819999999999998,1.7819999999999998,1.7819999999999998,4.08511451
1597135260000,1.9876,1.996,1.996,1.9876,9.1
1597153140000,1.85,1.82,1.85,1.82,21.60281292
1597162440000,1.82,1.82,1.82,1.82,5.0
1597222200000,1.825,1.825,1.825,1.825,20.05
1597292460000,1.9955,2.0,2.0,1.9955,40.10045984
1597292520000,2.3356,2.4136,2.4136,2.3356,30.0
1597296900000,2.3819,2.3819,2.3819,2.3819,9.97040558
1597332720000,2.25,2.25,2.25,2.25,6.991122
1597348200000,2.15,2.15,2.15,2.15,3.80365297
1597363980000,2.46,2.46,2.46,2.46,2.0
1597381260000,2.46,2.5,2.5,2.46,13.0
1597383480000,2.7642,2.7642,2.7642,2.7642,2.0
1597384320000,2.7642,2.7642,2.7642,2.7642,14.913985999999998
1597384440000,2.9760000000000004,2.9760000000000004,2.9760000000000004,2.9760000000000004,20.0
1597384560000,2.9760000000000004,2.9760000000000004,2.9760000000000004,2.9760000000000004,12.0
1597384620000,2.9760000000000004,2.9760000000000004,2.9760000000000004,2.9760000000000004,8.690226
1597385040000,2.9760000000000004,3.5,3.5,2.9760000000000004,88.55300799999998
1597387380000,2.5658,2.5658,2.5658,2.5658,2.38
1597397340000,2.82,2.82,2.82,2.82,5.0
1597398240000,2.88,2.88,2.88,2.88,33.508219
1597399800000,2.98,2.98,2.98,2.98,1.491781
1597400160000,3.0564,3.0564,3.0564,3.0564,4.00111856
1597403220000,3.2,3.2,3.2,3.2,20.0
1597404900000,3.0,3.0,3.0,3.0,3.5082190000000004
1597409580000,3.4,3.4,3.4,3.4,2.0
1597415820000,3.0,3.0,3.0,3.0,5.000807
1597415880000,3.0,3.0,3.0,3.0,3.0
1597418820000,3.0,3.0,3.0,3.0,11.999193
1597439640000,2.5821,2.46,2.5821,2.46,61.82449587
1597483680000,2.5095,2.46,2.5095,2.46,20.02995
1597486020000,3.2611,3.4,3.4,3.2611,51.95557184000001
1597515180000,3.3193,4.0,4.0,3.3193,128.38499869999998
1597515240000,3.9024,5.0,5.0,3.9024,50.42652547
1597526160000,4.243,4.45,4.45,4.243,11.168629
1597531620000,4.4,4.4,4.4,4.4,23.728721
1597531800000,4.4,4.45,4.45,4.4,31.089
1597563900000,2.7532,2.7532,2.7532,2.7532,10.0
1597622460000,4.2,4.25,4.25,4.2,12.0
1597624140000,4.25,4.4086,4.4086,4.25,3.80700595
1597633560000,2.8126,2.77,2.8126,2.77,13.457781
1597655460000,4.2354,4.2354,4.2354,4.2354,9.0
1597670880000,4.34,4.34,4.34,4.34,3.33929863
1597675020000,2.8364,2.8364,2.8364,2.8364,9.396594
1597724820000,3.11,3.11,3.11,3.11,43.659411
1597726440000,3.11,3.11,3.11,3.11,137.784896
1597728120000,3.11,4.4086,4.4086,3.11,68.405693
1597728180000,4.2315,4.44,4.44,4.2315,30.67284101
1597728240000,4.7468,4.949,4.949,4.7468,8.0
1597732740000,4.44,2.7532,4.44,2.7532,5.0
1597737480000,4.0,4.0,4.0,4.0,2.1
1597737540000,4.0,4.0,4.0,4.0,0.86500091
1597797360000,4.05,4.05,4.05,4.05,2.49
1597823340000,4.3908,4.8888,4.8888,4.3908,6.994
1597823400000,4.8888,4.9,4.9,4.8888,52.0
1597823460000,4.9,5.0,5.0,4.9,50.0
1597824240000,4.0,4.0,4.0,4.0,2.0
1597824360000,4.0,3.5591,4.0,3.5591,21.592436
1597840080000,4.987,5.3,5.3,4.987,233.6683295
1597841760000,5.1854,5.1854,5.1854,5.1854,18.259224
1597844040000,5.2971,5.2971,5.2971,5.2971,3.0
1597846860000,5.3095,5.3095,5.3095,5.3095,2.0
1597847580000,5.145,5.145,5.145,5.145,8.982000000000003
1597852980000,5.7782,5.1088,5.8,5.104,10.01970704
1597853040000,5.8,5.8,5.8,5.2,24.00902719
1597853820000,6.0244,6.0244,6.0244,6.0244,2.0
1597855620000,5.2,5.1031,5.2,5.1031,39.14549176
1597877460000,5.1031,5.1031,5.1031,5.1031,9.0
1597928160000,6.1885,6.1885,6.1885,6.1885,2.0
1597961520000,5.1483,5.1483,5.1483,5.1483,5.0
1597968000000,5.1483,5.1483,5.1483,5.1483,4.0
1598002080000,5.3,5.136,5.3,5.136,22.0
1598002860000,5.285,5.285,5.285,5.285,4.78242
1598006880000,5.1081,5.0,5.1081,5.0,51.28000064
1598006940000,5.0,5.0,5.0,5.0,33.75001203
1598023620000,5.8208,5.8208,5.8208,5.8208,2.0
1598063460000,6.1804,6.2977,6.2977,6.1804,30.69696742
1598063520000,6.2977,6.2977,6.2977,6.2977,14.0
1598063580000,6.2977,6.3123,6.3123,6.2977,28.0
1598063700000,6.0957,6.0957,6.0957,6.0957,14.0
1598063880000,6.2181,6.5,6.5,6.2181,42.0
1598064300000,6.5,6.5,6.5,6.3537,60.0
1598065140000,6.49,6.49,6.49,6.49,73.176817
1598066220000,6.49,6.49,6.49,6.49,50.0
1598067060000,6.49,6.49,6.49,6.49,251.488378
1598067240000,6.5,5.7069,7.0,5.7069,249.10996036
1598067300000,6.8077,7.85,7.85,6.8077,504.2078515
1598067720000,7.9041,8.0,8.0,7.9041,77.50894034
1598067780000,8.0,8.5,8.5,8.0,77.43934046
1598067840000,8.9,8.9,8.9,8.9,70.0
1598067900000,8.999,9.99,9.99,8.999,150.43980334
1598068140000,9.99,9.99,9.99,9.99,424.478504
1598068320000,9.8,9.99,9.99,9.8,229.46872
1598068680000,9.99,9.99,9.99,9.99,42.25129576000001
1598068800000,9.99,9.99,9.99,9.99,269.736453
1598068920000,9.6297,9.99,9.99,9.6297,378.041746
1598075040000,8.5,8.5,8.5,8.5,18.23
1598075100000,8.5,8.5,8.5,8.5,1.77
1598077980000,7.0,6.666,7.0,6.666,12.52776782
1598078040000,6.666,6.666,6.666,6.666,5.7970000000000015
1598081820000,9.99,9.99,9.99,9.99,5.45468129
1598082480000,10.936,10.936,10.936,10.936,3.0
1598083560000,10.0,10.0,10.0,10.0,7.54531871
1598087460000,8.8,8.8,8.8,8.8,2.44468129
1598097300000,11.5,11.556,11.556,11.5,2.97154503
1598097480000,9.0,9.0,9.0,9.0,2.95
1598097600000,10.7,10.7,10.7,10.7,2.12154503
1598097660000,10.521,10.521,10.521,10.521,3.76908
1598098860000,12.078,18.76,18.76,12.078,133.80975700000002
1598099160000,9.2125,9.0,9.2125,9.0,5.0
1598099820000,17.836,7.4051,17.836,7.4051,135.54213700000003
1598099880000,7.7706,7.4051,7.7706,7.4051,30.39851189
1598100420000,7.7844,7.6,7.7844,7.6,7.73823331
1598112780000,9.5,10.042,10.042,9.5,11.72075352
1598115240000,9.8542,10.0,10.0,9.8542,16.227843
1598117280000,10.3,10.3,10.3,10.3,2.2
1598130660000,10.0,10.0,10.0,10.0,10.0
1598130720000,10.0,10.0,10.0,10.0,7.78
1598133600000,8.187000000000001,8.187000000000001,8.187000000000001,8.187000000000001,2.0
1598152980000,8.3,8.3,8.3,8.3,2.44513852
1598164800000,8.3556,8.3556,8.3556,8.3556,10.0
1598164920000,8.3,8.3,8.3,8.3,13.0
1598165220000,8.3,8.3,8.3,8.3,17.758085
1598192940000,8.88,8.88,8.88,8.88,10.0
1598193240000,8.3685,8.3685,8.3685,8.3685,3.9
1598269440000,8.5,8.5,8.5,8.5,2.0
1598305020000,8.3,8.3,8.3,8.3,2.249346
1598313420000,8.3,8.3,8.3,8.3,36.49872431
1598313840000,8.3,8.3,8.3,8.3,1.25192969
1598314560000,8.3183,8.3183,8.3183,8.3183,2.23002354
1598342340000,7.75,7.75,7.75,7.75,3.028952
1598345820000,7.7,7.7,7.7,7.7,40.0
1598345940000,7.7,7.7,7.7,7.7,6.87
1598373000000,8.3,8.3,8.3,8.3,2.0
1598380200000,8.0,8.0,8.0,8.0,13.11669
1598452320000,7.9998,7.9998,7.9998,7.9998,2.1
1598609880000,7.8,7.8,7.8,7.8,2.0
1598619300000,7.8151,7.9499,7.9499,7.8151,54.929149
1598738640000,6.2917,6.2917,6.2917,6.2917,3.4019459000000003
1598808540000,6.106,6.0381,6.106,6.0381,7.0
1598875680000,6.132999999999999,6.132999999999999,6.132999999999999,6.132999999999999,3.0
1598998440000,7.4083,7.4571,7.4571,7.4083,25.030056
1598998500000,7.4571,7.769,7.769,7.4571,10.0
1599013380000,7.745,7.77,7.77,7.745,12.28603406
1599047520000,5.7879999999999985,5.787000000000001,5.7879999999999985,5.787000000000001,24.0
1599048600000,5.1811,4.25,5.1811,4.25,499.41251244
1599048660000,3.666,3.666,3.666,3.666,18.649112
1599048720000,3.1553,3.01,3.1553,3.01,49.78722349
1599050820000,4.9097,5.0,5.0,4.9097,45.0
1599050940000,5.0,5.0,5.0,5.0,20.0
1599051300000,5.0,5.0,5.0,5.0,20.0
1599051480000,4.04,4.04,4.04,4.04,3.998511
1599051600000,3.56,3.0,3.56,3.0,201.81815
1599063060000,4.987,4.987,4.987,4.987,2.0
1599094020000,3.6617,3.5,3.6617,3.5,26.05114045
1599094620000,3.3,3.1,3.3,3.1,15.0
1599098820000,3.2364,3.1,3.2364,3.1,16.21327507
1599110880000,4.977,4.977,4.977,4.977,20.0
1599112440000,3.1206,3.01,3.1206,3.01,68.0
1599149040000,3.33,3.33,3.33,3.33,23.286666
1599156480000,3.5,3.5,3.5,3.5,11.45960963
1599157560000,3.6414,3.6414,3.6414,3.6414,5.25096525
1599158100000,3.75,3.75,3.75,3.75,2.11703013
1599158280000,3.75,3.75,3.75,3.75,6.85714286
1599166020000,4.8783,4.977,4.977,4.8783,20.985
1599170040000,4.957,4.957,4.957,4.957,6.7
1599213060000,3.55,3.55,3.55,3.55,2.0958
1599324360000,3.2476,3.2476,3.2476,3.2476,4.995
1599368580000,3.3,3.2278,3.3,3.2278,46.5196608
1599368640000,3.1894,3.1,3.1894,3.1,20.62530881
1599368700000,3.0517,3.0,3.0517,3.0,7.8221742
1599368760000,2.252,2.2479,2.252,2.2479,48.92470762
1599426360000,4.5218,4.68,4.68,4.5218,50.1
1599456240000,4.6387,4.6387,4.6387,4.6387,2.994035
1599458280000,4.3,4.3,4.3,4.3,2.68025349
1599467640000,4.2643,4.2643,4.2643,4.2643,2.49697251
1599486000000,4.2643,4.2643,4.2643,4.2643,1.25718969
1599506760000,3.9851,3.9851,3.9851,3.9851,2.52
1599508680000,3.9851,3.9851,3.9851,3.9851,2.18579353
1599516840000,3.9449,3.9449,3.9449,3.9449,5.7574693
1599537000000,3.985,3.985,3.985,3.985,2.0
1599551760000,3.7174,3.6612,3.7174,3.6612,14.20479927
1599580200000,3.4573,3.3414,3.4573,3.3414,17.599972389999994
1599580260000,2.8074,2.6902,2.8074,2.6902,17.59813165
1599585180000,3.9038,3.985,3.985,3.9038,12.375331
1599669840000,3.9,3.9851,3.9851,3.9,71.62969761
1599669960000,4.2283,4.29,4.29,4.2283,16.710151999999994
1599825480000,3.4584,3.33,3.4584,3.33,45.71337685
1599825660000,3.33,3.33,3.33,3.33,3.84244569
1599825780000,3.3,3.3,3.3,3.3,15.0
1599827700000,3.5,3.5,3.5,3.5,15.44417746
1600170000000,2.7196,2.7196,2.7196,2.7196,3.990514
1600182240000,4.27,4.27,4.27,4.27,25.0
1600379400000,2.7281,2.6,2.7281,2.6,27.867289000000003
1600456020000,2.7184,2.7184,2.7184,2.7184,2.064307
1600456740000,2.7,2.7,2.7,2.7,6.02139569
1600789320000,4.0675,4.2534,4.2534,4.0675,30.0
1600789620000,4.2534,4.2829,4.2829,4.2534,10.0
1601044200000,3.4014,2.707,3.4014,2.707,56.0
1601477640000,2.73,2.7101,2.73,2.7101,9.87066409
1601557740000,2.9999,2.9999,2.9999,2.9999,1.00200401
1601557860000,2.9999,2.9999,2.9999,2.9999,0.19799599
1602049260000,2.65,2.65,2.65,2.65,11.917588
1602504300000,3.8329,3.8329,3.8329,3.8329,12.0
1602543360000,3.6325,3.6325,3.6325,3.6325,1.05285323
1602545100000,3.6102,3.6102,3.6102,3.6102,7.74431015
1602546960000,2.7956,2.7956,2.7956,2.7956,1.05180038
1602551760000,3.7322,3.7322,3.7322,3.7322,0.8
1602551880000,3.6199,3.6199,3.6199,3.6199,0.8
1602558600000,3.7633,3.7633,3.7633,3.7633,1.68992849
1602595320000,3.5062,3.5062,3.5062,3.5062,0.8
1602597300000,3.6966,3.7993,3.7993,3.6966,7.01453766
1602653820000,3.3036,3.3036,3.3036,3.3036,1.0
1603233240000,3.1463,2.9242,3.1463,2.9242,1.6
1603233300000,2.754,2.71,2.754,2.71,8.38
1603399500000,3.0298,3.0298,3.0298,3.0298,0.9
1603500780000,3.0041,3.0041,3.0041,3.0041,2.451546
1603524900000,3.799,3.799,3.799,3.799,0.65
1603553640000,3.799,3.8,3.8,3.799,4.046
1603554000000,3.8,3.8,3.8,3.8,3.434531
1603569240000,3.75,3.75,3.75,3.75,4.9483943
1603578720000,3.97,3.9983,3.9983,3.97,11.41802295
1603594860000,3.9983,4.0,4.0,3.9983,3.02775314
1603597320000,4.0,4.0,4.0,4.0,2.2261822
1603711440000,4.0,4.0,4.0,4.0,2.489175
1603711500000,4.0,4.0,4.0,4.0,3.442486
1603711560000,4.0,4.0,4.0,4.0,6.577763
1603725180000,4.0,4.0,4.0,4.0,3.0
1604138100000,3.9999,4.0,4.0,3.9999,7.85723589
1604358180000,3.8059,3.99,3.99,3.8059,20.0
1604408100000,3.8652,3.8652,3.8652,3.8652,5.0
1604526480000,3.9701,3.99,3.99,3.9701,36.43864496
1604526660000,3.99,3.99,3.99,3.99,1.0
1604559360000,3.99,4.0,4.0,3.99,10.0
1604608200000,3.138,3.138,3.138,3.138,0.6
1604608260000,3.3,3.3,3.3,3.3,0.61
1604659560000,3.4124,3.343,3.4124,3.343,4.75273331
1604800440000,3.97,4.0,4.0,3.97,4.93493595
1604800560000,4.0,4.231,4.231,4.0,11.0
1604818200000,4.0,4.0,4.0,4.0,10.0
1605613920000,4.13,4.13,4.13,4.13,2.524686
1605617040000,4.24,4.24,4.24,4.24,3.73
1605628380000,4.3,4.3,4.3,4.3,2.0
1605628440000,4.3025,4.3025,4.3025,4.3025,0.64098837
1606037100000,4.0,4.0,4.0,4.0,1.0
1606037280000,3.5602,3.3110000000000004,3.5602,3.3110000000000004,25.54850601
1606197480000,3.4406,3.4406,3.4406,3.4406,1.89445876
1606203660000,4.537,4.537,4.537,4.537,1.44
1606208820000,4.537,4.537,4.537,4.537,7.73188867
1606218120000,4.4581,4.4581,4.4581,4.4581,0.7800159999999999
1606218180000,4.35,4.35,4.35,4.35,0.7800159999999999
1606221480000,4.4733,4.4733,4.4733,4.4733,0.6
1606227780000,4.35,4.35,4.35,4.35,0.01
1606414800000,3.3110000000000004,3.3,3.3110000000000004,3.3,207.0
1606465740000,4.088,4.088,4.088,4.088,1.0
1606465800000,4.07,4.07,4.07,4.07,34.93
1606558860000,4.057,4.057,4.057,4.057,33.02
1606558920000,4.057,4.057,4.057,4.057,4.68275454
1606561980000,4.057,4.3,4.3,4.057,36.68407087
1606596840000,3.7,3.7,3.7,3.7,3.26486688
1606596900000,3.2728,3.2541,3.2728,3.2541,32.0
1606597260000,3.2541,3.2541,3.2541,3.2541,1.46890574
1606603800000,3.1367,3.1367,3.1367,3.1367,46.88557832
1606607100000,3.2104,3.2104,3.2104,3.2104,27.96947906
1606638900000,4.1087,4.1087,4.1087,4.1087,0.635191
1606658280000,3.23,3.23,3.23,3.23,48.9
1606659000000,3.23,3.2104,3.23,3.2104,113.0
1606663440000,3.2108,3.2104,3.2108,3.2104,119.43299999999999
1606663440000,3.2108,3.2104,3.2108,3.2104,119.43299999999999
1606688340000,3.3,3.2106,3.3,3.2104,148.46423782
1606715040000,4.07,4.0936,4.0936,4.07,3.11468261
1606723980000,3.2107,3.9893,3.9893,3.2104,71.11487665
1606726980000,3.3331,3.2604,3.3331,3.2604,20.41623154
1606865100000,3.283,3.2611,3.283,3.2611,4.60520528
1607165880000,3.1663,3.1663,3.1663,3.1663,0.9
1607366100000,3.0418,3.0418,3.0418,3.0418,2.30726651
1607455380000,3.3744,3.3745,3.3745,3.3744,18.0
1607535120000,2.9421,2.9421,2.9421,2.9421,1.92786165
1607557080000,2.9196,2.9196,2.9196,2.9196,1.20792387
1607593380000,2.8997,2.8,2.8997,2.8,41.88780156
1607648520000,2.8,2.8,2.8,2.8,119.76
1607714280000,2.8,2.8,2.8,2.8,73.509656
1607796420000,3.2344,3.35,3.35,3.2344,51.09920628
1607796480000,3.4123,3.5,3.5,3.4123,47.91938931
1607796540000,3.8286,4.0,4.0,3.8286,53.31849723
1607796600000,4.0092,4.35,4.35,4.0092,105.29724225
1607799300000,3.1911,3.05,3.1911,3.05,25.17333623
1607799300000,3.1911,3.05,3.1911,3.05,25.17333623
1607799300000,3.1911,3.05,3.1911,3.05,25.17333623
1607799300000,3.1911,3.05,3.1911,3.05,25.17333623
1607799300000,3.1911,3.05,3.1911,3.05,25.17333623
1607799300000,3.1911,3.05,3.1911,3.05,25.17333623
1607799300000,3.1911,3.05,3.1911,3.05,25.17333623
