time,open,close,high,low,volume
1607599020000,9.4872,9.4872,9.4872,9.4872,6.0
1607599620000,9.2898,9.2898,9.2898,9.2898,0.00120188
1607600040000,9.2919,9.3012,9.3012,9.2919,8.32494052
1607600580000,9.2746,9.2746,9.2746,9.2746,0.00128937
1607601180000,9.2807,9.2807,9.2807,9.2807,0.00102718
1607601660000,9.2716,9.2791,9.2791,9.2716,0.00224785
1607601720000,9.3077,9.3077,9.3077,9.3077,1.72521674
1607602140000,9.3099,9.3099,9.3099,9.3099,0.12764247
1607602680000,9.3719,9.3719,9.3719,9.3719,0.00105562
1607603280000,9.3495,9.3495,9.3495,9.3495,0.00112013
1607603880000,9.2892,9.2892,9.2892,9.2892,0.00129222
1607604360000,9.3138,9.3138,9.3138,9.3138,0.00115264
1607604960000,9.3254,9.3254,9.3254,9.3254,0.00120781
1607605500000,9.2784,9.2784,9.2784,9.2784,0.00124938
1607605620000,9.2724,9.2651,9.2724,9.2651,65.28133373
1607605920000,9.2632,9.27,9.27,9.2625,391.38038122
1607606280000,9.25,9.25,9.25,9.25,544.160093
1607606760000,9.2592,9.2592,9.2592,9.2592,0.00113895
1607606820000,9.2197,9.2197,9.2197,9.2197,0.00119612
1607607000000,9.2297,9.2297,9.2297,9.2297,0.00701407
1607607540000,9.2609,9.2609,9.2609,9.2609,0.00112681
1607608080000,9.203,9.203,9.203,9.203,0.00107359
1607608620000,9.2297,9.2297,9.2297,9.2297,0.00117049
1607609100000,9.1882,9.1882,9.1882,9.1882,0.0064601
1607609220000,9.187000000000001,9.187000000000001,9.187000000000001,9.187000000000001,0.01733006
1607609340000,9.187000000000001,9.187000000000001,9.187000000000001,9.187000000000001,6.16633694
1607609880000,9.1696,9.1309,9.1696,9.1309,0.00211598
1607610360000,9.1679,9.1679,9.1679,9.1679,0.00113693
1607610960000,9.1429,9.1429,9.1429,9.1429,0.00127574
1607611200000,9.1137,9.1137,9.1137,9.1137,0.00870225
1607611260000,9.0908,9.0908,9.0908,9.0908,0.08475346
1607611800000,9.1478,9.1478,9.1478,9.1478,0.0011797
1607612400000,9.1428,9.1428,9.1428,9.1428,0.00108943
1607612940000,9.0991,9.0991,9.0991,9.0991,0.16805538
1607613540000,9.0391,9.0391,9.0391,9.0391,0.00106157
1607614020000,9.1157,9.1157,9.1157,9.1157,0.00118978
1607614080000,9.0731,9.0731,9.0731,9.0731,0.00128669
1607614620000,9.1735,9.1735,9.1735,9.1735,0.00118356
1607614680000,9.1443,9.1443,9.1443,9.1443,0.00116743
1607614980000,9.1783,9.1783,9.1783,9.1783,0.14519589
1607615580000,9.2287,9.2287,9.2287,9.2287,0.00107537
1607616060000,9.2293,9.2293,9.2293,9.2293,0.00105772
1607616180000,9.2113,9.2113,9.2113,9.2113,0.4502387
1607616540000,9.2245,9.2245,9.2245,9.2245,0.10670794
1607617080000,9.288,9.288,9.288,9.288,0.00100179
1607617620000,9.2894,9.2894,9.2894,9.2894,0.00107937
1607618220000,9.3025,9.3025,9.3025,9.3025,0.00122043
1607618700000,9.2683,9.2683,9.2683,9.2683,0.34338439
1607619180000,9.3451,9.3451,9.3451,9.3451,0.00118424
1607619720000,9.3373,9.3373,9.3373,9.3373,0.00112267
1607620260000,9.287,9.287,9.287,9.287,0.00121352
1607620800000,9.2746,9.2746,9.2746,9.2746,0.00111637
1607621280000,9.2798,9.2387,9.2798,9.2387,0.00237128
1607621880000,9.2917,9.2917,9.2917,9.2917,0.00101913
1607622240000,9.289,9.289,9.289,9.289,0.01237156
1607622660000,9.2829,9.2829,9.2829,9.2829,0.16278615
1607623140000,9.3356,9.3356,9.3356,9.3356,0.00129102
1607623680000,9.337,9.337,9.337,9.337,0.0010335999999999998
1607624220000,9.3545,9.3114,9.3545,9.3114,0.002372
1607624820000,9.3224,9.3224,9.3224,9.3224,0.00120884
1607625420000,9.2801,9.2801,9.2801,9.2801,0.00125158
1607625960000,9.2769,9.2769,9.2769,9.2769,0.00125129
1607626560000,9.2996,9.2996,9.2996,9.2996,0.00116408
1607627100000,9.2887,9.2887,9.2887,9.2887,0.00105951
1607627700000,9.2901,9.2901,9.2901,9.2901,0.00111403
1607628300000,9.2854,9.2854,9.2854,9.2854,0.00126643
1607628840000,9.2769,9.2365,9.2769,9.2365,0.00209133
1607629380000,9.243,9.243,9.243,9.243,0.00102668
1607629980000,9.2776,9.2776,9.2776,9.2776,0.00124362
1607630400000,9.2376,9.2376,9.2376,9.2376,0.16853953
1607630880000,9.2916,9.2916,9.2916,9.2916,0.0012635
1607631420000,9.2937,9.2937,9.2937,9.2937,0.00103873
1607631480000,9.2495,9.2495,9.2495,9.2495,0.00123528
1607631720000,9.2451,9.2451,9.2451,9.2451,0.040463599999999995
1607632320000,9.2831,9.2831,9.2831,9.2831,0.00117089
1607632800000,9.2808,9.2808,9.2808,9.2808,0.0012485999999999999
1607633340000,9.2889,9.2889,9.2889,9.2889,0.00125249
1607633820000,9.2951,9.2951,9.2951,9.2951,0.0012415999999999998
1607633880000,9.2552,9.2552,9.2552,9.2552,0.00114782
1607634360000,9.2617,9.2617,9.2617,9.2617,0.00518774
1607634960000,9.3189,9.3189,9.3189,9.3189,0.00121656
1607635020000,9.2765,9.2765,9.2765,9.2765,0.00109333
1607635560000,9.323,9.323,9.323,9.323,0.00100801
1607636040000,9.2889,9.2889,9.2889,9.2889,0.00125694
1607636640000,9.2837,9.2837,9.2837,9.2837,0.0012159
1607637180000,9.2926,9.2926,9.2926,9.2926,0.00108736
1607637720000,9.267999999999999,9.267999999999999,9.267999999999999,9.267999999999999,0.00122141
1607638200000,9.267999999999999,9.2292,9.267999999999999,9.2292,0.00227509
1607638800000,9.2861,9.2861,9.2861,9.2861,0.00108816
1607639280000,9.2291,9.2291,9.2291,9.2291,20.0
1607639820000,9.2158,9.2158,9.2158,9.2158,0.00109873
1607640360000,9.2151,9.2151,9.2151,9.2151,0.00110133
1607640960000,9.1986,9.1986,9.1986,9.1986,0.00123776
1607641500000,9.1779,9.1779,9.1779,9.1779,0.0012429000000000001
1607642100000,9.189,9.189,9.189,9.189,0.00107382
1607642580000,9.2096,9.171,9.2096,9.171,0.00230014
1607643120000,9.1971,9.1971,9.1971,9.1971,0.00103892
1607643360000,9.1493,9.1493,9.1493,9.1493,0.008798700000000001
1607643900000,9.1801,9.1801,9.1801,9.1801,0.0011443
1607644440000,9.17,9.17,9.17,9.17,0.00113095
1607644980000,9.1681,9.1681,9.1681,9.1681,0.0011292
1607645100000,9.117,9.117,9.117,9.117,0.020830500000000002
1607645640000,9.0981,9.0981,9.0981,9.0981,0.00122899
1607645940000,9.0746,9.0746,9.0746,9.0746,0.10871264
1607646300000,9.0977,9.0977,9.0977,9.0977,0.09525787
1607646900000,9.0815,9.0815,9.0815,9.0815,0.0012619999999999999
1607647380000,9.0579,9.0579,9.0579,9.0579,0.00121202
1607647920000,9.0268,9.0268,9.0268,9.0268,0.00102866
1607648040000,9.0,9.0,9.0,9.0,10.0
1607648640000,8.9063,8.9063,8.9063,8.9063,0.0012064999999999999
1607649180000,8.921,8.921,8.921,8.921,0.11583067
1607649780000,8.9173,8.9173,8.9173,8.9173,0.00119828
1607650260000,8.8478,8.8478,8.8478,8.8478,0.00116406
1607650740000,8.8397,8.8397,8.8397,8.8397,0.00119082
1607650800000,8.8015,8.8015,8.8015,8.8015,0.00119012
1607651340000,8.8632,8.8632,8.8632,8.8632,0.0011897000000000001
1607651580000,8.8094,8.8094,8.8094,8.8094,0.19986803
1607652120000,8.8592,8.8592,8.8592,8.8592,0.00114224
1607652300000,8.8704,8.8704,8.8704,8.8704,0.02102947
1607652600000,8.8336,8.8336,8.8336,8.8336,0.18728246
1607652900000,8.8705,8.8705,8.8705,8.8705,0.01153147
1607653500000,8.8694,8.8694,8.8694,8.8694,0.00119119
1607653980000,8.8895,8.8895,8.8895,8.8895,0.00113967
1607654520000,8.9057,8.9057,8.9057,8.9057,0.0012132999999999998
1607655120000,8.9143,8.9143,8.9143,8.9143,0.00106792
1607655660000,8.9228,8.9228,8.9228,8.9228,0.00120934
1607655720000,8.8921,8.8921,8.8921,8.8921,0.01013435
1607655840000,8.8717,8.8717,8.8717,8.8717,0.17059632
1607656440000,8.8538,8.8538,8.8538,8.8538,0.00128447
1607656680000,8.8313,8.8313,8.8313,8.8313,0.21869085
1607657220000,8.8808,8.8808,8.8808,8.8808,0.00115022
1607657760000,8.8947,8.8947,8.8947,8.8947,0.00116255
1607657820000,8.8599,8.8599,8.8599,8.8599,0.00108862
1607658360000,8.9327,8.9327,8.9327,8.9327,0.00123168
1607658840000,8.9536,8.9536,8.9536,8.9536,0.00125865
1607659440000,8.9497,8.9497,8.9497,8.9497,0.00113144
1607659500000,8.9156,8.9156,8.9156,8.9156,0.00115126
1607660100000,8.9674,8.9674,8.9674,8.9674,0.00122594
1607660700000,8.9765,8.9411,8.9765,8.9411,0.00224852
1607661000000,8.9429,8.9201,8.9429,8.9201,0.13791667000000002
1607661600000,9.001,9.001,9.001,9.001,0.00100051
1607662080000,9.0381,9.0381,9.0381,9.0381,0.00108155
1607662260000,9.0178,9.0178,9.0178,9.0178,0.11440852
1607662860000,9.0525,9.0525,9.0525,9.0525,0.00121095
1607663340000,9.0824,9.0824,9.0824,9.0824,0.00120379
1607663940000,9.1012,9.1012,9.1012,9.1012,0.00116645
1607664480000,9.1015,9.0604,9.1015,9.0604,0.0023396600000000004
1607665080000,9.0821,9.0821,9.0821,9.0821,0.00113839
1607665440000,9.0054,9.0054,9.0054,9.0054,0.02353162
1607665500000,8.9769,8.9769,8.9769,8.9769,0.23051387
1607666040000,9.0045,8.9685,9.0045,8.9685,0.00253311
1607666640000,9.0074,9.0074,9.0074,9.0074,0.00124523
1607666700000,8.9714,8.9714,8.9714,8.9714,0.00126804
1607667180000,9.0085,9.0085,9.0085,9.0085,0.00106419
1607667720000,8.9997,8.9997,8.9997,8.9997,0.00117779
1607668200000,8.9922,8.9922,8.9922,8.9922,0.00117082
1607668740000,8.9495,8.9495,8.9495,8.9495,0.00116829
1607668800000,8.913,8.913,8.913,8.913,0.00103256
1607669340000,8.9762,8.9762,8.9762,8.9762,0.00101898
1607669400000,8.9387,8.9387,8.9387,8.9387,0.00101989
1607669940000,8.9825,8.9825,8.9825,8.9825,0.00121879
1607670480000,8.929,8.929,8.929,8.929,0.00101369
1607671020000,8.895,8.895,8.895,8.895,0.00125283
1607671560000,8.895,8.895,8.895,8.895,0.00124952
1607672040000,8.8761,8.8761,8.8761,8.8761,0.00116673
1607672640000,8.8317,8.8317,8.8317,8.8317,0.00102248
1607672700000,8.7921,8.7921,8.7921,8.7921,0.0012824000000000002
1607673180000,8.8351,8.8351,8.8351,8.8351,0.00128169
1607673780000,8.8732,8.8289,8.8732,8.8289,0.00219228
1607674320000,8.8776,8.8776,8.8776,8.8776,0.00103216
1607674860000,8.9012,8.9012,8.9012,8.9012,0.0011833
1607675400000,8.9569,8.921,8.9569,8.921,0.0022936600000000003
1607675700000,8.9147,8.8924,8.9147,8.8924,0.72498719
1607676240000,8.9537,8.9537,8.9537,8.9537,0.00105131
1607676300000,8.9159,8.9159,8.9159,8.9159,0.02324
1607676840000,8.9536,8.9536,8.9536,8.9536,0.00108876
1607677440000,8.9305,8.9305,8.9305,8.9305,0.00107911
1607677980000,8.9033,8.9033,8.9033,8.9033,0.00112334
1607678040000,8.8658,8.8658,8.8658,8.8658,0.00120372
1607678580000,8.9084,8.9084,8.9084,8.9084,0.00123077
1607679060000,8.9257,8.9257,8.9257,8.9257,0.00117896
1607679540000,8.9288,8.9288,8.9288,8.9288,0.00101194
1607679780000,8.8568,8.8568,8.8568,8.8568,0.27893133
1607680380000,8.8835,8.8835,8.8835,8.8835,0.00104356
1607680920000,8.9016,8.9016,8.9016,8.9016,0.00112624
1607681400000,8.8682,8.8682,8.8682,8.8682,0.15944476
1607681940000,8.8925,8.8524,8.8925,8.8524,0.0022764300000000003
1607682120000,8.8347,8.8347,8.8347,8.8347,0.01393313
1607682660000,8.9359,8.9359,8.9359,8.9359,0.00100335
1607682720000,8.9004,8.9004,8.9004,8.9004,0.00122131
1607683080000,8.8928,8.8928,8.8928,8.8928,0.01144427
1607683620000,8.9228,8.9228,8.9228,8.9228,0.00119756
1607684220000,8.8992,8.8992,8.8992,8.8992,0.00104813
1607684760000,8.8546,8.8546,8.8546,8.8546,0.00124201
1607685360000,8.8181,8.8181,8.8181,8.8181,0.00121777
1607685840000,8.8124,8.8124,8.8124,8.8124,0.00117341
1607685960000,8.7513,8.7513,8.7513,8.7513,0.11585689
1607686500000,8.7772,8.7772,8.7772,8.7772,0.00114064
1607687040000,8.7935,8.7935,8.7935,8.7935,0.00121562
1607687640000,8.7034,8.7034,8.7034,8.7034,0.00122562
1607688120000,8.7166,8.7166,8.7166,8.7166,0.00111317
1607688180000,8.6886,8.6886,8.6886,8.6886,0.00128954
1607688780000,8.7258,8.7258,8.7258,8.7258,0.00121492
1607689260000,8.7433,8.7433,8.7433,8.7433,0.00129282
1607689800000,8.7716,8.7716,8.7716,8.7716,0.00124664
1607689860000,8.7206,8.7206,8.7206,8.7206,0.00110089
1607690400000,8.7749,8.7749,8.7749,8.7749,0.00123305
1607690460000,8.7445,8.7445,8.7445,8.7445,0.00116119
1607691000000,8.7816,8.7816,8.7816,8.7816,0.00126957
1607691480000,8.7989,8.7989,8.7989,8.7989,0.00117599
1607691960000,8.8536,8.8536,8.8536,8.8536,0.00111179
1607692200000,8.8567,8.8567,8.8567,8.8567,0.31402448
1607692740000,8.9103,8.9103,8.9103,8.9103,0.00100723
1607693340000,8.9289,8.9289,8.9289,8.9289,0.00103157
1607693880000,8.9167,8.9167,8.9167,8.9167,0.00108643
1607694420000,8.927,8.8978,8.927,8.8978,0.00216403
1607694960000,8.9312,8.9312,8.9312,8.9312,0.00112859
1607695500000,8.9345,8.9093,8.9345,8.9093,0.54293506
1607695560000,8.9032,8.9032,8.9032,8.9032,0.00121254
1607696040000,8.9698,8.9698,8.9698,8.9698,0.00128295
1607696100000,8.9486,8.9486,8.9486,8.9486,0.00122648
1607696640000,9.0453,9.0195,9.0453,9.0195,0.0025234000000000003
1607697240000,9.0951,9.0951,9.0951,9.0951,0.00126892
1607697840000,9.1022,9.1022,9.1022,9.1022,0.00123091
1607698080000,9.0796,9.0796,9.0796,9.0796,0.60350454
1607698140000,9.0696,9.0696,9.0696,9.0696,0.08093956
1607698320000,9.0904,9.0904,9.0904,9.0904,0.18937288
1607698860000,9.1661,9.1661,9.1661,9.1661,0.0011621
1607699400000,9.175,9.175,9.175,9.175,0.00108378
1607700000000,9.1487,9.1487,9.1487,9.1487,0.00126757
1607700480000,9.1005,9.1005,9.1005,9.1005,0.00117199
1607701080000,9.1221,9.1221,9.1221,9.1221,0.00109373
1607701620000,9.0916,9.0659,9.0916,9.0659,0.00221877
1607702160000,9.1183,9.1183,9.1183,9.1183,0.00111454
1607702640000,9.0973,9.0973,9.0973,9.0973,0.08166912
1607703120000,9.1082,9.1082,9.1082,9.1082,0.00120681
1607703720000,9.115,9.115,9.115,9.115,0.00116794
1607704320000,9.092,9.092,9.092,9.092,0.00104429
1607704800000,9.0277,9.0277,9.0277,9.0277,0.001118
1607704860000,8.9992,8.9992,8.9992,8.9992,0.00113393
1607705340000,8.969,8.969,8.969,8.969,0.0012606
1607705820000,8.9699,8.9699,8.9699,8.9699,0.00107628
1607706360000,8.9683,8.9683,8.9683,8.9683,0.00120315
1607706840000,8.9678,8.9678,8.9678,8.9678,0.00105522
1607707440000,8.9612,8.9612,8.9612,8.9612,0.00119531
1607707920000,8.9191,8.9191,8.9191,8.9191,0.00912468
1607707980000,8.9218,8.9218,8.9218,8.9218,0.01913563
1607708580000,8.9536,8.9536,8.9536,8.9536,0.00128947
1607709120000,8.9389,8.913,8.9389,8.913,0.00254401
1607709720000,8.9491,8.9245,8.9491,8.9245,0.00576174
1607710200000,8.9321,8.9321,8.9321,8.9321,0.025558780000000003
1607710740000,8.9559,8.9559,8.9559,8.9559,0.00122486
1607711220000,8.9601,8.9601,8.9601,8.9601,0.00128185
1607711820000,8.9852,8.9852,8.9852,8.9852,0.00114677
1607712360000,8.9897,8.9897,8.9897,8.9897,0.00109786
1607712960000,8.985,8.985,8.985,8.985,0.00110285
1607713080000,8.9613,8.9613,8.9613,8.9613,0.14982203
1607713620000,8.9782,8.9782,8.9782,8.9782,0.00126788
1607713680000,8.9526,8.9526,8.9526,8.9526,0.00124032
1607714220000,8.9813,8.9813,8.9813,8.9813,0.00126397
1607714820000,9.0082,8.9838,9.0082,8.9838,0.00218021
1607715420000,9.0054,9.0054,9.0054,9.0054,0.00108868
1607715780000,8.9791,8.9791,8.9791,8.9791,0.10699817
1607716260000,9.0042,9.0042,9.0042,9.0042,0.00123442
1607716800000,9.0079,8.9729,9.0079,8.9729,0.13609861
1607717400000,9.0031,9.0031,9.0031,9.0031,0.00106784
1607717460000,8.9772,8.9772,8.9772,8.9772,0.00100939
1607718000000,9.0014,9.0014,9.0014,9.0014,0.00127047
1607718540000,9.0034,9.0034,9.0034,9.0034,0.00120705
1607719140000,9.0075,9.0075,9.0075,9.0075,0.00110003
1607719680000,9.0057,9.0057,9.0057,9.0057,0.0012017999999999998
1607719740000,8.98,8.98,8.98,8.98,0.00108359
1607720280000,9.0063,9.0063,9.0063,9.0063,0.00110319
1607720640000,8.9803,8.9803,8.9803,8.9803,0.02194149
1607721120000,9.0345,9.0345,9.0345,9.0345,0.00129148
1607721720000,9.0452,9.0452,9.0452,9.0452,0.00111386
1607722320000,9.0583,9.0326,9.0583,9.0326,0.00236725
1607722920000,9.0667,9.0667,9.0667,9.0667,0.0010222000000000002
1607723160000,9.0777,9.0777,9.0777,9.0777,0.29258849000000003
1607723760000,9.1445,9.1215,9.1445,9.1215,0.00229935
1607724360000,9.1528,9.1528,9.1528,9.1528,0.00111551
1607724840000,9.1185,9.1185,9.1185,9.1185,0.00114383
1607725440000,9.0765,9.0765,9.0765,9.0765,0.00126039
1607725920000,9.0784,9.0784,9.0784,9.0784,0.00127172
1607726460000,9.0796,9.0796,9.0796,9.0796,0.00121544
1607727060000,9.0793,9.0793,9.0793,9.0793,0.00114678
1607727600000,9.076,9.076,9.076,9.076,0.00120903
1607728080000,9.0632,9.0632,9.0632,9.0632,0.00105948
1607728680000,9.062999999999999,9.062999999999999,9.062999999999999,9.062999999999999,0.00124951
1607729160000,9.0443,9.0443,9.0443,9.0443,0.00117016
1607729700000,9.0228,9.0228,9.0228,9.0228,0.0011459
1607729760000,9.0034,9.0034,9.0034,9.0034,0.18708501
1607730300000,9.027000000000001,9.027000000000001,9.027000000000001,9.027000000000001,0.00122717
1607730780000,9.0309,9.0309,9.0309,9.0309,0.00109359
1607730840000,9.0027,9.0027,9.0027,9.0027,0.00118091
1607731320000,9.0279,9.0279,9.0279,9.0279,0.00112147
1607731860000,9.092,9.092,9.092,9.092,0.00126359
1607732460000,9.1087,9.1087,9.1087,9.1087,0.00122465
1607732940000,9.161,9.161,9.161,9.161,0.00129957
1607733000000,9.1342,9.1342,9.1342,9.1342,0.00114356
1607733300000,9.2002,9.2002,9.2002,9.2002,0.50631438
1607733900000,9.2336,9.2044,9.2336,9.2044,0.00219746
1607734440000,9.2119,9.2119,9.2119,9.2119,0.00107346
1607735040000,9.2384,9.2384,9.2384,9.2384,0.00126959
1607735100000,9.2119,9.2119,9.2119,9.2119,0.00107146
1607735400000,9.2045,9.2045,9.2045,9.2045,1.31666076
1607735940000,9.1216,9.1216,9.1216,9.1216,0.00124437
1607736420000,9.1095,9.1095,9.1095,9.1095,0.00107747
1607736960000,9.1467,9.1467,9.1467,9.1467,0.00106501
1607737500000,9.1615,9.1615,9.1615,9.1615,0.00120245
1607737980000,9.1626,9.1626,9.1626,9.1626,0.001286
1607738460000,9.1638,9.1638,9.1638,9.1638,0.00113742
1607738520000,9.1449,9.1449,9.1449,9.1449,0.00112805
1607738580000,9.1331,9.1331,9.1331,9.1331,0.09553687
1607739120000,9.1758,9.1758,9.1758,9.1758,0.00103539
1607739180000,9.1496,9.1496,9.1496,9.1496,0.00109273
1607739720000,9.175,9.175,9.175,9.175,0.00112691
1607739780000,9.1488,9.1488,9.1488,9.1488,0.00116921
1607740380000,9.1814,9.1814,9.1814,9.1814,0.00114731
1607740920000,9.1788,9.1788,9.1788,9.1788,0.00104683
1607741460000,9.1818,9.1818,9.1818,9.1818,0.00120288
1607741640000,9.1565,9.1565,9.1565,9.1565,0.19377824
1607742120000,9.1883,9.1883,9.1883,9.1883,0.0012333
1607742180000,9.1604,9.1604,9.1604,9.1604,0.00117717
1607742720000,9.1802,9.1802,9.1802,9.1802,0.00118384
1607743320000,9.1816,9.1816,9.1816,9.1816,0.00123211
1607743920000,9.1841,9.1841,9.1841,9.1841,0.0012823
1607744460000,9.1854,9.1593,9.1854,9.1593,0.00222842
1607745060000,9.193999999999999,9.193999999999999,9.193999999999999,9.193999999999999,0.00101574
1607745600000,9.1949,9.1949,9.1949,9.1949,0.00116152
1607746200000,9.2699,9.2699,9.2699,9.2699,0.00122359
1607746260000,9.2431,9.2431,9.2431,9.2431,0.00112971
1607746740000,9.2693,9.2693,9.2693,9.2693,0.00115761
1607747280000,9.2686,9.2686,9.2686,9.2686,0.00129257
1607747460000,9.2442,9.2442,9.2442,9.2442,0.03892036
1607748060000,9.3089,9.3089,9.3089,9.3089,0.00126155
1607748360000,9.2861,9.2861,9.2861,9.2861,0.45019073
1607748660000,9.2707,9.2707,9.2707,9.2707,0.13810687000000002
1607749260000,9.3129,9.3129,9.3129,9.3129,0.00126843
1607749800000,9.3134,9.2861,9.3134,9.2861,0.00252716
1607750280000,9.321,9.2935,9.321,9.2935,0.00223928
1607750820000,9.314,9.314,9.314,9.314,0.00102352
1607751360000,9.3372,9.3372,9.3372,9.3372,0.00103233
1607751840000,9.3417,9.3417,9.3417,9.3417,0.00108125
1607752440000,9.3278,9.3029,9.3278,9.3029,0.00238208
1607752920000,9.3222,9.3222,9.3222,9.3222,0.00116562
1607752980000,9.293,9.293,9.293,9.293,0.00121096
1607753520000,9.3228,9.2978,9.3228,9.2978,0.00225641
1607754060000,9.3259,9.3259,9.3259,9.3259,0.00115977
1607754540000,9.3172,9.3172,9.3172,9.3172,0.00106134
1607755080000,9.2402,9.2402,9.2402,9.2402,0.00129274
1607755140000,9.19,9.19,9.19,9.19,0.00121776
1607755680000,9.1561,9.1561,9.1561,9.1561,0.00114078
1607756280000,9.2775,9.2513,9.2775,9.2513,0.00241069
1607756820000,9.3071,9.3071,9.3071,9.3071,0.00122542
1607757360000,9.3106,9.3106,9.3106,9.3106,0.00121976
1607757420000,9.2873,9.2873,9.2873,9.2873,0.00121438
1607757960000,9.3115,9.3115,9.3115,9.3115,0.00109257
1607758020000,9.2841,9.2841,9.2841,9.2841,0.00102611
1607758020000,9.2841,9.2841,9.2841,9.2841,0.00102611
1607758560000,9.2992,9.2992,9.2992,9.2992,0.0010815999999999998
1607759100000,9.3043,9.3043,9.3043,9.3043,0.00119585
1607759220000,9.2788,9.2788,9.2788,9.2788,0.32380271
1607759760000,9.3274,9.3274,9.3274,9.3274,0.00108008
1607759820000,9.2982,9.2982,9.2982,9.2982,0.00104526
1607760360000,9.3127,9.3127,9.3127,9.3127,0.0010893
1607760420000,9.2859,9.2859,9.2859,9.2859,0.00129768
1607760960000,9.2899,9.2899,9.2899,9.2899,0.0010644
1607761500000,9.2677,9.2677,9.2677,9.2677,0.00124143
1607761560000,9.2412,9.2412,9.2412,9.2412,0.00127656
1607762040000,9.2561,9.2298,9.2561,9.2298,0.00217469
1607762580000,9.2461,9.2195,9.2461,9.2195,0.0021416
1607762940000,9.2198,9.2198,9.2198,9.2198,0.00690967
1607763480000,9.2555,9.2555,9.2555,9.2555,0.0012239
1607764020000,9.2445,9.2193,9.2445,9.2193,0.00233511
1607764560000,9.2601,9.2601,9.2601,9.2601,0.00108014
1607764620000,9.2378,9.2378,9.2378,9.2378,0.00122332
1607765160000,9.2795,9.2795,9.2795,9.2795,0.00107737
1607765640000,9.3024,9.3024,9.3024,9.3024,0.00114166
1607766180000,9.2329,9.2329,9.2329,9.2329,0.00119412
1607766780000,9.2472,9.2472,9.2472,9.2472,0.00111199
1607767380000,9.2627,9.2627,9.2627,9.2627,0.00112519
1607767920000,9.2347,9.2347,9.2347,9.2347,0.00128751
1607768520000,9.2208,9.2208,9.2208,9.2208,0.00122309
1607769060000,9.1882,9.1882,9.1882,9.1882,0.00106612
1607769540000,9.1995,9.1995,9.1995,9.1995,0.00105219
1607769600000,9.1696,9.1696,9.1696,9.1696,0.00125344
1607770140000,9.2189,9.2189,9.2189,9.2189,0.00109648
1607770740000,9.2221,9.2221,9.2221,9.2221,0.00109529
1607771340000,9.2058,9.2058,9.2058,9.2058,0.0010122
1607771400000,9.1776,9.1776,9.1776,9.1776,0.15033707999999998
1607771880000,9.2192,9.2192,9.2192,9.2192,0.00103615
1607772420000,9.2152,9.2152,9.2152,9.2152,0.00129262
1607772900000,9.2193,9.2193,9.2193,9.2193,0.00101153
1607773500000,9.2112,9.2112,9.2112,9.2112,0.00117903
1607774100000,9.2138,9.1878,9.2138,9.1878,0.04544845
1607774640000,9.2154,9.2154,9.2154,9.2154,0.00110647
1607775180000,9.2062,9.1803,9.2062,9.1803,0.00204062
1607775720000,9.1991,9.1991,9.1991,9.1991,0.00112476
1607776260000,9.2027,9.2027,9.2027,9.2027,0.00129148
1607776800000,9.1475,9.1475,9.1475,9.1475,0.00121466
1607776860000,9.1188,9.1188,9.1188,9.1188,0.00109524
1607777460000,9.2067,9.1793,9.2067,9.1793,0.00227531
1607778060000,9.2133,9.2133,9.2133,9.2133,0.00107382
1607778540000,9.206,9.206,9.206,9.206,0.00120678
1607779140000,9.1975,9.1975,9.1975,9.1975,0.00104433
1607779200000,9.1733,9.1733,9.1733,9.1733,0.00107685
1607779740000,9.2034,9.1778,9.2034,9.1778,0.00217968
1607780280000,9.1965,9.1698,9.1965,9.1698,0.00253072
1607780880000,9.1876,9.1876,9.1876,9.1876,0.00113169
1607781360000,9.1869,9.1869,9.1869,9.1869,0.00114852
1607781960000,9.1722,9.1722,9.1722,9.1722,0.00122717
1607782560000,9.1809,9.1809,9.1809,9.1809,0.00113564
1607783100000,9.1848,9.1848,9.1848,9.1848,0.00114468
1607783640000,9.1842,9.1842,9.1842,9.1842,0.00114872
1607784180000,9.1475,9.1475,9.1475,9.1475,0.00123295
1607784720000,9.0764,9.0764,9.0764,9.0764,0.00114199
1607785260000,9.0873,9.0591,9.0873,9.0591,0.00233683
1607785860000,9.0619,9.0619,9.0619,9.0619,0.00125745
1607786340000,9.0627,9.0426,9.0627,9.0426,0.0023229
1607786940000,9.067,9.0432,9.067,9.0432,0.00250978
1607787420000,9.0622,9.0335,9.0622,9.0335,0.00240797
1607787900000,9.0599,9.0599,9.0599,9.0599,0.00126756
1607788440000,9.0766,9.0766,9.0766,9.0766,0.00122905
1607788920000,9.0768,9.0768,9.0768,9.0768,0.001243
1607788980000,9.0428,9.0428,9.0428,9.0428,0.00123931
1607789460000,9.0623,9.0623,9.0623,9.0623,0.00125024
1607790000000,9.0575,9.0575,9.0575,9.0575,0.00106894
1607790540000,9.0584,9.0584,9.0584,9.0584,0.001257
1607791140000,9.0578,9.0578,9.0578,9.0578,0.00116691
1607791740000,9.0555,9.0555,9.0555,9.0555,0.00105631
1607792280000,9.0476,9.0222,9.0476,9.0222,0.0021278900000000003
1607792820000,9.0535,9.0535,9.0535,9.0535,0.00123245
1607793420000,9.049,9.0234,9.049,9.0234,0.00229134
1607794020000,8.9615,8.9615,8.9615,8.9615,0.00107964
1607794560000,8.987,8.987,8.987,8.987,0.00100442
1607795160000,9.0151,9.0151,9.0151,9.0151,0.00102836
1607795700000,9.0458,9.0458,9.0458,9.0458,0.00120039
1607795760000,9.0029,8.9942,9.0029,8.9942,0.09864671
1607796300000,9.0538,9.0538,9.0538,9.0538,0.00112592
1607796840000,9.0512,9.0512,9.0512,9.0512,0.00105825
1607797320000,9.0326,9.0326,9.0326,9.0326,0.15516265
1607797920000,9.0591,9.0591,9.0591,9.0591,0.00117639
1607798460000,9.0725,9.0725,9.0725,9.0725,0.0011481
1607799000000,9.0775,9.0775,9.0775,9.0775,0.00125404
1607799600000,9.0715,9.0715,9.0715,9.0715,0.00126967
1607800140000,9.0809,9.0553,9.0809,9.0553,0.00240361
1607800260000,9.0475,9.0475,9.0475,9.0475,0.15236318
1607800860000,9.0835,9.0835,9.0835,9.0835,0.00118059
1607801340000,9.0832,9.0832,9.0832,9.0832,0.0012194
1607801400000,9.0577,9.0577,9.0577,9.0577,0.00110042
1607801940000,9.0817,9.0817,9.0817,9.0817,0.00126459
1607802000000,9.0568,9.0568,9.0568,9.0568,0.00122248
1607802540000,9.0834,9.0834,9.0834,9.0834,0.00126151
1607803080000,9.0822,9.0578,9.0822,9.0578,0.00233603
1607803620000,9.0881,9.0622,9.0881,9.0622,0.00227371
1607804220000,9.0754,9.0754,9.0754,9.0754,0.00124434
1607804700000,9.0742,9.0471,9.0742,9.0471,0.00220773
1607805300000,9.0768,9.0511,9.0768,9.0511,0.00249868
1607805900000,9.1135,9.0877,9.1135,9.0877,0.00244007
1607806080000,9.0849,9.0849,9.0849,9.0849,0.1602315
1607806620000,9.1102,9.1102,9.1102,9.1102,0.00125912
1607807160000,9.111,9.0852,9.111,9.0852,0.0020554600000000003
1607807760000,9.1071,9.1071,9.1071,9.1071,0.00108707
1607808300000,9.1187,9.1187,9.1187,9.1187,0.00115332
1607808780000,9.135,9.135,9.135,9.135,0.00122038
1607809320000,9.1408,9.1408,9.1408,9.1408,0.00100272
1607809860000,9.1389,9.1389,9.1389,9.1389,0.00120494
1607810460000,9.2141,9.2141,9.2141,9.2141,0.00101182
1607810940000,9.2136,9.2136,9.2136,9.2136,0.00118813
1607811000000,9.1631,9.1631,9.1631,9.1631,0.00119474
1607811600000,9.2302,9.2034,9.2302,9.2034,0.00233976
1607812200000,9.1945,9.1945,9.1945,9.1945,0.00102984
1607812740000,9.1531,9.1531,9.1531,9.1531,0.00114657
1607812860000,9.1333,9.1333,9.1333,9.1333,0.31366184
1607813340000,9.2328,9.2328,9.2328,9.2328,0.00111683
1607813400000,9.2079,9.2079,9.2079,9.2079,0.00117904
1607813940000,9.2162,9.2162,9.2162,9.2162,0.00128958
1607814120000,9.2203,9.2203,9.2203,9.2203,0.5
1607814360000,9.2133,9.2133,9.2133,9.2133,0.9
1607814600000,9.191,9.191,9.191,9.191,0.25554637
1607815080000,9.2549,9.2284,9.2549,9.2284,0.00215014
1607815560000,9.2531,9.2531,9.2531,9.2531,0.00105532
1607816160000,9.2475,9.2475,9.2475,9.2475,0.00118527
1607816700000,9.2221,9.2221,9.2221,9.2221,0.00124195
1607817240000,9.2291,9.2291,9.2291,9.2291,0.00109066
1607817780000,9.2813,9.2813,9.2813,9.2813,0.00123873
1607817840000,9.2598,9.2598,9.2598,9.2598,0.00114992
1607818440000,9.3131,9.3131,9.3131,9.3131,0.00107521
1607818920000,9.319,9.319,9.319,9.319,0.00127149
1607818980000,9.2892,9.2892,9.2892,9.2892,0.00124983
1607819520000,9.3187,9.3187,9.3187,9.3187,0.001239
1607819940000,9.2888,9.2888,9.2888,9.2888,0.04469519
1607820480000,9.3132,9.3132,9.3132,9.3132,0.00110661
1607821080000,9.2882,9.2626,9.2882,9.2626,0.00256333
1607821560000,9.2734,9.2734,9.2734,9.2734,0.00114695
1607822100000,9.2771,9.2771,9.2771,9.2771,0.00112686
1607822700000,9.2495,9.2277,9.2495,9.2277,0.00218174
1607823300000,9.2768,9.25,9.2768,9.25,0.00230394
1607823600000,9.2485,9.2485,9.2485,9.2485,0.26346348
1607824200000,9.2796,9.2796,9.2796,9.2796,0.00117491
1607824740000,9.2211,9.2211,9.2211,9.2211,0.00102986
1607825280000,9.2406,9.2406,9.2406,9.2406,0.00115511
1607825880000,9.2401,9.2401,9.2401,9.2401,0.00116783
1607826480000,9.2505,9.2505,9.2505,9.2505,0.00113674
1607826600000,9.2251,9.2251,9.2251,9.2251,0.06123641
1607826900000,9.2545,9.2545,9.2545,9.2545,0.01155555
1607827380000,9.3007,9.3007,9.3007,9.3007,0.00128887
1607827920000,9.2924,9.2924,9.2924,9.2924,0.00107694
1607827980000,9.256,9.256,9.256,9.256,0.00113256
1607828580000,9.2607,9.2607,9.2607,9.2607,0.00103133
1607829120000,9.2854,9.2854,9.2854,9.2854,0.0011721
1607829480000,9.2459,9.2459,9.2459,9.2459,0.03570311
1607830080000,9.2777,9.2777,9.2777,9.2777,0.00101879
1607830560000,9.2569,9.2569,9.2569,9.2569,0.00102381
1607831100000,9.2631,9.2631,9.2631,9.2631,0.00101186
1607831640000,9.254,9.254,9.254,9.254,0.00108615
1607832180000,9.2378,9.2378,9.2378,9.2378,0.00111273
1607832720000,9.1989,9.1989,9.1989,9.1989,0.00115896
1607833200000,9.2135,9.2135,9.2135,9.2135,0.00111658
1607833800000,9.215,9.215,9.215,9.215,0.00128321
1607834340000,9.225,9.1947,9.225,9.1947,0.00240923
1607834880000,9.1901,9.1901,9.1901,9.1901,0.00106985
1607835480000,9.1609,9.1313,9.1609,9.1313,0.00230357
1607836080000,9.1745,9.1745,9.1745,9.1745,0.00115396
1607836560000,9.1799,9.1799,9.1799,9.1799,0.00123637
1607837160000,9.163,9.163,9.163,9.163,0.0011637000000000002
1607837700000,9.1728,9.1728,9.1728,9.1728,0.00129734
1607838240000,9.1678,9.1678,9.1678,9.1678,0.00104938
1607838840000,9.1671,9.1671,9.1671,9.1671,0.00104961
1607839320000,9.1781,9.1781,9.1781,9.1781,0.00127517
1607839800000,9.1705,9.1705,9.1705,9.1705,0.00107049
1607840400000,9.1672,9.1672,9.1672,9.1672,0.00109848
1607840940000,9.168,9.168,9.168,9.168,0.00129542
1607841540000,9.1732,9.1732,9.1732,9.1732,0.0012602
1607842080000,9.1832,9.1832,9.1832,9.1832,0.00129068
1607842620000,9.2033,9.2033,9.2033,9.2033,0.00103176
1607842680000,9.1773,9.1773,9.1773,9.1773,0.00119012
1607843280000,9.226,9.226,9.226,9.226,0.00111441
1607843820000,9.2714,9.2714,9.2714,9.2714,0.00111581
1607844420000,9.2997,9.2997,9.2997,9.2997,0.00126097
1607844900000,9.2843,9.2843,9.2843,9.2843,0.0010912
1607845440000,9.2804,9.2804,9.2804,9.2804,0.00107933
1607845980000,9.2871,9.2871,9.2871,9.2871,0.00111931
1607846520000,9.244,9.244,9.244,9.244,0.30382626
1607847060000,9.2878,9.2878,9.2878,9.2878,0.00110823
1607847120000,9.2518,9.2518,9.2518,9.2518,0.00125369
1607847600000,9.2923,9.2923,9.2923,9.2923,0.00109203
1607848200000,9.3284,9.3284,9.3284,9.3284,0.00117034
1607848740000,9.3135,9.3135,9.3135,9.3135,0.00115586
1607849160000,9.2913,9.2913,9.2913,9.2913,0.3832400500000001
1607849700000,9.2928,9.2928,9.2928,9.2928,0.00100352
1607850240000,9.3055,9.3055,9.3055,9.3055,0.00106186
1607850300000,9.2674,9.2674,9.2674,9.2674,0.00107421
1607850780000,9.3052,9.3052,9.3052,9.3052,0.00120864
1607851380000,9.2978,9.2978,9.2978,9.2978,0.0010094
1607851860000,9.2953,9.2953,9.2953,9.2953,0.00123968
1607851920000,9.2529,9.2529,9.2529,9.2529,0.00112715
1607852460000,9.282,9.282,9.282,9.282,0.21524955
1607853060000,9.2722,9.2361,9.2722,9.2361,0.00218348
1607853540000,9.2993,9.2993,9.2993,9.2993,0.00108078
1607854140000,9.3335,9.3335,9.3335,9.3335,0.00106506
1607854740000,9.3622,9.3622,9.3622,9.3622,0.00125755
1607855220000,9.3553,9.3553,9.3553,9.3553,0.00124627
1607855280000,9.3416,9.3416,9.3416,9.3416,0.00105937
1607855640000,9.3322,9.3322,9.3322,9.3322,0.43683284
1607856240000,9.3965,9.3965,9.3965,9.3965,0.00112907
1607856720000,9.4671,9.4671,9.4671,9.4671,0.00120255
1607857260000,9.5065,9.5065,9.5065,9.5065,0.00121511
1607857860000,9.5356,9.4994,9.5356,9.4994,0.00230386
1607858400000,9.5816,9.5816,9.5816,9.5816,0.0012778
1607858940000,9.5954,9.5954,9.5954,9.5954,0.00126037
1607859480000,9.549,9.549,9.549,9.549,0.00118226
1607859960000,9.5309,9.5309,9.5309,9.5309,0.00109177
1607860020000,9.4756,9.4756,9.4756,9.4756,0.00120555
1607860560000,9.47,9.47,9.47,9.47,0.0010062
1607860620000,9.4344,9.4344,9.4344,9.4344,0.00112156
1607861160000,9.4391,9.4391,9.4391,9.4391,0.0011991
1607861700000,9.4252,9.4252,9.4252,9.4252,0.00117967
1607862240000,9.4316,9.3928,9.4316,9.3928,0.00223213
1607862780000,9.4407,9.4407,9.4407,9.4407,0.00114095
1607863380000,9.5,9.4581,9.5,9.4581,0.00243094
1607863980000,9.5039,9.5039,9.5039,9.5039,0.00120911
1607864520000,9.5171,9.4797,9.5171,9.4797,0.00224364
1607865000000,9.5246,9.4863,9.5246,9.4863,0.0024682000000000003
1607865420000,9.487,9.487,9.487,9.487,0.43250149
1607865960000,9.5211,9.5211,9.5211,9.5211,0.00129402
1607866020000,9.4843,9.4843,9.4843,9.4843,0.00123617
1607866560000,9.5088,9.5088,9.5088,9.5088,0.00103264
1607867100000,9.4916,9.4916,9.4916,9.4916,0.00124772
1607867160000,9.4544,9.4544,9.4544,9.4544,0.00102675
1607867760000,9.4852,9.4852,9.4852,9.4852,0.00117692
1607868300000,9.4627,9.4627,9.4627,9.4627,0.00114911
1607868900000,9.4056,9.4056,9.4056,9.4056,0.00102255
1607868960000,9.3781,9.3781,9.3781,9.3781,0.00122885
1607869560000,9.4804,9.4414,9.4804,9.4414,0.00240516
1607870100000,9.4681,9.4681,9.4681,9.4681,0.00124762
1607870580000,9.4582,9.4582,9.4582,9.4582,0.0012397
1607871120000,9.4439,9.4439,9.4439,9.4439,0.00123181
1607871600000,9.4462,9.4085,9.4462,9.4085,0.00217593
1607872200000,9.4594,9.4594,9.4594,9.4594,0.00122607
1607872260000,9.4194,9.4194,9.4194,9.4194,0.00103564
1607872740000,9.398,9.398,9.398,9.398,0.00125935
1607872800000,9.3563,9.3563,9.3563,9.3563,0.00119323
1607873400000,9.362,9.362,9.362,9.362,0.00117196
1607873400000,9.362,9.362,9.362,9.362,0.00117196
1607873400000,9.362,9.362,9.362,9.362,0.00117196
1607873880000,9.3686,9.3686,9.3686,9.3686,0.00129482
1607873940000,9.3283,9.3283,9.3283,9.3283,0.00103109
1607874480000,9.3742,9.3742,9.3742,9.3742,0.00114691
1607875020000,9.3661,9.3292,9.3661,9.3292,0.00222228
1607875500000,9.3799,9.3799,9.3799,9.3799,0.13411224
1607876040000,9.4574,9.4574,9.4574,9.4574,0.00122646
