time,open,close,high,low,volume
1533291360000,0.032037,0.032037,0.032037,0.032037,314.0
1533291720000,0.03171,0.030729000000000006,0.03171,0.030729000000000006,1019.4328877
1533300900000,0.032036,0.032036,0.032036,0.032036,1370.85455745
1533301320000,0.032037,0.032037,0.032037,0.032037,1413.24333746
1533305880000,0.03224,0.03224,0.03224,0.03224,1448.21092495
1533364860000,0.03217,0.03217,0.03217,0.03217,383.44146534
1533366420000,0.0321,0.0321,0.0321,0.0321,977.40927537
1533367860000,0.0321,0.0308,0.0321,0.0308,5000.0
1533379800000,0.030729000000000006,0.030402,0.030729000000000006,0.030402,550.5671123
1533380100000,0.030076,0.030075,0.030076,0.030075,1258.2000448899996
1533417720000,0.029747000000000006,0.02942,0.029747000000000006,0.02942,500.0
1533466980000,0.031022000000000008,0.0311,0.0311,0.031022000000000008,3000.0
1533475620000,0.030999,0.030999,0.030999,0.030999,470.0
1533475680000,0.030999,0.02942,0.030999,0.02942,1406.132
1533475740000,0.030999,0.031,0.031,0.030999,5057.11664443
1533475800000,0.02942,0.02942,0.02942,0.02942,4168.96961902
1533539880000,0.031010000000000006,0.031010000000000006,0.031010000000000006,0.031010000000000006,332.0
1533572040000,0.031078,0.0311,0.0311,0.031078,1607.6
1533581220000,0.02942,0.026477,0.02942,0.026477,2919.559995800001
1533611940000,0.026151,0.026151,0.026151,0.026151,400.0
1533628800000,0.031055000000000006,0.031183,0.031183,0.031055000000000006,6485.27455336
1533628920000,0.034324,0.034325,0.034325,0.034324,7862.496619330002
1533629280000,0.035,0.035,0.035,0.035,16108.90492803
1533629400000,0.035,0.035,0.035,0.035,1000.0
1533632820000,0.03499,0.035,0.035,0.03499,2257.58261272
1533662040000,0.034999,0.034999,0.034999,0.034999,552.63603531
1533667140000,0.032466,0.032466,0.032466,0.032466,493.99190168
1533668400000,0.032466,0.032466,0.032466,0.032466,293.50495581
1533668520000,0.034999,0.034999,0.034999,0.034999,2124.2197921300008
1533668760000,0.034999,0.035,0.035,0.034999,10010.01001593
1533669000000,0.035,0.035,0.035,0.035,1683.08950347
1533669540000,0.03242,0.03242,0.03242,0.03242,2732.60159802
1533669600000,0.028684,0.028684,0.028684,0.028684,1259.39840198
1533676140000,0.028685,0.028143,0.028685,0.028143,5189.040004199999
1533676440000,0.028143,0.026208,0.028143,0.026208,920.82688361
1533731160000,0.026677,0.024187,0.026677,0.024187,12308.86030591
1533731400000,0.024,0.0229,0.024002,0.0229,27087.37497116
1533732960000,0.032013,0.032062,0.032062,0.032013,3237.20687868
1533759000000,0.029,0.029,0.029,0.029,576.08690413
1533759540000,0.026001,0.026001,0.026001,0.026001,349.65
1533911760000,0.025054,0.025054,0.025054,0.025054,376.65841708
1533924780000,0.025055,0.02505,0.025055,0.02505,2327.40835127
1533969600000,0.02505,0.02505,0.02505,0.02505,488.37150392
1533969660000,0.0232,0.023,0.0232,0.023,52720.72849608
1533972180000,0.023003,0.0229,0.023003,0.0229,1068.60465594
1534014660000,0.024999,0.024999,0.024999,0.024999,390.0
1534070520000,0.022902,0.0229,0.022902,0.0229,2882.56840111
1534135920000,0.024978,0.025,0.025,0.024978,3093.79903574
1534158720000,0.0235,0.0229,0.0235,0.0229,1153.02730789
1534167360000,0.024946,0.024998,0.024998,0.024946,3185.04
1534183080000,0.0245,0.0235,0.0245,0.0235,756.0
1534187040000,0.022905,0.0229,0.022905,0.0229,7451.22141135
1534187100000,0.022879,0.021897,0.022879,0.021897,3698.37541309
1534187160000,0.021571,0.021,0.021571,0.021,17423.31817556
1534211100000,0.021002,0.020589,0.021002,0.020589,37068.72208541
1534211160000,0.020262,0.02,0.020262,0.02,2262.46891459
1534239360000,0.020000999999999998,0.020000999999999998,0.020000999999999998,0.020000999999999998,2479.62405995
1534239900000,0.020000999999999998,0.02,0.020000999999999998,0.02,460.28021614
1534278300000,0.020023,0.020023,0.020023,0.020023,755.30568325
1534279080000,0.024,0.0245,0.0245,0.024,2930.54439701
1534279260000,0.020066,0.020066,0.020066,0.020066,998.99926639
1534279860000,0.0245,0.0245,0.0245,0.0245,1191.56891337
1534280580000,0.028934,0.028934,0.028934,0.028934,1119.0390876
1534281660000,0.028934,0.028934,0.028934,0.028934,1931.09969324
1534282140000,0.020087999999999998,0.02,0.020087999999999998,0.02,9989.99819254
1534282200000,0.02,0.019935,0.02,0.019935,7283.81263718
1534282980000,0.0252,0.0252,0.0252,0.0252,598.9882195
1534283160000,0.019935,0.019608,0.019935,0.019608,1623.04679154
1534283580000,0.0252,0.0252,0.0252,0.019281,1923.3803835
1534283640000,0.0272,0.019281,0.0272,0.019281,1279.75895615
1534283880000,0.019281,0.01927,0.019281,0.01927,2654.8096761
1534284000000,0.018954,0.018954,0.018954,0.018954,1913.71674149
1534284060000,0.018627,0.0183,0.018627,0.0183,2877.83854324
1534284540000,0.0183,0.017972,0.0183,0.017972,2693.43286043
1534284780000,0.017972,0.017644999999999997,0.017972,0.017644999999999997,2135.18970255
1534284840000,0.017644999999999997,0.017318,0.017644999999999997,0.017318,1514.92511384
1534294920000,0.017318,0.016991,0.017318,0.016991,3939.50354044
1534306200000,0.0171,0.016991,0.0171,0.016991,1855.4577324
1534317120000,0.017218999999999998,0.017218999999999998,0.017218999999999998,0.017218999999999998,2029.14860573
1534317900000,0.019021,0.019021,0.019021,0.019021,2029.14860573
1534329000000,0.017202000000000002,0.0172,0.017202000000000002,0.0172,1963.52948115
1534355400000,0.017206,0.017206,0.017206,0.017206,598.8
1534512660000,0.02452,0.02452,0.02452,0.02452,378.0
1534514460000,0.020072,0.020072,0.020072,0.020072,1592.3900787999999
1534514700000,0.0205,0.0205,0.0205,0.0205,592.3900788
1534515360000,0.0214,0.0214,0.0214,0.0214,2500.0
1534516440000,0.021866,0.021867,0.021867,0.021866,2519.65964192
1534548840000,0.020092,0.020092,0.020092,0.020092,1948.77760817
1534556040000,0.024491,0.024491,0.024491,0.024491,1587.1677592
1534588020000,0.024491,0.024491,0.024491,0.024491,3730.97195457
1534592580000,0.0245,0.0245,0.0245,0.0245,2489.4741194000007
1534593360000,0.024509,0.02452,0.02452,0.024509,2522.5258806
1534639680000,0.020621,0.020621,0.020621,0.020621,1583.99342368
1534968540000,0.020061000000000002,0.020061000000000002,0.020061000000000002,0.020061000000000002,1007.98
1534969320000,0.020061,0.02006,0.020061,0.02006,12813.08446233
1535128920000,0.022378,0.022378,0.022378,0.022378,500.0
1535133360000,0.022052,0.022052,0.022052,0.022052,2140.43665556
1535133420000,0.022378,0.022378,0.022378,0.022378,2425.0
1535140620000,0.022378,0.022378,0.022378,0.022378,0.02958831
1535140680000,0.02895,0.02895,0.02895,0.02895,500.0
1535160840000,0.028899,0.029,0.029,0.028899,8875.2488367
1535161980000,0.029407,0.029407,0.029407,0.029407,1262.42423186
1535162340000,0.032,0.0321,0.0321,0.032,1000.0
1535172960000,0.026001,0.026001,0.026001,0.026001,1603.30746669
1535173020000,0.026000000000000002,0.026000000000000002,0.026000000000000002,0.026000000000000002,5548.0
1535210820000,0.02401,0.02401,0.02401,0.02401,4000.0
1535211420000,0.02323,0.02323,0.02323,0.02323,3503.0
1535212380000,0.027999,0.027999,0.027999,0.027999,6760.730469
1535212920000,0.027999,0.027999,0.027999,0.027999,0.63448403
1535216280000,0.023708,0.023707,0.023708,0.023707,5326.64789774
1535223300000,0.023707,0.0268,0.0268,0.023707,7128.0
1535223420000,0.023707,0.023707,0.023707,0.023707,0.05190661
1535231520000,0.025,0.025,0.025,0.025,1140.9583104
1535231700000,0.025,0.025,0.025,0.025,5380.565544300001
1535231820000,0.027309,0.027309,0.027309,0.027309,455.0
1535232060000,0.024,0.024,0.024,0.024,36472.026
1535233920000,0.026,0.026,0.026,0.026,932.57609461
1535237700000,0.027068,0.027068,0.027068,0.027068,893.98863972
1535238000000,0.024003,0.024,0.024003,0.024,7495.031999999997
1535254380000,0.024,0.024,0.024,0.024,213.68518833
1535254860000,0.022639,0.022639,0.022639,0.022639,1977.23745647
1535254920000,0.02235,0.02235,0.02235,0.02235,2773.1433552
1535270400000,0.02235,0.02235,0.02235,0.02235,2726.8566448
1535285040000,0.0224,0.021125,0.0224,0.021125,6751.34385761
1535286900000,0.02204,0.02204,0.02204,0.02204,2631.18968471
1535289840000,0.02212,0.02204,0.02212,0.02204,5992.81031529
1535290440000,0.022,0.022,0.022,0.022,11104.3256
1535290500000,0.022,0.022,0.022,0.022,4377.27272727
1535290560000,0.021125,0.021125,0.021125,0.021125,13205.16862396
1535457000000,0.025899,0.025899,0.025899,0.025899,1000.0
1535501760000,0.02589,0.0259,0.0259,0.02589,1020.28254152
1535521260000,0.025899,0.0259,0.0259,0.025899,3861.0701850900014
1535536200000,0.025899,0.0259,0.0259,0.025899,4156.41714305
1535608800000,0.023,0.023,0.023,0.023,500.0
1535608860000,0.0222,0.021125,0.0222,0.021125,3685.0852
1535612160000,0.021926,0.021926,0.021926,0.021926,9355.49829999
1535612280000,0.021904,0.021126,0.021904,0.021126,6715.16249956
1535643960000,0.029593,0.029624,0.029624,0.029593,3059.0
1535649180000,0.022023,0.022,0.022023,0.022,3133.6163413000004
1535707140000,0.023,0.023,0.023,0.023,3056.57595868
1535711220000,0.0234,0.0234,0.0234,0.0234,1000.0
1535715600000,0.024,0.024,0.024,0.024,999.0
1535715720000,0.03168,0.03168,0.03168,0.03168,2632.26910045
1535715900000,0.0235,0.0235,0.0235,0.0235,2624.0
1535716920000,0.0235,0.0235,0.0235,0.0235,2257.89938339
1535735160000,0.023027,0.023027,0.023027,0.023027,4995.0
1535749980000,0.024381,0.024381,0.024381,0.024381,750.0
1535800440000,0.02301,0.02301,0.02301,0.02301,3243.14336182
1535822640000,0.027086,0.027086,0.027086,0.027086,734.37715791
1535926380000,0.028208,0.028208,0.028208,0.028208,2160.21088102
1535937780000,0.023202,0.023202,0.023202,0.023202,2675.61010765
1535964180000,0.023324,0.023324,0.023324,0.023324,574.93473032
1535968560000,0.023325,0.023,0.023325,0.023,11170.1
1535971800000,0.023250999999999997,0.023250999999999997,0.023250999999999997,0.023250999999999997,2163.13543037
1535971980000,0.026157,0.026185000000000003,0.026185000000000003,0.026157,3976.44788299
1535972040000,0.0276,0.0276,0.0276,0.0276,4677.93915036
1536002940000,0.0231,0.0231,0.0231,0.0231,984.72
1536003300000,0.0231,0.0231,0.0231,0.0231,0.01399258
1536034620000,0.02313,0.02313,0.02313,0.02313,5638.0
1536124620000,0.024354,0.024354,0.024354,0.024354,2000.0
1536148440000,0.023027,0.023,0.023027,0.023,3088.13134
1536155940000,0.023,0.022096,0.023,0.022096,11220.7
1536214200000,0.0211,0.0211,0.0211,0.0211,748.5
1536222120000,0.0211,0.0211,0.0211,0.0211,2000.0
1536226500000,0.0211,0.0211,0.0211,0.0211,587.71020057
1536226680000,0.020002000000000002,0.02,0.020002000000000002,0.02,1021.9792
1536226740000,0.01741,0.01741,0.01741,0.01741,1004.73635054
1536277740000,0.023862,0.023862,0.023862,0.023862,555.0
1536296820000,0.023862,0.023862,0.023862,0.023862,500.0
1536316020000,0.019021,0.019021,0.019021,0.019021,998.0
1536318720000,0.019021,0.019021,0.019021,0.019021,1084.47132921
1536359160000,0.021485,0.021485,0.021485,0.021485,500.0
1536376980000,0.021485,0.021485,0.021485,0.021485,1002.0
1536390060000,0.0182,0.017731,0.0182,0.017731,3539.70380773
1536431760000,0.018001,0.018000000000000002,0.018001,0.018000000000000002,4512.689324450002
1536431820000,0.018000000000000002,0.018000000000000002,0.018000000000000002,0.018000000000000002,13166.0
1536452760000,0.022038,0.022038,0.022038,0.022038,454.0
1536453840000,0.0185,0.017713,0.0185,0.017713,9666.68667014
1536453900000,0.01741,0.017205,0.01741,0.017205,13861.07932986
1536455340000,0.020973,0.020973,0.020973,0.020973,500.0
1536463080000,0.017205,0.017,0.017205,0.017,1669.99720368
1536521520000,0.01712,0.01712,0.01712,0.01712,8219.57601934
1536532140000,0.017126,0.017126,0.017126,0.017126,2155.89045926
1536611940000,0.018000000000000002,0.0175,0.018000000000000002,0.0175,2121.87
1536660840000,0.0175,0.0175,0.0175,0.0175,458.94083908
1536690660000,0.0175,0.017116,0.0175,0.017116,584.22715219
1536723060000,0.017116,0.017,0.017116,0.017,101.37627684
1536863820000,0.0185,0.0185,0.0185,0.0185,500.0
1536933240000,0.019146,0.019146,0.019146,0.019146,1600.0
1536933360000,0.019146,0.019146,0.019146,0.019146,600.0
1536933420000,0.019146,0.019146,0.019146,0.019146,600.0
1536933660000,0.0185,0.0185,0.0185,0.0185,577.56756703
1536933720000,0.017,0.016239,0.017,0.016239,2216.0
1536943680000,0.0166,0.0166,0.0166,0.0166,1762.0
1537019340000,0.019150999999999998,0.019150999999999998,0.019150999999999998,0.019150999999999998,1000.0
1537178340000,0.019150999999999998,0.019150999999999998,0.019150999999999998,0.019150999999999998,852.2919999999997
1537178640000,0.021066,0.021066,0.021066,0.021066,1000.0
1537186440000,0.023173,0.024117,0.024117,0.023173,3444.838774730001
1537186680000,0.026404,0.026404,0.026404,0.026404,1301.83247342
1537186800000,0.026529,0.026529,0.026529,0.026529,1000.0
1537186920000,0.0265,0.0265,0.0265,0.0265,8750.0
1537186980000,0.0276,0.027999999999999997,0.027999999999999997,0.0276,817.06084964
1537192080000,0.027995,0.029182,0.029182,0.027995,10000.0
1537193340000,0.019924,0.019924,0.019924,0.019924,1000.00656225
1537193400000,0.0223,0.0223,0.0223,0.0223,1000.00656225
1537194600000,0.022481,0.022481,0.022481,0.022481,2269.93647663
1537219380000,0.023686000000000002,0.023686000000000002,0.023686000000000002,0.023686000000000002,1500.07450117
1537243140000,0.021507,0.021507,0.021507,0.021507,1456.15261332
1537267920000,0.019999,0.019999,0.019999,0.019999,1000.0
1537304640000,0.021,0.021,0.021,0.021,1091.2378537999996
1537358460000,0.019788,0.019788,0.019788,0.019788,1525.26523724
1537531500000,0.020024,0.020024,0.020024,0.020024,712.53468112
1537534320000,0.027239,0.027239,0.027239,0.027239,1002.0
1537539300000,0.020024,0.020024,0.020024,0.020024,6873.0
1537553340000,0.0215,0.021446,0.0215,0.021446,3568.30215867
1537589220000,0.026972000000000003,0.020024,0.026972000000000003,0.020024,1678.32
1537614780000,0.020124,0.020124,0.020124,0.020124,6776.72341024
1537618980000,0.025007,0.025007,0.025007,0.025007,590.0
1537709340000,0.025006999999999998,0.025006999999999998,0.025006999999999998,0.025006999999999998,600.0
1537709640000,0.025006999999999998,0.025006999999999998,0.025006999999999998,0.025006999999999998,954.19964108
1537709760000,0.026944,0.026944,0.026944,0.026944,1115.0
1537709940000,0.027000000000000003,0.028,0.028,0.027000000000000003,3000.0
1537710000000,0.028499,0.88,0.88,0.028499,46147.3161295
1537710120000,0.021235,0.021235,0.021235,0.021235,2663.8612418
1537713600000,0.039,0.039,0.039,0.039,590.0
1537713840000,0.025,0.025,0.025,0.025,13026.2492828
1537714140000,0.026952999999999998,0.025,0.026952999999999998,0.025,42894.7629
1537714200000,0.036897000000000006,0.036897000000000006,0.036897000000000006,0.036897000000000006,590.0
1537714800000,0.034955,0.035,0.035,0.034955,28502.14434726
1537714980000,0.03467,0.03467,0.03467,0.03467,6154.688841800001
1537715040000,0.036897000000000006,0.03896,0.03896,0.036897000000000006,25208.4947873
1537715640000,0.0339,0.0339,0.0339,0.0339,590.0
1537716360000,0.054000000000000006,0.054000000000000006,0.054000000000000006,0.054000000000000006,590.0
1537716480000,0.035011,0.025,0.035011,0.025,88300.83318028
1537716540000,0.025,0.025,0.025,0.025,6935.233490000001
1537716600000,0.023006,0.023006,0.023006,0.023006,7976.07952972
1537717200000,0.025526,0.025421,0.025526,0.025421,5610.0
1537719120000,0.025026,0.025026,0.025026,0.025026,1266.47209907
1537720500000,0.0306,0.0306,0.0306,0.0306,590.0
1537727400000,0.024794,0.024794,0.024794,0.024794,700.0
1537728720000,0.0236,0.0236,0.0236,0.0236,590.0
1537730520000,0.023651,0.023651,0.023651,0.023651,1180.0
1537731360000,0.023651,0.02365,0.023651,0.02365,2845.26372072
1537731660000,0.02365,0.02365,0.02365,0.02365,750.0
1537732560000,0.02302,0.023,0.02302,0.023,19034.68327928
1537733160000,0.023001,0.023001,0.023001,0.023001,2175.25772892
1537733400000,0.023,0.023,0.023,0.023,824.74227108
1537747140000,0.0266,0.0276,0.0276,0.0266,3060.291165710001
1537771740000,0.023,0.023,0.023,0.023,263.48354577
1537792860000,0.0222,0.0222,0.0222,0.0222,5654.89092395
1537800060000,0.023994,0.023994,0.023994,0.023994,1063.27861917
1537802280000,0.024,0.024,0.024,0.024,868.69
1537804320000,0.0222,0.0222,0.0222,0.0222,866.9526199999997
1537816980000,0.026972000000000003,0.026972000000000003,0.026972000000000003,0.026972000000000003,599.26578563
1537819560000,0.026971,0.026971,0.026971,0.026971,1002.0
1537836360000,0.02694,0.02694,0.02694,0.02694,5000.0
1537836960000,0.02694,0.02694,0.02694,0.02694,1000.0
1537854960000,0.02694,0.026971,0.026971,0.02694,1879.85721331
1537858800000,0.026972000000000003,0.026972000000000003,0.026972000000000003,0.026972000000000003,590.0
1537858860000,0.0384,0.0384,0.0384,0.0384,590.0
1537860360000,0.024025,0.024025,0.024025,0.024025,1940.33
1537862940000,0.02768,0.02768,0.02768,0.02768,1084.93521825
1537865340000,0.02289,0.02219,0.02289,0.02219,26283.3296
1537886580000,0.027782,0.027782,0.027782,0.027782,2095.3
1537993620000,0.026412,0.026412,0.026412,0.026412,1369.22712285
1538074680000,0.0294,0.023,0.0294,0.023,1510.8200000000006
1538097120000,0.0287,0.0287,0.0287,0.0287,1000.0
1538106420000,0.025,0.025,0.025,0.025,800.0
1538123040000,0.024598,0.024598,0.024598,0.024598,1329.24534612
1538142840000,0.0282,0.0289,0.0289,0.0282,1772.60261039
1538142960000,0.0297,0.0297,0.0297,0.0297,1000.0
1538144640000,0.028,0.028,0.028,0.028,2651.29392892
1538147940000,0.026893,0.026893,0.026893,0.026893,1339.38082022
1538154000000,0.027809,0.02781,0.02781,0.027808,5451.99970512
1538157660000,0.025,0.025,0.025,0.025,2000.0
1538161920000,0.028,0.028,0.028,0.028,600.0
1538162640000,0.027000000000000003,0.027000000000000003,0.027000000000000003,0.027000000000000003,1000.0
1538210040000,0.02601,0.02601,0.02601,0.02601,1000.0
1538244720000,0.02601,0.02601,0.02601,0.02601,502.0
1538244960000,0.025999,0.025999,0.025999,0.025999,1332.48985641
1538245140000,0.025999,0.025999,0.025999,0.025999,631.73042078
1538245260000,0.025999,0.025999,0.025999,0.025999,700.32890371
1538249160000,0.024785,0.024785,0.024785,0.024785,1212.78130391
1538249520000,0.023048,0.023048,0.023048,0.023048,3593.08141362
1538375340000,0.027232999999999997,0.027232999999999997,0.027232999999999997,0.027232999999999997,4297.64363097
1538384400000,0.028138,0.028138,0.028138,0.028138,1586.94153847
1538385360000,0.02925,0.029273,0.029273,0.02925,6315.5308902
1538385600000,0.03,0.03,0.03,0.03,999.0
1538418000000,0.03,0.07200000000000001,0.07200000000000001,0.03,13446.05761625
1538418060000,0.029594,0.031479,0.031479,0.029594,5723.85862955
1538418120000,0.031479,0.031479,0.031479,0.031479,3138.06214378
1538418300000,0.0305,0.0305,0.0305,0.0305,600.0
1538465760000,0.0305,0.0305,0.0305,0.0305,2900.0
1538467440000,0.030501,0.0305,0.030501,0.0305,5562.59108603
1538476320000,0.030968,0.030968,0.030968,0.030968,590.0
1538487000000,0.030969999999999998,0.030968,0.030969999999999998,0.030968,1816.57303797
1538523540000,0.033632,0.033632,0.033632,0.033632,600.0
1538523600000,0.033632,0.033632,0.033632,0.033632,600.0
1538523900000,0.033632,0.033632,0.033632,0.033632,265.2301724
1538593380000,0.030031,0.03,0.030031,0.03,2025.9422772
1538630700000,0.027999999999999997,0.027999999999999997,0.027999999999999997,0.027999999999999997,984.64738184
1538722680000,0.027686000000000002,0.0254,0.027686000000000002,0.0254,2143.52101197
1538722740000,0.023898,0.023898,0.023898,0.023898,3816.19652887
1538739480000,0.025967,0.025967,0.025967,0.025967,15605.35217081
1538747160000,0.027880000000000002,0.027880000000000002,0.027880000000000002,0.027880000000000002,882.32983664
1538747220000,0.027999999999999997,0.027999999999999997,0.027999999999999997,0.027999999999999997,1501.25829724
1538783520000,0.030555000000000002,0.030555000000000002,0.030555000000000002,0.030555000000000002,590.0
1538799240000,0.030032,0.030032,0.030032,0.030032,1638.76575727
1538799480000,0.0301,0.0301,0.0301,0.0301,100000.0
1538801100000,0.0301,0.0301,0.0301,0.0301,850.02588021
1538808420000,0.030555000000000002,0.030555000000000002,0.030555000000000002,0.030555000000000002,614.80167485
1538812680000,0.031007999999999997,0.031007999999999997,0.031007999999999997,0.031007999999999997,983.66272873
1538812740000,0.031007999999999997,0.031007999999999997,0.031007999999999997,0.031007999999999997,5.73e-06
1538907660000,0.028135000000000004,0.028135000000000004,0.028135000000000004,0.028135000000000004,2179.8316
1538988360000,0.028314999999999996,0.028314999999999996,0.028314999999999996,0.028314999999999996,2093.2
1539220320000,0.028314999999999996,0.028314999999999996,0.028314999999999996,0.028314999999999996,590.0
1539221160000,0.02723,0.02723,0.02723,0.02723,1395.49055677
1539264300000,0.0273,0.0273,0.0273,0.0273,649.0
1539301140000,0.025,0.025,0.025,0.025,950.0
1539496920000,0.02831,0.02831,0.02831,0.02831,649.0
1539586260000,0.02947,0.03,0.03,0.02947,1745.78758421
1539588960000,0.03957,0.03957,0.03957,0.03957,598.8
1539595800000,0.029,0.029,0.029,0.029,2262.39259523
1539609840000,0.032573000000000005,0.033460000000000004,0.033460000000000004,0.032573000000000005,3713.31347009
1539613260000,0.042809,0.030078,0.042809,0.030078,1200.0
1539613320000,0.0301,0.0301,0.0301,0.0301,600.0
1539613380000,0.0301,0.0301,0.0301,0.0301,800.0
1539613500000,0.0389,0.0389,0.0389,0.0389,1250.0
1539614160000,0.037911,0.037911,0.037911,0.037911,590.0
1539614820000,0.036618,0.036618,0.036618,0.036618,736.02
1539619440000,0.036618,0.036618,0.036618,0.036618,5311.17429501
1539622440000,0.036618,0.036618,0.036618,0.036618,6072.92756182
1539623820000,0.036618,0.036618,0.036618,0.036618,689.41
1539624960000,0.036618,0.036618,0.036618,0.036618,2490.46814317
1539630660000,0.0328,0.0328,0.0328,0.0328,1518.83177793
1539652020000,0.029066,0.029066,0.029066,0.029066,1700.0
1539652860000,0.029066,0.029066,0.029066,0.029066,2000.0
1539653040000,0.029066,0.029066,0.029066,0.029066,1600.0
1539661080000,0.029948,0.029948,0.029948,0.029948,598.8
1539661620000,0.030188,0.030188,0.030188,0.030188,1197.6
1539664920000,0.037902,0.039907,0.039907,0.037902,9386.3390531
1539667500000,0.030962,0.030962,0.030962,0.030962,2159.00410393
1539668100000,0.031163999999999997,0.031163999999999997,0.031163999999999997,0.031163999999999997,600.0
1539668400000,0.031164999999999998,0.031163999999999997,0.031164999999999998,0.031163999999999997,2944.44409055
1539736860000,0.03988,0.041499,0.041499,0.03988,5856.53136258
1539741660000,0.029437,0.029437,0.029437,0.029437,1371.11790389
1539752760000,0.035525,0.035528,0.035528,0.035525,2826.79709612
1539752820000,0.0408,0.044148,0.044148,0.0408,8180.60126121
1539753000000,0.03107,0.03107,0.03107,0.03107,882.0
1539756000000,0.030135,0.030135,0.030135,0.030135,2492.65614743
1539756060000,0.030068,0.0299,0.030068,0.0299,4507.34385257
1539756120000,0.0299,0.0299,0.0299,0.0299,6000.0
1539756180000,0.0299,0.0299,0.0299,0.0299,736.19539397
1539758700000,0.031,0.031,0.031,0.031,3428.91485148
1539760680000,0.030108,0.03,0.030108,0.03,21391.15235044
1539762600000,0.040875999999999996,0.040875999999999996,0.040875999999999996,0.040875999999999996,600.0
1539772200000,0.03007,0.030011000000000006,0.03007,0.030011000000000006,15782.18299999
1539772260000,0.030011000000000006,0.03,0.030011000000000006,0.03,9275.38669299
1539783060000,0.0387,0.03921,0.03921,0.0387,1000.0
1539783720000,0.03,0.03,0.03,0.03,590.0
1539793500000,0.032,0.032,0.032,0.032,4213.58715609
1539803880000,0.032260000000000004,0.032260000000000004,0.032260000000000004,0.032260000000000004,1042.89698813
1539806100000,0.032251,0.032251,0.032251,0.032251,590.0
1539819780000,0.03011,0.03011,0.03011,0.03011,3079.45638006
1539855840000,0.033407,0.0334,0.033407,0.0334,9966.94973415
1539858480000,0.03011,0.030008999999999997,0.03011,0.030008999999999997,29865.2694606
1539881340000,0.030024,0.030024,0.030024,0.030024,599.794
1539884760000,0.030001,0.03,0.030001,0.03,2147.8105573000007
1539884820000,0.03,0.03,0.03,0.03,1963.96094768
1539928380000,0.03,0.03,0.03,0.03,1958.7868290999997
1539948240000,0.03,0.03,0.03,0.03,4209.37356893
1539983940000,0.03,0.03,0.03,0.03,2134.32883533
1540057740000,0.0334,0.0334,0.0334,0.0334,649.0
1540058040000,0.0334,0.0334,0.0334,0.0334,401.0
1540223820000,0.03166,0.03166,0.03166,0.03166,590.0
1540279200000,0.030009,0.03,0.030009,0.03,6730.24574973
1540281900000,0.03,0.03,0.03,0.03,643.71
1540307160000,0.03,0.03,0.03,0.03,2260.4
1540312440000,0.03,0.03,0.03,0.029999,19284.56678014
1540444200000,0.03,0.03,0.03,0.03,1000.0
1540444320000,0.029,0.029,0.029,0.029,5000.0
1540445880000,0.028265,0.028265,0.028265,0.028265,5192.91608241
1540463880000,0.028265,0.028265,0.028265,0.028265,4977.52499999
1540484040000,0.031198000000000007,0.031198000000000007,0.031198000000000007,0.031198000000000007,1137.88770347
1540549800000,0.029046,0.029046,0.029046,0.029046,1000.0
1540591020000,0.029056,0.029056,0.029056,0.029056,598.8
1540651680000,0.029046,0.029046,0.029046,0.029046,1687.22733308
1540730280000,0.031729,0.031729,0.031729,0.031729,1177.64
1540733040000,0.033329000000000004,0.033329000000000004,0.033329000000000004,0.033329000000000004,700.0
1540742220000,0.030048,0.030048,0.030048,0.030048,10985.38356061
1540767720000,0.031381,0.031381,0.031381,0.031381,1481.70472705
1540770300000,0.031231,0.031232,0.031232,0.031231,1490.99802813
1540814880000,0.030128,0.030128,0.030128,0.030128,590.0
1540815060000,0.030403,0.030403,0.030403,0.030403,590.0
1540816020000,0.030084,0.030084,0.030084,0.030084,5040.91233339
1540816500000,0.030084,0.030084,0.030084,0.030084,5189.812335430001
1540816560000,0.030084,0.030084,0.030084,0.030084,1723.08509689
1540825020000,0.031,0.031,0.031,0.031,3549.46711295
1540827960000,0.031001,0.031001,0.031001,0.031001,2285.4670286
1540913460000,0.033068,0.033068,0.033068,0.033068,600.0
1540913520000,0.033068,0.033068,0.033068,0.033068,909.77188577
1540917900000,0.034117,0.034117,0.034117,0.034117,600.0
1540920060000,0.037999,0.038,0.038,0.037999,8005.13808531
1540920240000,0.0382,0.0382,0.0382,0.0382,590.0
1540922220000,0.038899,0.0389,0.0389,0.038899,2321.3003718
1540922280000,0.039744999999999996,0.04,0.04,0.039744999999999996,14375.32308075
1540923000000,0.041808,0.041011,0.042,0.041011,15483.88086189
1540923360000,0.04125,0.041359,0.041359,0.04125,9313.53162024
1540923420000,0.041449,0.0415,0.0415,0.041359,14855.70731896
1540923600000,0.042,0.042,0.042,0.042,3679.64024358
1540924800000,0.044983,0.044983,0.044983,0.044983,5177.64745344
1540926120000,0.040024000000000004,0.040024000000000004,0.040024000000000004,0.040024000000000004,3484.52190337
1540928820000,0.037756,0.037756,0.037756,0.037756,839.57402241
1540958220000,0.039754000000000005,0.039754000000000005,0.039754000000000005,0.039754000000000005,781.99084071
1540963260000,0.038,0.038,0.038,0.038,959.04
1540964280000,0.036978,0.036978,0.036978,0.036978,2329.45376938
1540964820000,0.036316,0.036316,0.036316,0.036316,5804.22949552
1540971960000,0.036883,0.036883,0.036883,0.036883,1559.56475308
1540978020000,0.040819,0.040819,0.040819,0.040819,775.38749578
1540979340000,0.042987,0.043,0.043,0.042987,2168.27911154
1540980540000,0.041824,0.041824,0.041824,0.041824,6410.6928692
1540988460000,0.044668,0.044519,0.044668,0.044519,2004.0100897999998
1540988580000,0.044788,0.044788,0.044788,0.044788,1041.85409114
1540988820000,0.044942,0.045,0.045,0.044942,4105.552342
1540990920000,0.046651,0.046651,0.046651,0.046651,764.39250927
1540991340000,0.044969,0.044969,0.044969,0.044969,726.1029179999997
1540992060000,0.045067,0.045067,0.045067,0.045067,725.37681508
1540994160000,0.04501,0.04501,0.04501,0.04501,1000.0
1540995300000,0.047353,0.047353,0.047353,0.047353,1337.53932985
1540995480000,0.047742,0.047742,0.047742,0.047742,781.23756646
1540996260000,0.044849,0.044849,0.044849,0.044849,728.45201083
1540996860000,0.045655,0.045655,0.045655,0.045655,2197.60429341
1541000520000,0.043918,0.043918,0.043918,0.043918,2195.40668912
1541001900000,0.04254,0.0425,0.04254,0.0425,22045.71471546
1541002800000,0.041768,0.041768,0.041768,0.041768,5140.0143879299985
1541015340000,0.040695,0.0405,0.040695,0.0405,6742.08906599
1541015520000,0.04,0.04,0.04,0.04,2014.83705325
1541024700000,0.042498,0.0425,0.0425,0.042498,8768.74385981
1541026920000,0.042213,0.042213,0.042213,0.042213,2266.14551591
1541030280000,0.043411,0.043411,0.043411,0.043411,3501.40055347
1541032320000,0.044558,0.044558,0.044558,0.044558,681.73914859
1541032920000,0.045,0.045,0.045,0.045,1198.8
1541034120000,0.04474,0.04474,0.04474,0.04474,768.36558108
1541046660000,0.04047,0.04047,0.04047,0.04047,743.69691314
1541048940000,0.041238,0.041238,0.041238,0.041238,1183.85501083
1541056500000,0.041593,0.041593,0.041593,0.041593,3700.0
1541089140000,0.039216,0.039216,0.039216,0.039216,1114.68991906
1541092500000,0.038876,0.038876,0.038876,0.038876,1135.02427398
1541162100000,0.04,0.04,0.04,0.04,2216.14942527
1541172840000,0.038,0.038,0.038,0.038,5343.25237217
1541239740000,0.041641,0.043,0.043,0.041641,9188.2479433
1541246940000,0.037003,0.037003,0.037003,0.037003,2916.43231493
1541250480000,0.037000000000000005,0.037000000000000005,0.037000000000000005,0.037000000000000005,1395.72320445
1541277120000,0.03701,0.03701,0.03701,0.03701,590.0
1541284140000,0.03701,0.03701,0.03701,0.03701,590.0
1541336160000,0.03701,0.03701,0.03701,0.03701,1667.6420418
1541338620000,0.03701,0.03701,0.03701,0.03701,2211.71712642
1541348940000,0.03701,0.036410000000000005,0.03701,0.036410000000000005,1766.9342332600006
1541349660000,0.036410000000000005,0.036410000000000005,0.036410000000000005,0.036410000000000005,2251.37048676
1541352840000,0.036410000000000005,0.0364,0.036410000000000005,0.0364,760.095
1541365140000,0.040765,0.041,0.041,0.040765,5000.0
1541365200000,0.041,0.04213,0.04213,0.041,2659.64137569
1541375520000,0.0364,0.0356,0.0364,0.0356,16639.9320574
1541375760000,0.033763999999999995,0.033763999999999995,0.033763999999999995,0.033763999999999995,1304.2445426
1541376300000,0.034444,0.034444,0.034444,0.034444,1304.2445426
1541399640000,0.034061,0.034061,0.034061,0.034061,590.0
1541405460000,0.033908999999999995,0.033908999999999995,0.033908999999999995,0.033908999999999995,907.67185586
1541431620000,0.034074,0.034074,0.034074,0.034074,1331.65498731
1541445420000,0.034,0.034,0.034,0.034,1508.66807393
1541448840000,0.040237,0.040237,0.040237,0.040237,10000.0
1541494200000,0.038624,0.038624,0.038624,0.038624,2246.10284431
1541494260000,0.038625,0.038625,0.038625,0.038625,845.19010019
1541507700000,0.037000000000000005,0.037000000000000005,0.037000000000000005,0.037000000000000005,2235.70512524
1541511180000,0.035,0.035,0.035,0.035,598.8
1541511240000,0.035,0.033,0.035,0.033,8497.42473642
1541530560000,0.033053,0.033053,0.033053,0.033053,5167.29215853
1541531160000,0.033386,0.033386,0.033386,0.033386,1729.61120819
1541645100000,0.033506,0.033506,0.033506,0.033506,998.0
1541653800000,0.036794,0.036794,0.036794,0.036794,1500.0
1541733660000,0.034069,0.034069,0.034069,0.034069,1751.50652287
1541739240000,0.034069,0.034069,0.034069,0.034069,1751.93229831
1541757000000,0.034098,0.033503,0.034098,0.033503,1717.6686393999994
1541767980000,0.033503,0.033,0.033503,0.033,3600.0
1541773800000,0.033,0.033,0.033,0.033,2060.85723302
1541782740000,0.036829,0.03683,0.03683,0.036829,1540.28041863
1541859960000,0.038686,0.038725,0.038725,0.038686,2477.35501899
1541860020000,0.03385,0.03385,0.03385,0.03385,999.0
1541877780000,0.03949,0.03949,0.03949,0.03949,1300.0
1541914680000,0.036000000000000004,0.036000000000000004,0.036000000000000004,0.036000000000000004,600.0
1541928060000,0.035781,0.035781,0.035781,0.035781,921.38184944
1541965680000,0.033533999999999994,0.033103,0.033533999999999994,0.033103,4903.174
1542013260000,0.033393,0.033393,0.033393,0.033393,598.8
1542013740000,0.033393,0.033393,0.033393,0.033393,598.8
1542013860000,0.033393,0.033393,0.033393,0.033393,598.5
1542013920000,0.033393,0.033393,0.033393,0.033393,598.8
1542013980000,0.033393,0.033393,0.033393,0.033393,998.0
1542098760000,0.035054,0.035054,0.035054,0.035054,600.0
1542124680000,0.033681,0.033681,0.033681,0.033681,1035.76248847
1542138120000,0.033051,0.033,0.033051,0.033,2531.50682342
1542138240000,0.033,0.033,0.033,0.033,2036.06251963
1542190740000,0.032104,0.032101,0.032104,0.032101,1919.74582282
1542192120000,0.031141000000000002,0.030128,0.031141000000000002,0.030128,4895.00069673
1542192180000,0.030083999999999996,0.030083999999999996,0.030083999999999996,0.030083999999999996,2744.2529999999997
1542192240000,0.030083999999999996,0.030083999999999996,0.030083999999999996,0.030083999999999996,6096.12716404
1542193320000,0.030083999999999996,0.030083999999999996,0.030083999999999996,0.030083999999999996,7039.374855300001
1542209160000,0.030083999999999996,0.029088,0.030083999999999996,0.029088,12337.65
1542224760000,0.02891,0.02891,0.02891,0.02891,727.72355882
1542225540000,0.02891,0.02891,0.02891,0.02891,599.4
1542227700000,0.02891,0.02891,0.02891,0.02891,172.87644118
1542274020000,0.026,0.026,0.026,0.026,780.45632889
1542279540000,0.026,0.025526,0.026,0.025526,2052.8024298
1542313920000,0.02828,0.02828,0.02828,0.02828,649.0
1542317340000,0.025321,0.024626,0.025321,0.024626,1931.20639921
1542535380000,0.02598,0.026010000000000002,0.026010000000000002,0.02598,1806.25986199
1542535620000,0.02611,0.026119,0.026119,0.02611,1248.4
1542546540000,0.027000000000000003,0.027000000000000003,0.027000000000000003,0.027000000000000003,1674.20139148
1542552960000,0.024574,0.024574,0.024574,0.024574,4653.0
1542618180000,0.023001,0.023001,0.023001,0.023001,2275.1493272
1542618240000,0.023,0.023,0.023,0.023,3651.8880799999997
1542618300000,0.023,0.021046,0.023,0.021046,14969.27736022
1542620760000,0.021,0.021,0.021,0.021,4000.0
1542637680000,0.020093,0.020093,0.020093,0.020093,3972.0753501
1542689280000,0.020093,0.020093,0.020093,0.020093,1990.00004003
1542689940000,0.018185,0.018185,0.018185,0.018185,1198.8
1542696420000,0.018185,0.018185,0.018185,0.018185,2654.32209294
1542698220000,0.018185,0.017455000000000002,0.018185,0.017455000000000002,4455.77510876
1542797040000,0.01662,0.01662,0.01662,0.01662,1459.11278048
1543076100000,0.015479,0.015224,0.015479,0.015224,3376.02
1543094640000,0.015225,0.015225,0.015225,0.015225,588.82
1543098000000,0.015226,0.015224,0.015226,0.015224,8000.0
1543098060000,0.0144,0.0143,0.0144,0.0143,937.47
1543123140000,0.0143,0.0143,0.0143,0.0143,3312.53
1543232940000,0.0243,0.0243,0.0243,0.0243,2994.0
1543233180000,0.023780000000000003,0.023780000000000003,0.023780000000000003,0.023780000000000003,2988.012
1543235580000,0.016898,0.016898,0.016898,0.016898,2894.77373145
1543238220000,0.022674,0.022674,0.022674,0.022674,1000.0
1543331340000,0.0155,0.0155,0.0155,0.0155,4074.91898316
1543337340000,0.021658,0.021658,0.021658,0.021658,10100.0
1543337460000,0.016818,0.016818,0.016818,0.016818,6366.60392409
1543354140000,0.015884,0.015884,0.015884,0.015884,1573.82522134
1543354260000,0.015,0.015,0.015,0.015,1981.87338267
1543420620000,0.015524000000000001,0.015524000000000001,0.015524000000000001,0.015524000000000001,2480.02999998
1543439040000,0.017225999999999998,0.017225999999999998,0.017225999999999998,0.017225999999999998,1572.25139612
1543570200000,0.021213,0.021213,0.021213,0.021213,700.0
1543570260000,0.015444,0.015444,0.015444,0.015444,1077.84
1543576140000,0.0154,0.0154,0.0154,0.0154,5491.55351371
1543681620000,0.017005000000000003,0.017005000000000003,0.017005000000000003,0.017005000000000003,997.002
1543682940000,0.018071,0.018071,0.018071,0.018071,998.0
1543820040000,0.0162,0.0162,0.0162,0.0162,6173.0
1543834200000,0.015906,0.015906,0.015906,0.015906,207.23202817
1544087460000,0.017981,0.018000000000000002,0.018000000000000002,0.017981,5187.7332967500015
1544096220000,0.015409,0.0148,0.015409,0.0148,30834.60582515
1544112420000,0.014066,0.014066,0.014066,0.014066,2378.234
1544165940000,0.017769999999999998,0.017769999999999998,0.017769999999999998,0.017769999999999998,1000.0
1544278020000,0.014283,0.014283,0.014283,0.014283,1241.64811454
1544278140000,0.010824,0.010824,0.010824,0.010824,3441.38038406
1544530680000,0.016217,0.016217,0.016217,0.016217,3731.0
1544607720000,0.015934,0.015934,0.015934,0.015934,3527.3368607
1544624940000,0.012097,0.012097,0.012097,0.012097,5536.0
1544700060000,0.013359,0.013359,0.013359,0.013359,3340.58745023
1544915160000,0.012098999999999999,0.010825,0.012098999999999999,0.010825,9980.0
1544964420000,0.01476,0.01091,0.01476,0.01091,1478.52
1544964540000,0.010975,0.010975,0.010975,0.010975,738.52
1545078660000,0.01476,0.01476,0.01476,0.01476,1606.85591859
1545178020000,0.014234,0.014234,0.014234,0.014234,3132.38795533
1545185760000,0.01458,0.01458,0.01458,0.01458,5639.57212711
1545336000000,0.01476,0.01476,0.01476,0.01476,1000.0
1545345840000,0.01476,0.01476,0.01476,0.01476,1250.0
1545614700000,0.01476,0.01476,0.01476,0.01476,2163.63624849
1545642360000,0.015934,0.016277,0.016277,0.015934,4168.61125996
1545709800000,0.014325,0.014325,0.014325,0.014325,2473.33113423
1545944040000,0.014115,0.014115,0.014115,0.014115,1524.5218916
1545946080000,0.013291999999999998,0.013291999999999998,0.013291999999999998,0.013291999999999998,1000.0
1546215180000,0.014777,0.014777,0.014777,0.014777,1500.0
1546442520000,0.01324,0.01324,0.01324,0.01324,5666.7232465000025
1546494960000,0.013414,0.013414,0.013414,0.013414,2280.15176807
1546495020000,0.013301,0.013301,0.013301,0.013301,3525.68583532
1546811760000,0.016279,0.016279,0.016279,0.016279,3142.49981846
1546811880000,0.016280000000000003,0.016280000000000003,0.016280000000000003,0.016280000000000003,15978.545903
1546818240000,0.014616,0.014601,0.014616,0.014601,3592.91786036
1546909560000,0.017581,0.017581,0.017581,0.017581,1000.0
1546909620000,0.017581,0.018214,0.018214,0.017581,1000.0
1547054880000,0.016904,0.016904,0.016904,0.016904,750.0
1547102700000,0.014788999999999997,0.013197,0.014788999999999997,0.013197,5677.42704825
1547102760000,0.013197,0.013197,0.013197,0.013197,3030.98959537
1547126460000,0.011809,0.011809,0.011809,0.011809,998.0
1547206140000,0.011288,0.011288,0.011288,0.011288,6015.78
1547283540000,0.011569,0.011569,0.011569,0.011569,1590.39647308
1547318700000,0.01194,0.01194,0.01194,0.01194,971.05373982
1547362680000,0.0144,0.0144,0.0144,0.0144,998.0
1547362740000,0.015331,0.018897,0.018897,0.015331,15973.76494638
1547362860000,0.018335,0.021377,0.021377,0.018335,7980.06462211
1547362920000,0.021254,0.024939,0.024939,0.021254,30000.0
1547373360000,0.013022,0.013036,0.013036,0.013022,5103.22862325
1547395140000,0.021714,0.021714,0.021714,0.021714,1010.0
1547395320000,0.013037,0.013037,0.013037,0.013037,1007.98
1547421360000,0.013052,0.013037,0.013052,0.013037,6561.2858
1547423280000,0.013037,0.013037,0.013037,0.013037,9552.2918
1547424840000,0.013037,0.013,0.013037,0.013,7277.1826138
1547424960000,0.012791,0.012791,0.012791,0.012791,1690.1654862
1547427360000,0.014477,0.014491999999999996,0.014491999999999996,0.014477,5000.0
1547429760000,0.012791,0.012791,0.012791,0.012791,807.78038
1547429880000,0.012791,0.012791,0.012791,0.012791,7064.02897549
1547431500000,0.013001,0.013001,0.013001,0.013001,3074.47982468
1547462700000,0.013,0.013,0.013,0.013,740.0
1547462820000,0.01233,0.01233,0.01233,0.01233,6974.0
1547548860000,0.01411,0.01411,0.01411,0.01411,1000.0
1547661540000,0.01348,0.01348,0.01348,0.01348,5960.052
1547661660000,0.013666,0.013576,0.013666,0.013576,5960.052
1547679780000,0.0133,0.0133,0.0133,0.0133,4990.0
1547727240000,0.015054,0.01506,0.01506,0.015054,4995.598166760001
1547803800000,0.019776,0.019754,0.019776,0.019754,2118.0
1547803860000,0.01975,0.019754,0.019754,0.01975,1380.0
1547911560000,0.013684,0.013684,0.013684,0.013684,2315.79773564
1547912400000,0.013734,0.013734,0.013734,0.013734,1855.04656575
1547919780000,0.01916,0.01916,0.01916,0.01916,800.0
1547920500000,0.013794,0.013794,0.013794,0.013794,1851.09257244
1547935020000,0.013905,0.013905,0.013905,0.013905,1851.09257244
1547935380000,0.014125,0.014125,0.014125,0.014125,1083.07316911
1547935740000,0.014235,0.014235,0.014235,0.014235,1998.77832413
1547983800000,0.013743,0.013742,0.013743,0.013742,3775.01769378
1547983860000,0.013742,0.013742,0.013742,0.013742,394.05563124
1548112020000,0.013666,0.013666,0.013666,0.013666,1108.52714677
1548144480000,0.017197,0.017218999999999998,0.017218999999999998,0.017197,6550.30985374
1548144540000,0.018075,0.018093,0.018093,0.018075,4609.11511136
1548146340000,0.013326,0.013326,0.013326,0.013326,3924.02741817
1548146640000,0.013369,0.013368,0.013369,0.013368,4515.15983526
1548645540000,0.012288,0.012288,0.012288,0.012288,1497.0
1548742140000,0.012286,0.012286,0.012286,0.012286,5377.9326
1548742320000,0.012286,0.012286,0.012286,0.012286,8950.0674
1548743100000,0.012197,0.012197,0.012197,0.012197,4012.77775519
1548743160000,0.011198,0.011198,0.011198,0.011198,1292.20144481
1549313340000,0.011239,0.011239,0.011239,0.011239,3238.83056694
1549526280000,0.011199,0.011199,0.011199,0.011199,999.8
1550065020000,0.011369,0.01138,0.01138,0.011369,26932.49330041
1550071560000,0.0116,0.0116,0.0116,0.0116,3690.0
1550071800000,0.01169,0.011681,0.01169,0.011681,37191.54516239
1550072040000,0.011929,0.011929,0.011929,0.011929,8457.77910447
1550103180000,0.012371,0.012371,0.012371,0.012371,5138.0000111
1550103540000,0.011899,0.0119,0.0119,0.011899,6269.99090909
1550224020000,0.01121,0.01121,0.01121,0.01121,4040.24603218
1550361420000,0.010801,0.0108,0.010801,0.0108,3526.85512367
1550573220000,0.010036,0.010036,0.010036,0.010036,2513.488
1550620080000,0.010186,0.010186,0.010186,0.010186,1371.48317485
1550665740000,0.010547,0.010547,0.010547,0.010547,5194.6088913
1550841840000,0.012328,0.012328,0.012328,0.012328,1998.0
1550844780000,0.017,0.017,0.017,0.017,1744.3888745000006
1550857680000,0.013929,0.013929,0.013929,0.013929,1035.66510661
1550875020000,0.011805,0.011615,0.011805,0.011615,4701.07093352
1550880060000,0.011602,0.011602,0.011602,0.011602,4781.20289187
1550915760000,0.010507,0.010507,0.010507,0.010507,9262.0
1550937360000,0.0117,0.0117,0.0117,0.0117,4700.0
1550937480000,0.0115,0.0115,0.0115,0.0115,5000.0
1550991000000,0.0116,0.0116,0.0116,0.0116,4490.78987414
1551017340000,0.0113,0.0113,0.0113,0.0113,4712.45061479
1551019740000,0.0113,0.0111,0.0113,0.0111,5287.54938521
1551026520000,0.010012,0.010001,0.010012,0.010001,5195.65823479
1551027240000,0.010003,0.01,0.010003,0.01,7169.25117533
1551032400000,0.0092741,0.0092741,0.0092741,0.0092741,1740.90009675
1551111900000,0.0094355,0.0094355,0.0094355,0.0094355,7917.8954942
1551125340000,0.010563,0.010563,0.010563,0.010563,3969.63231281
1551300000000,0.010346,0.010346,0.010346,0.010346,3556.50395661
1551492960000,0.011311,0.011311,0.011311,0.011311,3812.79191689
1551529320000,0.011483,0.011483,0.011483,0.011483,1746.6151255
1551529440000,0.01227,0.01227,0.01227,0.01227,4328.46815221
1551595740000,0.01152,0.01152,0.01152,0.01152,3245.17280545
1551670080000,0.010768000000000002,0.010768000000000002,0.010768000000000002,0.010768000000000002,1969.88177257
1551732300000,0.012343000000000002,0.012356,0.012356,0.012343000000000002,4378.27427334
1551732360000,0.012356,0.012356,0.012356,0.012356,377.77084134
1551956460000,0.011496,0.011484,0.011496,0.011484,4392.7027944
1552430400000,0.01162,0.01162,0.01162,0.01162,24139.87144741
1552910520000,0.0099,0.0099,0.0099,0.0099,101000.0
1552910580000,0.0099,0.0099,0.0099,0.0099,4627.48691554
1553679060000,0.014249,0.01425,0.01425,0.014249,3619.67914511
1553684040000,0.01449,0.01449,0.01449,0.01449,1609.91918422
1553705880000,0.008307,0.008160200000000001,0.008307,0.008160200000000001,2563.7073571700007
1553709420000,0.01417,0.01417,0.01417,0.01417,998.0
1553783640000,0.013994,0.013994,0.013994,0.013994,892.89329181
1553879100000,0.013263999999999998,0.013263999999999998,0.013263999999999998,0.013263999999999998,891.10750523
1553991840000,0.013994,0.013994,0.013994,0.013994,1780.0
1553992080000,0.0148,0.016672,0.016672,0.0148,4236.03077913
1553992140000,0.0167,0.0167,0.0167,0.0167,10680.3
1553992260000,0.02,0.02,0.02,0.02,880.0
1553992920000,0.0148,0.0148,0.0148,0.0148,38516.02910632
1553992980000,0.0148,0.0148,0.0148,0.0148,45133.83605766
1553993040000,0.0148,0.0148,0.0148,0.0148,73333.88866721
1553993160000,0.0148,0.0148,0.0148,0.0148,2492.25851564
1553993280000,0.021572,0.024,0.024,0.021572,40377.18582634
1553993400000,0.02407,0.05,0.05,0.02407,30753.16568748
1553993820000,0.041,0.041,0.041,0.041,77488.43731539001
1553993880000,0.040958,0.040958,0.040958,0.040958,4277.11517015
1553994120000,0.021,0.021,0.021,0.021,2492.50239487
1553994180000,0.021,0.021,0.021,0.021,2336.71724523
1553994240000,0.0398,0.0398,0.0398,0.0398,4829.2196401
1553994300000,0.054000000000000006,0.054000000000000006,0.054000000000000006,0.054000000000000006,899.33755214
1553994360000,0.054000000000000006,0.054000000000000006,0.054000000000000006,0.054000000000000006,2783.18140076
1553994480000,0.053,0.053,0.053,0.053,27015.51205015
1553994600000,0.051987,0.052000000000000005,0.052000000000000005,0.051987,25374.17029291
1553994720000,0.054312,0.054312,0.054312,0.054312,880.0
1553994780000,0.054000000000000006,0.054000000000000006,0.054000000000000006,0.054000000000000006,880.0
1553994840000,0.05399,0.05399,0.05399,0.05399,34504.61664352
1553994900000,0.053979999999999986,0.053979999999999986,0.053979999999999986,0.053979999999999986,2500.0
1553994960000,0.053979999999999986,0.053979999999999986,0.053979999999999986,0.053979999999999986,32048.68461837
1553995020000,0.05397,0.05397,0.05397,0.05397,32078.68431387
1553995080000,0.05396,0.05396,0.05396,0.05396,3835.97731863
1553995140000,0.05396,0.05396,0.05396,0.05396,3862.47256998
1553995200000,0.05395,0.05395,0.05395,0.05395,3889.1508251
1553995440000,0.022,0.022,0.022,0.022,890.0
1553995680000,0.015052,0.015052,0.015052,0.015052,4400.0
1553995860000,0.014004,0.014,0.014004,0.014,100451.84491507
1553995920000,0.014,0.013535,0.014,0.013535,136253.44259031
1553999760000,0.0168,0.0168,0.0168,0.0168,1000.0
1554007860000,0.0166,0.0166,0.0166,0.0166,3761.9048
1554007980000,0.0166,0.0166,0.0166,0.0166,6100.0
1554010260000,0.013836,0.013836,0.013836,0.013836,21876.0
1554012000000,0.014578,0.014578,0.014578,0.014578,3975.1373
1554012300000,0.014013,0.013954,0.014013,0.013954,12871.39652228
1554014640000,0.015839,0.015839,0.015839,0.015839,1020.1131
1554015420000,0.014283,0.014283,0.014283,0.014283,3562.91485496
1554024420000,0.0143,0.0143,0.0143,0.0143,2398.60042056
1554079920000,0.0158,0.0158,0.0158,0.0158,1362.8427684
1554080760000,0.0158,0.0158,0.0158,0.0158,1265.8
1554081240000,0.0158,0.0158,0.0158,0.0158,1780.0
1554111780000,0.0146,0.014036000000000002,0.0146,0.014036000000000002,15669.4524316
1554136980000,0.01515,0.01515,0.01515,0.01515,1000.0
1554204060000,0.014036000000000002,0.014036000000000002,0.014036000000000002,0.014036000000000002,1000.0
1554205320000,0.01506,0.01506,0.01506,0.01506,3398.58618814
1554205380000,0.01506,0.01506,0.01506,0.01506,3360.89265308
1554206820000,0.01501,0.01501,0.01501,0.01501,1997.67635878
1554241980000,0.014036000000000002,0.014036000000000002,0.014036000000000002,0.014036000000000002,998.0
1554260400000,0.01405,0.01405,0.01405,0.01405,997.9096359
1554308880000,0.015079,0.015079,0.015079,0.015079,1264.5342
1554332340000,0.015166999999999996,0.015166999999999996,0.015166999999999996,0.015166999999999996,10000.0
1554332760000,0.015114,0.015,0.015114,0.015,12999.37741127
1554332820000,0.015,0.015,0.015,0.015,1743.55448983
1554344460000,0.014504,0.014504,0.014504,0.014504,9980.0
1554675300000,0.017387,0.017387,0.017387,0.017387,1457.64507201
1554676440000,0.017365000000000002,0.017366,0.017366,0.017365000000000002,1579.48069282
1554953880000,0.014859,0.014858,0.014859,0.014858,3291.92204278
1554953940000,0.0145,0.0145,0.0145,0.0145,1000.0
1555007640000,0.014,0.014,0.014,0.014,1000.0
1555204080000,0.023041,0.023041,0.023041,0.023041,900.0
1555204140000,0.022,0.022,0.022,0.022,2000.0
1555204200000,0.022,0.0215,0.022,0.0215,9100.0
1555204260000,0.0134,0.0145,0.0145,0.0134,17800.0
1555204320000,0.0213,0.021278,0.0213,0.021278,10000.0
1555204380000,0.0212,0.0212,0.0212,0.0212,5300.0
1555204500000,0.0147,0.021,0.021,0.0147,23500.0
1555204560000,0.0207,0.0147,0.0207,0.0147,21500.0
1555204620000,0.0205,0.0147,0.0205,0.0147,29800.0
1555204680000,0.0204,0.0204,0.0204,0.0204,15000.0
1555204740000,0.0147,0.0203,0.0203,0.0147,30000.0
1555204860000,0.0148,0.0203,0.0203,0.0148,22500.0
1555204920000,0.0203,0.0203,0.0203,0.0203,7500.0
1555204980000,0.021163,0.021163,0.021163,0.021163,1000.0
1555205040000,0.0147,0.0203,0.0203,0.0147,60000.0
1555205100000,0.0202,0.0149,0.0202,0.0149,32500.0
1555205160000,0.022,0.0201,0.022,0.0201,24998.0
1555205220000,0.0149,0.0149,0.0201,0.0149,75000.0
1555205280000,0.0201,0.0149,0.0201,0.0149,50190.0
1555205340000,0.0201,0.0149,0.0201,0.0149,49994.98403363
1555205460000,0.02005,0.0149,0.023,0.0149,51000.0
1555205520000,0.022,0.0218,0.022,0.0149,75000.0
1555206060000,0.015,0.015016,0.015016,0.015,4571.21674387
1555207860000,0.0151,0.0151,0.0151,0.0151,2012.50785053
1555207920000,0.015119999999999996,0.0153,0.0153,0.015119999999999996,24800.0
1555207980000,0.02,0.02,0.02,0.02,1000.0
1555208040000,0.0154,0.01539,0.0154,0.015386000000000004,22987.49214947
1555208100000,0.01539,0.0198,0.0198,0.01539,21916.01782764
1555208160000,0.0185,0.0155,0.0185,0.0155,30760.38749825
1555208280000,0.019,0.015416,0.019,0.015416,61000.0
1555208340000,0.0155,0.0186,0.0186,0.0155,60439.69324041
1555208400000,0.0184,0.0183,0.0185,0.0183,62700.0
1555208460000,0.0156,0.0156,0.0156,0.0156,67747.3340625
1555208520000,0.0179,0.0179,0.0179,0.0179,61200.0
1555208580000,0.0158,0.0177,0.0177,0.0158,122900.0
1555208640000,0.0158,0.0174,0.0176,0.0158,130500.0
1555208940000,0.01591,0.02179,0.02179,0.01591,2000.0
1555209000000,0.016,0.021,0.021,0.016,54700.0
1555209060000,0.0205,0.0164,0.0209,0.0164,112900.0
1555209120000,0.0205,0.0165,0.0205,0.0165,128900.0
1555209180000,0.02,0.0202,0.0203,0.02,69700.0
1555209240000,0.0166,0.022,0.022,0.0166,70500.0
1555209300000,0.022,0.022,0.022,0.022,1000.0
1555209360000,0.023041,0.0202,0.023041,0.0202,70200.0
1555209420000,0.0168,0.02,0.02,0.0167,71000.0
1555209480000,0.0198,0.0167,0.0198,0.0167,122600.0
1555209540000,0.019,0.0189,0.019,0.0189,61600.0
1555209600000,0.0169,0.018000000000000002,0.018000000000000002,0.0168,70400.0
1555209660000,0.0177,0.0177,0.0177,0.0177,61400.0
1555209720000,0.015,0.015,0.015,0.015,26015.34203867
1555209780000,0.014,0.014,0.014,0.014,36300.0
1555209840000,0.0199,0.0145,0.0199,0.0145,74300.0
1555209900000,0.019,0.0145,0.0196,0.0145,147300.0
1555209960000,0.018000000000000002,0.0179,0.018000000000000002,0.0179,55659.84679352
1555210020000,0.0146,0.0175,0.0178,0.0146,117300.0
1555210260000,0.0174,0.014611,0.0174,0.014611,2000.0
1555210320000,0.0148,0.0168,0.0172,0.0148,151200.0
1555210380000,0.0149,0.0149,0.0167,0.0149,266600.0
1555210440000,0.018000000000000002,0.015,0.018000000000000002,0.015,79998.0
1555210500000,0.0177,0.0151,0.0177,0.0151,111700.0
1555210560000,0.0174,0.0175,0.0175,0.015116,111800.0
1555210620000,0.0174,0.0153,0.0174,0.0153,81600.0
1555210680000,0.0152,0.01401,0.0153,0.01401,90372.2891519
1555211460000,0.021,0.021,0.021,0.021,10000.0
1555211640000,0.017230000000000002,0.015,0.017230000000000002,0.015,77853.80467662
1555211700000,0.01523,0.01523,0.01523,0.01523,16700.0
1555220280000,0.014512,0.014200999999999997,0.014512,0.014200999999999997,10000.0
1555220340000,0.014215,0.0142,0.014215,0.0142,4190.0
1555220400000,0.01401,0.01401,0.01401,0.01401,2732.46766595
1555228980000,0.017,0.017,0.017,0.017,2729.73519828
1555232220000,0.016871,0.016871,0.016871,0.016871,1274.3197
1555237920000,0.016,0.016,0.016,0.016,5198.993776300002
1555245360000,0.01598,0.01598,0.01598,0.01598,916.9034
1555253400000,0.016871,0.016871,0.016871,0.016871,1606.21339699
1555255200000,0.014347,0.01434,0.014347,0.01434,49950.0
1555272000000,0.015,0.015,0.015,0.015,958.7869
1555276020000,0.015,0.015,0.015,0.015,41.2131
1555276140000,0.015,0.015,0.015,0.015,3618.992272
1555277580000,0.015,0.015599000000000003,0.015599000000000003,0.015,13789.65465359
1555283880000,0.01551,0.015589,0.015589,0.01551,19547.56283718
1555287180000,0.01557,0.01557,0.01557,0.01557,5321.99748321
1555313100000,0.014756,0.014756,0.014756,0.014756,2879.29444316
1555313280000,0.015002,0.015002,0.015002,0.015002,2852.004111
1555313520000,0.015002,0.015002,0.015002,0.015002,2852.004111
1555319340000,0.015002,0.015002,0.015002,0.015002,14958.16517766
1555320420000,0.015002,0.015002,0.015002,0.015002,18704.7445736
1555320540000,0.015595,0.015595,0.015595,0.015595,1000.0
1555321020000,0.015002,0.015002,0.015002,0.015002,8998.0
1555321140000,0.015002,0.015002,0.015002,0.015002,8000.0
1555323420000,0.015002,0.015002,0.015002,0.015002,20456.01882925
1555326600000,0.015002,0.015002,0.015002,0.015002,12926.5385
1555327860000,0.015002,0.015002,0.015002,0.015002,12732.913
1555331220000,0.015002,0.014344,0.015002,0.014344,32950.52876391
1555337640000,0.016871,0.016871,0.016871,0.016871,1000.0
1555347360000,0.014344,0.014344,0.014344,0.014344,14060.35057551
1555347540000,0.01434,0.01434,0.01434,0.01434,20000.0
1555348320000,0.014344,0.014344,0.014344,0.014344,1796.43542449
1555362420000,0.014233,0.01402,0.014233,0.01402,2702.62069117
1555569180000,0.01404,0.01404,0.01404,0.01404,7321.72625826
1555569240000,0.01404,0.01404,0.01404,0.01404,2319.23114174
1555606320000,0.0134,0.0134,0.0134,0.0134,1603.0009702
1555683420000,0.014,0.014,0.014,0.014,7185.2084746599985
1555683480000,0.014,0.014,0.014,0.014,3875.36815997
1555683600000,0.014,0.014,0.014,0.014,8899.42336537
1556099640000,0.012001,0.012,0.012001,0.012,5000.0
1556230080000,0.012,0.012,0.012,0.012,7015.18696005
1556310420000,0.010322,0.010322,0.010322,0.010322,1758.592
1556402520000,0.013969999999999998,0.013969999999999998,0.013969999999999998,0.013969999999999998,6754.82754
1556402640000,0.011874,0.011874,0.011874,0.011874,4479.01721664
1556685240000,0.01305,0.01305,0.01305,0.01305,500.0
1556805180000,0.010934,0.010934,0.010934,0.010934,11233.967435200002
1556940060000,0.013058000000000002,0.013058000000000002,0.013058000000000002,0.013058000000000002,879.8732042000001
1556942160000,0.013058000000000002,0.013061,0.013061,0.013058000000000002,4474.538199430001
1557003420000,0.013058000000000002,0.013058000000000002,0.013058000000000002,0.013058000000000002,839.67536942
1557118260000,0.013,0.013,0.013,0.013,1000.0
1557153600000,0.011375,0.011375,0.011375,0.011375,2825.68025471
1557155340000,0.01137,0.01137,0.01137,0.01137,500.0
1557162240000,0.011373,0.011373,0.011373,0.011373,3746.60216157
1557164220000,0.011374,0.011374,0.011374,0.011374,500.0
1557165000000,0.011374,0.011374,0.011374,0.011374,500.0
1557224220000,0.011371,0.011371,0.011371,0.011371,3894.16618956
1557234780000,0.011374,0.011374,0.011374,0.011374,350.0
1557346500000,0.011375,0.011375,0.011375,0.011375,395.51021515
1557346560000,0.013,0.013,0.013,0.013,5000.0
1557425400000,0.0094201,0.0094201,0.0094201,0.0094201,2000.0
1557425580000,0.0094201,0.00942,0.0094201,0.00942,5003.87992913
1557445740000,0.00942,0.00942,0.00942,0.00942,3185.24358394
1557457740000,0.0091,0.0091,0.0091,0.0091,3260.0
1557457800000,0.009000000000000001,0.008915000000000001,0.009000000000000001,0.008915000000000001,7818.330164819998
1557608700000,0.0129,0.0129,0.0129,0.0129,4516.87886907
1557622740000,0.008431600000000001,0.011422,0.011422,0.008431600000000001,8311.35348824
1557622800000,0.0085,0.0085,0.0085,0.0085,2997.0
1557637560000,0.009583,0.009583,0.009583,0.009583,5233.47560223
1557638100000,0.0095,0.009583,0.009583,0.0095,4068.88388601
1557648780000,0.0096024,0.0096024,0.0096024,0.0096024,5108.32793765
1557649980000,0.009604,0.009604,0.009604,0.009604,1597.7499
1557699660000,0.009604,0.009604,0.009604,0.009604,3124.21529466
1557805680000,0.0096064,0.0096064,0.0096064,0.0096064,499.0
1557849960000,0.01,0.01,0.01,0.01,4408.10998529
1557863820000,0.0128,0.0128,0.0128,0.0128,2200.0
1557874140000,0.011,0.011,0.011,0.011,2020.0
1557946740000,0.0129,0.0129,0.0129,0.0129,800.0
1557946800000,0.0129,0.0129,0.0129,0.0129,2000.0
1557947700000,0.010052,0.010052,0.010052,0.010052,1700.0
1557954540000,0.010052,0.010052,0.010052,0.010052,1733.5629600000002
1557981960000,0.010153,0.010153,0.010153,0.010153,500.0
1558007760000,0.0127,0.0127,0.0127,0.0127,1000.0
1558072500000,0.01,0.01,0.01,0.01,594.4
1558459260000,0.011699,0.011699,0.011699,0.011699,4096.1124914
1558460040000,0.0117,0.0117,0.0117,0.0117,3256.0
1558475820000,0.013,0.013,0.013,0.013,4942.67922953
1558510080000,0.0129,0.0129,0.0129,0.0129,9170.93873643
1558510140000,0.0129,0.0129,0.0129,0.0129,3734.38351937
1558510440000,0.0129,0.0129,0.0129,0.0129,3783.60569019
1558517760000,0.01289,0.01289,0.01289,0.01289,2848.837209300001
1558520640000,0.01289,0.0129,0.0129,0.01289,12388.73594457
1558534860000,0.0128,0.0129,0.0129,0.0128,4481.94569288
1558537980000,0.01557,0.0158,0.0158,0.01557,18778.12701841
1558538400000,0.0158,0.01843,0.01843,0.0158,5498.64584809
1558551120000,0.017,0.0117,0.017,0.0117,1556.30542335
1558555920000,0.012454,0.012391,0.012454,0.012391,28327.85520232
1558556160000,0.012495,0.012435,0.012495,0.012435,26982.73633084
1558556640000,0.01489,0.01489,0.01489,0.01489,367.5
1558556700000,0.0145,0.0145,0.0145,0.0145,29445.0
1558556880000,0.014931,0.014931,0.014931,0.014931,367.5
1558556940000,0.0149,0.0149,0.0149,0.0149,350.0
1558557000000,0.014801,0.014801,0.014801,0.014801,367.5
1558557180000,0.0148,0.0148,0.0148,0.0148,350.0
1558557240000,0.014791,0.0147,0.014791,0.0147,717.5
1558557420000,0.014661000000000004,0.014661000000000004,0.014661000000000004,0.014661000000000004,367.5
1558725840000,0.017996,0.017996,0.017996,0.017996,7500.0
1558725960000,0.0096429,0.0096429,0.0096429,0.0096429,7485.0
1558744440000,0.013,0.013,0.013,0.013,780.00435923
1558755600000,0.013,0.013,0.013,0.013,6000.0
1558772220000,0.011116,0.011116,0.011116,0.011116,5994.0
1558876080000,0.012062,0.012062,0.012062,0.012062,554.445
1558959900000,0.012503,0.0125,0.012503,0.0125,12702.8032824
1558959960000,0.0125,0.0125,0.0125,0.0125,1291.78572335
1558960020000,0.016,0.016,0.016,0.016,3996.0
1558960080000,0.016,0.016,0.016,0.016,1986.012
1559016420000,0.015,0.015,0.015,0.015,3970.92025624
1559236200000,0.012744,0.012733,0.012744,0.012733,3759.02448211
1559250900000,0.012615,0.012615,0.012615,0.012615,8139.543693940002
1559250960000,0.012615,0.012615,0.012615,0.012615,15641.45630606
1559348280000,0.01374,0.01374,0.01374,0.01374,406.54827642
1559368440000,0.012031,0.012,0.012031,0.012,5350.0
1559478540000,0.0121,0.011962,0.0121,0.011962,3886.37785718
1559481180000,0.012069,0.012069,0.012069,0.012069,1210.28116628
1559607480000,0.0119,0.0119,0.0119,0.0119,1000.0
1559928660000,0.012958,0.012958,0.012958,0.012958,2670.74449752
1559930100000,0.011228,0.011228,0.011228,0.011228,13762.07534428
1559958540000,0.013456999999999998,0.01346,0.01346,0.013456999999999998,3475.58333126
1560158580000,0.0145,0.014577,0.014577,0.0145,8212.98942855
1560158640000,0.014576,0.014577,0.014577,0.014576,11484.79664539
1560158700000,0.014576,0.014577,0.014577,0.014576,7044.921213899999
1560158760000,0.014576,0.014577,0.014577,0.014576,3631.1855381
1560232440000,0.015991,0.016,0.016,0.015991,16114.334554799998
1560232500000,0.015999,0.016,0.016,0.015999,7483.817015869998
1560280860000,0.012057,0.012057,0.012057,0.012057,4800.0
1560579660000,0.0159,0.0159,0.0159,0.0159,3176.78747292
1560579720000,0.0159,0.016,0.016,0.0159,4687.68659305
1560584940000,0.0149,0.0149,0.0149,0.0149,5587.63377
1560585060000,0.016399,0.0164,0.0164,0.016399,3984.54516663
1560585720000,0.016491,0.016499,0.016499,0.016491,11567.88356107
1560585840000,0.017252,0.017571,0.017571,0.017252,13854.529988
1560585900000,0.017759999999999998,0.018000000000000002,0.018000000000000002,0.017759999999999998,5122.143331
1560616980000,0.019981,0.019982,0.019982,0.019981,23765.11663691
1560617040000,0.019981,0.019984,0.019984,0.019981,8915.67352009
1560649020000,0.0199,0.0199,0.0199,0.0199,6000.0
1560806460000,0.014113,0.014113,0.014113,0.014113,1430.7985680400006
1560807420000,0.014127,0.01357,0.014127,0.01357,1063.96058718
1561050180000,0.01357,0.01357,0.01357,0.01357,770.48
1561073940000,0.013068,0.013068,0.013068,0.013068,1000.998
1561079280000,0.013315,0.013315,0.013315,0.013315,1000.998
1561091400000,0.013350999999999998,0.01335,0.013350999999999998,0.01335,4776.789910789998
1561111500000,0.014021,0.01402,0.014021,0.01402,1786.37108273
1561121700000,0.0191,0.019977,0.019977,0.0191,2000.0
1561132440000,0.0143,0.013369999999999998,0.0143,0.013369999999999998,10000.0
1561152360000,0.013369999999999998,0.013369999999999998,0.013369999999999998,0.013369999999999998,7520.472
1561152420000,0.013369999999999998,0.013359,0.013369999999999998,0.013359,3760.236
1561159560000,0.013201,0.0132,0.013201,0.0132,3426.57
1561197840000,0.0165,0.0165,0.0165,0.0165,328.0
1561198200000,0.0165,0.0165,0.0165,0.0165,7839.45653821
1561202820000,0.0157,0.0157,0.0157,0.0157,328.0
1561213560000,0.01569,0.01569,0.01569,0.01569,328.0
1561321200000,0.0156,0.0156,0.0156,0.013307,984.0
1561321260000,0.0156,0.0156,0.0156,0.0156,411.0
1561338420000,0.01555,0.01555,0.01555,0.01555,328.0
1561401240000,0.014107,0.014107,0.014107,0.014107,328.0
1561401660000,0.014106,0.014106,0.014106,0.014106,328.0
1561405500000,0.01544,0.01544,0.01544,0.01544,863.8353543
1561408920000,0.014106,0.014106,0.014106,0.014106,735.1646456999997
1561435380000,0.014107,0.014106,0.014107,0.014106,361.8353543
1561464540000,0.012173,0.012173,0.012173,0.012173,13093.06112658
1561494660000,0.0123,0.0123,0.0123,0.0123,3043.1
1561574220000,0.01233,0.01218,0.01233,0.01218,6369.624
1561574880000,0.012181,0.012,0.012181,0.012,4824.1709999999985
1561625700000,0.012,0.012,0.012,0.012,864.10773517
1561637400000,0.0145,0.0145,0.0145,0.0145,1340.30180468
1561637460000,0.0145,0.0145,0.0145,0.0145,836.33279958
1561649280000,0.011231,0.011231,0.011231,0.011231,3516.48
1561651920000,0.011231,0.01123,0.011231,0.01123,5023.971
1561655160000,0.01123,0.01123,0.01123,0.01123,1304.029
1561704660000,0.010153,0.010153,0.010153,0.010153,1361.93690254
1561751820000,0.0144,0.0144,0.0144,0.0144,1000.0
1561959780000,0.010253,0.010253,0.010253,0.010253,12877.21
1562001060000,0.0122,0.0122,0.0122,0.0122,3208.15329195
1562056560000,0.0144,0.0144,0.0144,0.0144,940.0
1562097060000,0.010231,0.010231,0.010231,0.010231,939.06
1562102220000,0.0143,0.0144,0.0144,0.0143,953.2689373
1562180040000,0.01429,0.01429,0.01429,0.01429,842.3448627
1562180100000,0.0155,0.0155,0.0155,0.0155,731.1524067
1562227140000,0.01037,0.010311,0.01037,0.010311,5659.335
1562227200000,0.010311,0.0103,0.010311,0.0103,21868.11
1562227260000,0.010301,0.0103,0.010301,0.0103,35446.518
1562229900000,0.010311,0.010232,0.010311,0.010232,5364.63
1562257740000,0.0111,0.011,0.0111,0.011,24008.50212522
1562260500000,0.011,0.011,0.011,0.011,5015.758379999998
1562261880000,0.011,0.011,0.011,0.011,2376.16135598
1562262600000,0.011,0.011,0.011,0.011,500.59867458
1562262720000,0.0147,0.0147,0.0147,0.0147,650.0
1562268720000,0.01102,0.01102,0.01102,0.01102,4454.541
1562282580000,0.01437,0.01437,0.01437,0.01437,328.0
1562283240000,0.010621,0.01062,0.010621,0.01062,6239.754
1562534940000,0.010454,0.010454,0.010454,0.010454,1148.7980759000004
1562535120000,0.010454,0.010454,0.010454,0.010454,937.18188
1562656080000,0.01045,0.0104,0.01045,0.0104,5364.9293134300015
1562674560000,0.0104,0.0104,0.0104,0.0104,2035.94584401
1562692980000,0.010401,0.0104,0.010401,0.0104,2509.78020256
1562698800000,0.01041,0.01041,0.01041,0.01041,4998.996
1562698980000,0.010411,0.01041,0.010411,0.01041,329.004
1562722200000,0.010201,0.0102,0.010201,0.0102,1828.0
1562742240000,0.010271,0.010271,0.010271,0.010271,328.0
1562749020000,0.0099001,0.0099001,0.0099001,0.0099001,4845.15
1562749620000,0.0099,0.0099,0.0099,0.0099,1000.0
1562793660000,0.01026,0.010262,0.010262,0.01026,5000.0
1562820360000,0.0089706,0.0089705,0.0089706,0.0089705,7508.484
1562859060000,0.0089706,0.0089705,0.0089706,0.0089705,1501.6287596
1562860200000,0.008501100000000001,0.0085,0.008501100000000001,0.0085,5584.41
1563098040000,0.008502,0.008502,0.008502,0.008502,1749.281166
1563098100000,0.008502,0.0085,0.008502,0.0085,12024.0
1563120540000,0.008886,0.008886,0.008886,0.008886,9919.75992
1563121440000,0.008886,0.008886,0.008886,0.008886,602.06526256
1564091580000,0.0075,0.0075,0.0075,0.0075,2023.308
1564091760000,0.0075,0.0075,0.0075,0.0075,447.276578
1564177860000,0.0055802,0.0055802,0.0055802,0.0055802,5066.37334
1564428540000,0.0088,0.0088,0.0088,0.0088,4114.550088
1564500720000,0.0055912,0.0055912,0.0055912,0.0055912,987.1
1564678680000,0.0058287,0.0058287,0.0058287,0.0058287,5346.46
1564695840000,0.0084475,0.0084475,0.0084475,0.0084475,7386.795204999998
1564746360000,0.0058585,0.0058585,0.0058585,0.0058585,458.555
1564779960000,0.007490000000000002,0.007490000000000002,0.007490000000000002,0.007490000000000002,1200.0
1564780260000,0.007490000000000002,0.007490000000000002,0.007490000000000002,0.007490000000000002,1409.12553
1564792860000,0.007303699999999998,0.007490000000000002,0.007490000000000002,0.007303699999999998,1400.0
1564841700000,0.005907,0.005907,0.005907,0.005907,1097.8
1565359080000,0.0059295,0.0059295,0.0059295,0.0059295,2301.3735707
1565365800000,0.0059295,0.0058359,0.0059295,0.0058359,10261.380382
1565365860000,0.005763,0.00557,0.005763,0.00557,15000.0
1565365980000,0.005575699999999999,0.00557,0.005575699999999999,0.00557,610.16751779
1565366040000,0.005575699999999999,0.00557,0.005575699999999999,0.00557,916.0
1565438340000,0.0072027,0.007390000000000002,0.007390000000000002,0.0072027,8000.0
1565438820000,0.00719,0.00719,0.00719,0.00719,2000.0
1565440020000,0.00719,0.00719,0.00719,0.00719,2298.483282
1565441100000,0.0056,0.0056,0.0056,0.0056,5551.35916863
1565441220000,0.0056,0.0056,0.0056,0.0056,1448.64083137
1565468700000,0.0056,0.0056,0.0056,0.0056,9359.631
1565473860000,0.0056,0.0056,0.0056,0.0056,0.16081610000000002
1565550540000,0.0069900000000000006,0.0071717,0.0071717,0.0069900000000000006,11111.0
1565550600000,0.0043837,0.0076,0.0076,0.0043837,19196.496718
1565550660000,0.0075,0.0073,0.0075,0.0045937,30914.0
1565550720000,0.00729,0.0073,0.0073,0.0045937,49906.237675
1565550780000,0.0072,0.00698,0.0072,0.0047,45752.0
1565550840000,0.00485,0.006790000000000001,0.0068,0.00485,36672.0
1565550900000,0.005,0.005101,0.005101,0.005,1665.0
1565550960000,0.0052,0.0066,0.0066,0.0052,17181.0
1565551020000,0.00659,0.00648,0.00659,0.006448100000000001,17719.0
1565551080000,0.0052008,0.005,0.0052008,0.005,18792.686924
1565559300000,0.0063,0.0063,0.0063,0.0063,1000.0
1565573460000,0.0063,0.0063,0.0063,0.0063,458.0
1565676960000,0.0062997,0.0062997,0.0062997,0.0062997,1199.33471761
1566152160000,0.0055780000000000005,0.0055780000000000005,0.0055780000000000005,0.0055780000000000005,45056.319
1566331500000,0.005010499999999999,0.005010499999999999,0.005010499999999999,0.005010499999999999,2090.0
1566662280000,0.0058633,0.0058633,0.0058633,0.0058633,2090.0
1568550780000,0.0057222,0.0057222,0.0057222,0.0057222,6878.3141522
1568833980000,0.0082737,0.009149700000000002,0.009149700000000002,0.0082737,44352.76470572
1568834040000,0.005605,0.00915,0.00915,0.005605,7154.64730071
1568834100000,0.009369,0.0096695,0.0096695,0.009369,50322.25256993
1568834400000,0.0096694,0.0096695,0.0096695,0.0096694,5412.0
1568834460000,0.0096695,0.0096695,0.0096695,0.0096695,452.04458269
1568834580000,0.01,0.01,0.01,0.01,12346.271369
1568896860000,0.010556,0.010556,0.010556,0.010556,2762.31670137
1569228000000,0.005807,0.005807,0.005807,0.005807,5050.0
1569355200000,0.0056531,0.0056531,0.0056531,0.0056531,3490.246901
1569793920000,0.0056463,0.0056463,0.0056463,0.0056463,777.77521806
1569869160000,0.01045,0.0057,0.01045,0.0055448,11636.85643988
1569869220000,0.0099,0.00575,0.010895,0.00575,31843.71287976
1569869280000,0.0098,0.0058,0.010354,0.0058,52810.1314946
1569869340000,0.00595,0.006,0.0099,0.00595,40425.0
1569869400000,0.0061,0.0099,0.0099,0.0061,77645.0
1569869460000,0.0063,0.009000000000000001,0.0099,0.0063,97003.09
1569869520000,0.0089,0.0065,0.0089,0.0065,39078.850089
1570064040000,0.010406,0.0069,0.010406,0.0069,990.0
1570663980000,0.010512,0.010512,0.010512,0.010512,477.0
1570665360000,0.0072,0.0074,0.0074,0.0072,958.0
1570668840000,0.00755,0.00755,0.00755,0.00755,474.0
1570706340000,0.00755,0.00755,0.00755,0.00755,5.0
1570808820000,0.00989,0.00989,0.00989,0.00989,492.058599
1570838460000,0.00745,0.007229899999999998,0.00745,0.007229899999999998,1151.67504804
1571073840000,0.0077,0.0077,0.0077,0.0077,490.0
1571213820000,0.0075,0.0075,0.0075,0.0075,490.0
1571217360000,0.007417,0.007417,0.007417,0.007417,490.0
1571318040000,0.0056231,0.0056231,0.0056231,0.0056231,1823.777625
1571413440000,0.0102,0.01055,0.01055,0.0102,3555.7722659999995
1571686440000,0.0095909,0.0095909,0.0095909,0.0095909,474.0
1572032460000,0.00943,0.00943,0.00943,0.00943,999.95199995
1572032520000,0.005837,0.006027,0.010168,0.005837,7852.058598999999
1572773040000,0.006746500000000001,0.006746500000000001,0.006746500000000001,0.006746500000000001,1978.0
1572773100000,0.006746500000000001,0.006746500000000001,0.006746500000000001,0.006746500000000001,6000.0
1572774600000,0.0065373,0.0065373,0.0065373,0.0065373,2000.0
1572775920000,0.006573100000000001,0.006573100000000001,0.006573100000000001,0.006573100000000001,1000.0
1572792420000,0.0066122,0.0066122,0.0066122,0.0066122,506.59172214
1572792660000,0.0075400000000000016,0.0075400000000000016,0.0075400000000000016,0.0075400000000000016,1040.67504804
1572805620000,0.0075200000000000015,0.0075200000000000015,0.0075200000000000015,0.0075200000000000015,474.0
1572844860000,0.0073875,0.0073875,0.0073875,0.0073875,704.00116836
1572892140000,0.0066,0.0066,0.0066,0.0066,1530.150418
1572902880000,0.00745,0.00745,0.00745,0.00745,477.0
1573154580000,0.0094,0.0094,0.0094,0.0094,474.0
1574418240000,0.0064586,0.0064586,0.0064586,0.0064586,6954.91465273
1574431980000,0.0061949,0.0061571,0.0061949,0.0061571,3250.46721371
1574432880000,0.0061571,0.006025,0.0061571,0.006025,2412.78385882
1574432940000,0.006025,0.006025,0.006025,0.006025,596.02335347
1574466480000,0.0077264,0.0077264,0.0077264,0.0077264,1000.0
1574468220000,0.0076931,0.0076931,0.0076931,0.0076931,846.84508047
1574499840000,0.0061,0.0061,0.0061,0.0061,8129.97223976
1574501640000,0.0061,0.0060964,0.0061,0.0060964,8011.5854973700025
1574501700000,0.0060964,0.0060964,0.0060964,0.0060964,3940.32796907
1574504160000,0.0060528,0.0060528,0.0060528,0.0060528,4033.27913312
1574608560000,0.006,0.006,0.006,0.006,500.0
1574608860000,0.006,0.006,0.006,0.006,3486.014
1574610900000,0.006,0.006,0.006,0.006,13.986
1574656320000,0.005575500000000001,0.005575500000000001,0.005575500000000001,0.005575500000000001,4025.212574
1574974740000,0.0076,0.0076,0.0076,0.0076,1796.39999999
1574974920000,0.008423,0.008423,0.008423,0.008423,1796.39999999
1574986800000,0.0058929,0.0058929,0.0058929,0.0058929,473.052
1575021240000,0.00839,0.00839,0.00839,0.00839,1500.0
1575022140000,0.00864,0.0087991,0.0087991,0.00864,2094.8941990000008
1575023220000,0.008929600000000001,0.008929600000000001,0.008929600000000001,0.008929600000000001,7550.14406628
1575023280000,0.008929600000000001,0.008929600000000001,0.008929600000000001,0.008929600000000001,7166.58460919
1575023580000,0.008929600000000001,0.009289,0.009289,0.008929600000000001,752.26132453
1575028440000,0.009468700000000002,0.009468700000000002,0.009468700000000002,0.009468700000000002,4408.091939
1575028500000,0.0095,0.0095,0.0095,0.0095,6790.869728
1575045060000,0.00948,0.00948,0.00948,0.00948,2196.0
1575362820000,0.0064673000000000005,0.0064673000000000005,0.0064673000000000005,0.0064673000000000005,3548.660721
1575417060000,0.010531,0.010531,0.010531,0.010531,5154.477976
1575422880000,0.009000000000000001,0.009000000000000001,0.009000000000000001,0.009000000000000001,5144.16902
1575573060000,0.006606999999999999,0.006466800000000001,0.006606999999999999,0.006466800000000001,29247.35108333
1575573960000,0.0067482,0.0067482,0.0067482,0.0067482,26964.52687007
1575941040000,0.006892100000000001,0.006892100000000001,0.006892100000000001,0.006892100000000001,9304.2727944
1575942300000,0.0066235,0.0066235,0.0066235,0.0066235,4076.38850096
1576167420000,0.006999999999999999,0.006999999999999999,0.006999999999999999,0.006999999999999999,7484.57631992
1576297380000,0.0070003,0.0070003,0.0070003,0.0070003,2862.062
1576338840000,0.006999999999999999,0.006999999999999999,0.006999999999999999,0.006999999999999999,25113.98459578
1576338960000,0.006999999999999999,0.006999999999999999,0.006999999999999999,0.006999999999999999,25500.29691466
1576339020000,0.006999999999999999,0.006999999999999999,0.006999999999999999,0.006999999999999999,7270.30529314
1576339080000,0.006999999999999999,0.006999999999999999,0.006999999999999999,0.006999999999999999,30718.251
1576339140000,0.006999999999999999,0.006999999999999999,0.006999999999999999,0.006999999999999999,42121.836
1576339860000,0.006999999999999999,0.006999999999999999,0.006999999999999999,0.006999999999999999,11790.7498765
1576509780000,0.008,0.008,0.008,0.008,600.0
1576563900000,0.0066465000000000005,0.0066465000000000005,0.0066465000000000005,0.0066465000000000005,4013.94273493
1576571100000,0.0066089,0.0066089,0.0066089,0.0066089,2000.0
1576594440000,0.0062835,0.0062835,0.0062835,0.0062835,1704.0
1576594560000,0.0062835,0.0062835,0.0062835,0.0062835,1704.0
1576607160000,0.00621,0.00621,0.00621,0.00621,1704.0
1576697880000,0.00621,0.00621,0.00621,0.00621,843.94322629
1577134440000,0.006,0.006,0.006,0.006,5188.494229
1577356440000,0.006,0.0057815,0.006,0.0057815,15499.43405105
1577728560000,0.0058,0.0058,0.0058,0.0058,2000.0
1577801760000,0.0057558,0.00575,0.0057558,0.00575,8965.11908329
1578589380000,0.00562,0.0056148000000000005,0.00562,0.0056148000000000005,7996.0
1579116180000,0.0056687,0.0056687,0.0056687,0.0056687,8085.8
1579653540000,0.00793,0.01278,0.01278,0.00793,13285.06211245
1579653600000,0.01278,0.01278,0.01278,0.01278,1915.96276462
1579694940000,0.011583,0.011583,0.011583,0.011583,2549.54414919
1579817340000,0.0060897,0.0060897,0.0060897,0.0060897,1600.0
1579817700000,0.0060897,0.006023399999999999,0.0060897,0.006023399999999999,13173.09890495
1580385840000,0.0098,0.0098,0.0098,0.0098,1001.5194872000003
1580401560000,0.006000999999999999,0.006000999999999999,0.006000999999999999,0.006000999999999999,2373.97933678
1580850720000,0.00607,0.0060034,0.00607,0.0060034,150000.0
1580895360000,0.0060058,0.0060058,0.0060058,0.0060058,958.795021
1581364800000,0.0094,0.00998,0.00998,0.0094,73435.40887689
1581365100000,0.011,0.011,0.011,0.011,2000.0
1581365160000,0.01242,0.01242,0.01242,0.01242,32010.974
1581365220000,0.012399,0.01242,0.01242,0.012399,10000.0
1581365460000,0.012419,0.0135,0.0135,0.012418,9095.47143005
1581365640000,0.013499,0.0139,0.0139,0.013498,20051.283643900002
1581368460000,0.013599000000000002,0.0137,0.0137,0.013599000000000002,3742.47
1581368820000,0.013598,0.013596,0.013598,0.013596,5000.0
1581368880000,0.013595,0.0137,0.0137,0.013594,4065.59055694
1581401280000,0.012,0.012,0.012,0.012,4260.202483
1581442320000,0.011104,0.01075,0.011104,0.01075,27509.99795035
1581468720000,0.01075,0.0107,0.01075,0.0107,37556.55866700001
1581469740000,0.011081,0.011081,0.011081,0.011081,16842.46609928
1581477300000,0.010812,0.010812,0.010812,0.010812,4998.558667
1581498960000,0.013447,0.013447,0.013447,0.013447,580.0
1581499080000,0.013446,0.013447,0.013447,0.013446,15600.0
1581535560000,0.01338,0.01338,0.01338,0.01338,3014.914151
1581561480000,0.010899,0.010899,0.010899,0.010899,2450.2668504
1581699960000,0.013166,0.010899,0.013166,0.010899,1657.84
1582757460000,0.00707,0.00707,0.00707,0.00707,1709.996639
1583981880000,0.006263800000000001,0.0062201,0.006263800000000001,0.0062201,11140.05744487
1583996220000,0.00601,0.006000999999999999,0.00601,0.006000999999999999,12542.56547569
1583997240000,0.005771899999999999,0.0057,0.005771899999999999,0.0057,12872.11060944
1583997360000,0.0057,0.0057,0.0057,0.0057,8404.587
1584001320000,0.0057,0.0057,0.0057,0.0057,795.62769738
1584009480000,0.0053858000000000005,0.0053858000000000005,0.0053858000000000005,0.0053858000000000005,4593.15223377
1584021180000,0.004507,0.004507,0.004507,0.004507,588.0
1584055680000,0.004,0.0036,0.004,0.0036,913.60990217
1584096180000,0.004139899999999999,0.00414,0.00414,0.004139899999999999,2882.41654309
1584106500000,0.0088585,0.0088585,0.0088585,0.0088585,6095.41147542
1584111180000,0.0088541,0.0088541,0.0088541,0.0088541,2587.97659175
1584111480000,0.0088541,0.0088541,0.0088541,0.0088541,2759.0122682
1584111900000,0.008803700000000001,0.008803700000000001,0.008803700000000001,0.008803700000000001,2677.64191343
1584112020000,0.008803700000000001,0.008803700000000001,0.008803700000000001,0.008803700000000001,5502.62925846
1584112080000,0.008803700000000001,0.008803700000000001,0.008803700000000001,0.008803700000000001,5884.6293375999985
1584112140000,0.008803700000000001,0.008803700000000001,0.008803700000000001,0.008803700000000001,3067.59499967
1584112200000,0.008803700000000001,0.008803700000000001,0.008803700000000001,0.008803700000000001,2910.92750688
1584113640000,0.008810700000000001,0.008810700000000001,0.008810700000000001,0.008810700000000001,5573.02584141
1584114540000,0.008810700000000001,0.008810700000000001,0.008810700000000001,0.008810700000000001,11363.51013751
1584114600000,0.0092176,0.0092176,0.0092176,0.0092176,2838.87303004
1584116040000,0.0087982,0.0087982,0.0087982,0.0087982,3035.95965135
1584116160000,0.0088076,0.0088076,0.0088076,0.0088076,7881.56443138
1584116280000,0.0088076,0.0088076,0.0088076,0.0088076,2902.60904116
1584116520000,0.0088076,0.0088076,0.0088076,0.0088076,6043.70144594
1584116580000,0.0088076,0.0088076,0.0088076,0.0088076,2491.70394364
1584123600000,0.008765100000000001,0.008765100000000001,0.008765100000000001,0.008765100000000001,2543.33817829
1584143580000,0.0019876,0.0019876,0.0019876,0.0019876,11000.0
1584450180000,0.008473,0.008473,0.008473,0.008473,4600.0
1584477180000,0.0085463,0.0085463,0.0085463,0.0085463,4000.0
1584738780000,0.002107,0.002107,0.002107,0.002107,2147.0
1585061460000,0.0075631,0.0075631,0.0075631,0.0075631,582.0
1585227960000,0.0051,0.0051,0.0051,0.0051,43300.53897279
1585228320000,0.00505,0.00505,0.00505,0.00505,11390.0
1585228380000,0.00505,0.0051,0.0051,0.00505,113900.5185515
1585229160000,0.0052916000000000005,0.0052916000000000005,0.0052916000000000005,0.0052916000000000005,10616.08813849
1585229220000,0.0052,0.0052,0.0052,0.0052,18750.426
1585229400000,0.00519,0.00519,0.00519,0.00519,50534.12908114
1585229580000,0.00518,0.00518,0.00518,0.00518,50751.3
1585229700000,0.00518,0.00518,0.00518,0.00518,10613.57582866
1585229760000,0.00518,0.00518,0.00518,0.00518,11084.91674139
1585230060000,0.00515,0.00518,0.00518,0.00515,37936.722
1585230120000,0.00518,0.0052,0.0052,0.00518,10283.6786688
1585234980000,0.0052076,0.0052076,0.0052076,0.0052076,1971.09670074
1585261560000,0.0052,0.0052,0.0052,0.0052,19.8873312
1585363020000,0.0052076,0.0052076,0.0052076,0.0052076,1080.907022
1585363200000,0.0052922,0.0054278,0.0054278,0.0052922,8365.99354887
1585366440000,0.0054278,0.0054278,0.0054278,0.0054278,15.73645113
1585637760000,0.0054278,0.0054278,0.0054278,0.0054278,10427.223
1585638120000,0.005915600000000001,0.005915600000000001,0.005915600000000001,0.005915600000000001,7595.16
1585783380000,0.0058284,0.0058284,0.0058284,0.0058284,10296.38935923
1585831980000,0.0075631,0.0075631,0.0075631,0.0075631,1305.0
1585834260000,0.0049,0.0049,0.0049,0.0049,2500.0
1586456340000,0.00743,0.005084600000000001,0.00743,0.005084600000000001,2219.778
1586456760000,0.007243,0.0058238,0.0075631,0.0052726000000000006,3328.556
1586456820000,0.0075631,0.008923,0.008923,0.0075631,60392.82565232
1586456880000,0.009000000000000001,0.0087,0.009148,0.005464,44855.556
1586456940000,0.00847,0.005376,0.00847,0.00511,22981.96053361
1586457000000,0.008409999999999999,0.008409999999999999,0.008409999999999999,0.008409999999999999,21466.0
1586457060000,0.0054002,0.0057909,0.0058059,0.0054002,77343.59486501
1586458320000,0.005761,0.005761,0.005761,0.005761,1942.67402501
1586494140000,0.005084600000000001,0.005084600000000001,0.005084600000000001,0.005084600000000001,770.793324
1587212700000,0.00336,0.00336,0.00336,0.00336,1600.0
1587576360000,0.00336,0.00336,0.00336,0.00336,589.41
1587990060000,0.0037751,0.0037751,0.0037751,0.0037751,1600.0
1587990180000,0.0046858,0.0046858,0.0046858,0.0046858,1600.0
1588032840000,0.0042143,0.0042143,0.0042143,0.0042143,2000.0
1588032900000,0.004242,0.004242,0.004242,0.004242,2000.0
1588268580000,0.0044519,0.0044519,0.0044519,0.0044519,849.132
1588286040000,0.004448399999999999,0.004448399999999999,0.004448399999999999,0.004448399999999999,2407.479823
1588699440000,0.0046833,0.0046833,0.0046833,0.0046833,3982.676
1590180180000,0.00827,0.00827,0.00827,0.00827,720.0
1590684960000,0.00827,0.00842,0.01312,0.00827,104009.29365331
1590685020000,0.008597200000000001,0.012,0.012802,0.008597200000000001,195490.0
1590685080000,0.008692,0.0108,0.011543,0.008692,258321.0
1590685740000,0.010645,0.010645,0.010645,0.010645,600.0
1590687060000,0.008692100000000001,0.0084715,0.008692100000000001,0.0084715,6554.93386
1590687120000,0.0088912,0.0084715,0.0088912,0.0084715,17228.58529194
1590687420000,0.009000000000000001,0.009000000000000001,0.009000000000000001,0.009000000000000001,583.0
1590689220000,0.00845,0.00845,0.00845,0.00845,1000.0
1590689520000,0.0083846,0.008,0.0083846,0.008,12422.57949494
1590689760000,0.007816199999999999,0.00745,0.007816199999999999,0.00745,31067.8508747
1590739800000,0.0075941,0.0075941,0.0075941,0.0075941,1200.0
1590739860000,0.0070013,0.0070013,0.0070013,0.0070013,7724.2736959999975
1591217580000,0.0072,0.0072,0.0072,0.0072,6548.445
1591509840000,0.0072583,0.0072583,0.0072583,0.0072583,870.54
1591521000000,0.0074855,0.0074855,0.0074855,0.0074855,870.54
1591633320000,0.009173,0.009173,0.009173,0.009173,924.831708
1592193180000,0.007262,0.0072416,0.007262,0.0072416,30998.97
1593198900000,0.007849600000000002,0.007849600000000002,0.007849600000000002,0.007849600000000002,12764.478
1593217200000,0.007949600000000001,0.007949600000000001,0.007949600000000001,0.007949600000000001,23924.754
1593256200000,0.0077496000000000015,0.0077496000000000015,0.0077496000000000015,0.0077496000000000015,11310.576
1593971580000,0.009073,0.009073,0.009073,0.009073,5000.0
1594308360000,0.008223600000000001,0.0081,0.008223600000000001,0.0081,7507.485
1594308420000,0.0081,0.0081,0.0081,0.0081,7316.675999999998
1594308480000,0.0081,0.0081,0.0081,0.0081,20466.513
1594314660000,0.0081,0.0081,0.0081,0.0081,1894.89413203
1594353780000,0.0081,0.0081,0.0081,0.0081,3000.0
1594354020000,0.0081,0.0081,0.0081,0.0081,1900.0
1594354200000,0.008505799999999999,0.008527700000000001,0.008527700000000001,0.008505799999999999,12544.038
1594528020000,0.0081,0.0081,0.0081,0.0081,923.0
1594957080000,0.0079294,0.0079294,0.0079294,0.0079294,3997.0
1595200320000,0.0079502,0.0078010000000000015,0.0079502,0.0078010000000000015,12625.1549891
1595200380000,0.0078010000000000015,0.0078010000000000015,0.0078010000000000015,0.0078010000000000015,43814.63436
1595200740000,0.0083968,0.0083968,0.0083968,0.0083968,582.0
1595200800000,0.007370100000000002,0.007370100000000002,0.007370100000000002,0.007370100000000002,1050.0466
1595253900000,0.0077888,0.0077888,0.0077888,0.0077888,3665.66263369
1595474640000,0.0081857,0.0081857,0.0081857,0.0081857,3665.66263369
1595512260000,0.008912799999999999,0.009073,0.009073,0.008912799999999999,8538.71334
1595512560000,0.009073,0.009270700000000002,0.009270700000000002,0.009073,29544.972
1595580300000,0.009270700000000002,0.009270700000000002,0.009270700000000002,0.009270700000000002,791.593748
1595687160000,0.01049,0.01049,0.01049,0.01049,1000.0
1596488940000,0.0075485,0.0075485,0.0075485,0.0075485,6740.0
1596562680000,0.0099195,0.0099195,0.0099195,0.0099195,1111.0
1596738180000,0.0076054,0.0076054,0.0076054,0.0076054,1574.023
1597007100000,0.007812,0.007812,0.007812,0.007812,615.80907935
1597131660000,0.0080643,0.0080643,0.0080643,0.0080643,5893.19
1597179480000,0.009887,0.009887,0.009887,0.009887,614.5774619
1597379760000,0.0081482,0.0081482,0.0081482,0.0081482,1109.889
1597508880000,0.009873,0.009873,0.009873,0.009873,613.348307
1597509240000,0.010499,0.011,0.011,0.010499,26048.02720639
1597509420000,0.011098,0.011098,0.011098,0.011098,1000.0
1597510860000,0.011547,0.011547,0.011547,0.011547,8389.746
1597525500000,0.0118,0.011998,0.011998,0.0118,41948.73
1597525560000,0.011998,0.012,0.012,0.011998,15995.84103
1597536060000,0.012,0.012,0.012,0.012,4600.0
1597536120000,0.012,0.012,0.012,0.012,2000.0
1597644660000,0.0115,0.0115,0.0115,0.0115,2000.0
1597661040000,0.012527,0.012527,0.012527,0.012527,1724.0
1597675560000,0.010326,0.010326,0.010326,0.010326,1999.992
1597681680000,0.01067,0.01067,0.01067,0.01067,1999.992
1597760940000,0.0111,0.0111,0.0111,0.0111,1997.992008
1598180820000,0.0103,0.010326,0.010326,0.0103,19602.9655
1598182140000,0.010742,0.010662,0.010742,0.010662,16618.602
1598182320000,0.010582,0.010621,0.010621,0.010582,3200.0
1598206560000,0.010352,0.010352,0.010352,0.010352,1720.552
1598776860000,0.010025,0.010025,0.010025,0.010025,4997.507475
1598777280000,0.010523,0.010523,0.010523,0.010523,4997.507475
1598922780000,0.010523,0.01,0.010523,0.01,867.7989200000003
1599031740000,0.010025,0.01,0.010025,0.01,741.687605
1599176400000,0.00808,0.00801,0.00808,0.00801,6537.456
1599177900000,0.00801,0.007812999999999999,0.00801,0.007812999999999999,2320.552
1599310140000,0.007812999999999999,0.007812999999999999,0.007812999999999999,0.007812999999999999,864.4697130000003
1599420960000,0.0095018,0.0095018,0.0095018,0.0095018,1000.0
1599471300000,0.0094716,0.00417,0.0094716,0.00417,4410.21662
1599477000000,0.009466,0.009466,0.009466,0.009466,13662.157065
1602101700000,0.004603,0.004603,0.004603,0.004603,302.146901
1602308640000,0.0087,0.0087,0.0087,0.0087,301.542607
1602308760000,0.008803299999999998,0.008803299999999998,0.008803299999999998,0.008803299999999998,198.457393
1602319440000,0.008295799999999999,0.0078259,0.008295799999999999,0.0078259,1000.0
1602355800000,0.007186799999999998,0.007114300000000001,0.007186799999999998,0.007114300000000001,3000.0
1602364740000,0.0076197,0.0076197,0.0076197,0.0076197,2900.0
1602364920000,0.0072388,0.0072388,0.0072388,0.0072388,7000.0
1602365400000,0.0072048,0.0072048,0.0072048,0.0072048,9111.21621639
1602368280000,0.0076525,0.007661,0.007661,0.0076525,10470.9
1602368760000,0.0074893999999999985,0.0074895,0.0074895,0.0074893999999999985,6979.2807
1602415740000,0.0074895,0.0074895,0.0074895,0.0074895,621.92345173
1602416760000,0.0072228000000000014,0.0072228000000000014,0.0072228000000000014,0.0072228000000000014,620.67
1602968340000,0.007693899999999998,0.007693899999999998,0.007693899999999998,0.007693899999999998,500.0
1603133460000,0.0067113,0.006659600000000001,0.0067113,0.006659600000000001,13634.83275
1603134300000,0.0068462,0.0068462,0.0068462,0.0068462,7457.89882038
1603141680000,0.0068462,0.0068462,0.0068462,0.0068462,14.87689962
1603141740000,0.0066430000000000005,0.006641299999999999,0.0066430000000000005,0.006641299999999999,1000.0
1603141800000,0.0061371,0.0061371,0.0061371,0.0061371,505.12310038
1603275840000,0.0061524,0.0061524,0.0061524,0.0061524,21235.78
1603280820000,0.0064492,0.0064492,0.0064492,0.0064492,10639.07568
1603280880000,0.006433199999999999,0.006433199999999999,0.006433199999999999,0.006433199999999999,9555.072
1603281060000,0.0063694,0.0063694,0.0063694,0.0063694,1041.63232
1603374720000,0.0067544,0.0067544,0.0067544,0.0067544,1041.63232
1603548120000,0.005985,0.0063174,0.0063174,0.005985,1500.0
1603897080000,0.0054817,0.0054817,0.0054817,0.0054817,500.0
1604219160000,0.0051805,0.0051805,0.0051805,0.0051805,458.0
1604375160000,0.0046068,0.0046068,0.0046068,0.0046068,1994.031839
1604915820000,0.0057215,0.0057215,0.0057215,0.0057215,996.0
1604922660000,0.007122,0.007122,0.007122,0.007122,1000.0
1604922720000,0.007201999999999998,0.007201999999999998,0.007201999999999998,0.007201999999999998,999.0
1604997600000,0.007693899999999998,0.007693899999999998,0.007693899999999998,0.007693899999999998,120.67
1605091800000,0.009000000000000001,0.009000000000000001,0.009000000000000001,0.009000000000000001,258.0
1605265620000,0.0058613,0.0058613,0.0058613,0.0058613,1600.0
1606037340000,0.0059504,0.0059504,0.0059504,0.0059504,2614.824101
1606598640000,0.00935,0.0094787,0.0094787,0.00935,33674.69018075
1606632900000,0.0068200000000000005,0.0068200000000000005,0.0068200000000000005,0.0068200000000000005,1369.43391972
1606635720000,0.0079417,0.0079417,0.0079417,0.0079417,1369.43391972
1606637580000,0.008053399999999999,0.008053399999999999,0.008053399999999999,0.008053399999999999,1369.43391972
1606641780000,0.0080973,0.0080973,0.0080973,0.0080973,1369.43391972
1606673460000,0.0062691000000000005,0.0062691000000000005,0.0062691000000000005,0.0062691000000000005,1046.127248
1606673460000,0.0062691000000000005,0.0062691000000000005,0.0062691000000000005,0.0062691000000000005,1046.127248
1606744380000,0.0081352,0.0081352,0.0081352,0.0081352,3265.80952384
1606749240000,0.008434299999999999,0.008434299999999999,0.008434299999999999,0.008434299999999999,6802.93901223
1606820940000,0.008434,0.008434299999999999,0.008434299999999999,0.008434,2747.0927523
1606844520000,0.008985799999999999,0.009036,0.009036,0.008985799999999999,3346.4927523
1606857360000,0.0065961,0.0065961,0.0065961,0.0065961,33607.34080038
1606857540000,0.0083496,0.0083266,0.0083496,0.0083266,20157.09372
1606857600000,0.0083037,0.0083037,0.0083037,0.0083037,12129.38034
1606858500000,0.008189,0.008189,0.008189,0.008189,1320.86674038
1607004840000,0.0091244,0.0092,0.0092,0.0091244,3054.942
1607195040000,0.007423399999999998,0.007423399999999998,0.007423399999999998,0.007423399999999998,524.29269431
1607658540000,0.0074433999999999985,0.0074433999999999985,0.0074433999999999985,0.0074433999999999985,2523.397364
1607662860000,0.0083725,0.0083725,0.0083725,0.0083725,2523.397364
1607662860000,0.0083725,0.0083725,0.0083725,0.0083725,2523.397364
1607662860000,0.0083725,0.0083725,0.0083725,0.0083725,2523.397364
1607662860000,0.0083725,0.0083725,0.0083725,0.0083725,2523.397364
1607662860000,0.0083725,0.0083725,0.0083725,0.0083725,2523.397364
1607662860000,0.0083725,0.0083725,0.0083725,0.0083725,2523.397364
1607662860000,0.0083725,0.0083725,0.0083725,0.0083725,2523.397364
